Division,WeightClassKg,Place,Name,Team,BodyweightKg,Best3SquatKg,Best3BenchKg,Best3DeadliftKg,TotalKg,Equipment,Event,Sex
Girls,44.23,1,Valery Cano,Edinburg Idea College Prep,43,122.47,52.16,115.67,290.3,Single-ply,SBD,F
Girls,44.23,2,Arely Ortega,Edinburg Quest College Prep,43.73,95.25,54.43,111.13,260.82,Single-ply,SBD,F
Girls,44.23,3,Kayla Rangel,Los Fresnos,43.64,95.25,45.36,115.67,256.28,Single-ply,SBD,F
Girls,44.23,4,Elida Manriquez,Brownsville Lopez,43.23,88.45,49.9,99.79,238.14,Single-ply,SBD,F
Girls,44.23,5,Elizabeth Lazo,PSJA Southwest,44.09,90.72,43.09,97.52,231.33,Single-ply,SBD,F
Girls,44.23,6,Brianna De La Rosa,Los Fresnos,43.73,92.99,29.48,95.25,217.72,Single-ply,SBD,F
Girls,44.23,7,Angelina Zuniga,San Benito,42.27,47.63,24.95,47.63,120.2,Single-ply,SBD,F
Girls,44.23,DQ,Gracie Reyes,PSJA Southwest,43.27,,,,,Single-ply,SBD,F
Girls,47.85,1,Brittney Salcido,PSJA Memorial,47.72,133.81,74.84,129.27,337.93,Single-ply,SBD,F
Girls,47.85,2,Lexi Davila,Brownsville Lopez,47.17,131.54,74.84,124.74,331.12,Single-ply,SBD,F
Girls,47.85,3,Carolina Sanchez,Brownsville Lopez,46.27,129.27,56.7,124.74,310.71,Single-ply,SBD,F
Girls,47.85,4,Talija Borg,Los Fresnos,46.72,113.4,45.36,111.13,269.89,Single-ply,SBD,F
Girls,47.85,5,Jaqueline Pena,Edinburg Idea College Prep,47.72,115.67,43.09,106.59,265.35,Single-ply,SBD,F
Girls,47.85,6,Stacy Gonzalez,PSJA Southwest,47.81,97.52,43.09,102.06,242.67,Single-ply,SBD,F
Girls,47.85,7,Paulina Melendez,Los Fresnos,46.63,102.06,45.36,90.72,238.14,Single-ply,SBD,F
Girls,47.85,8,Alexia Zapata,PSJA Southwest,44.32,83.91,49.9,99.79,233.6,Single-ply,SBD,F
Girls,47.85,9,Anna Marie,Los Fresnos,44.63,81.65,40.82,92.99,215.46,Single-ply,SBD,F
Girls,47.85,10,Samantha Floyd,PSJA Southwest,47.54,86.18,34.02,90.72,210.92,Single-ply,SBD,F
Girls,47.85,11,Janell Martinez,PSJA Southwest,45.63,77.11,34.02,74.84,185.97,Single-ply,SBD,F
Girls,47.85,12,Abigail Del Bosque,Rio Hondo,47.26,56.7,29.48,61.23,147.42,Single-ply,SBD,F
Girls,47.85,DQ,Kayla Alvarado,Los Fresnos,47.08,104.33,,,,Single-ply,SBD,F
Girls,47.85,DQ,Analyssa Martinez,Brownsville Pace,45.36,72.57,,,,Single-ply,SBD,F
Girls,51.94,1,Ale Escandon,Brownsville Hanna,51.53,142.88,88.45,138.35,369.68,Single-ply,SBD,F
Girls,51.94,2,Maryssa Lucio,Brownsville Hanna,50.53,120.2,74.84,127.01,322.05,Single-ply,SBD,F
Girls,51.94,3,Misty Garza,Rio Hondo,51.53,108.86,68.04,113.4,290.3,Single-ply,SBD,F
Girls,51.94,4,Alexandria Garcia,Los Fresnos,50.26,108.86,49.9,117.93,276.69,Single-ply,SBD,F
Girls,51.94,5,Kat Alvarez,Los Fresnos,50.98,104.33,45.36,113.4,263.08,Single-ply,SBD,F
Girls,51.94,6,Bel Sanchez,Mercedes,49.99,102.06,52.16,102.06,256.28,Single-ply,SBD,F
Girls,51.94,7,Melanie Davila,San Benito,51.62,92.99,56.7,104.33,254.01,Single-ply,SBD,F
Girls,51.94,8,Salma Caballero,Brownsville Hanna,49.35,111.13,45.36,92.99,249.48,Single-ply,SBD,F
Girls,51.94,9,Jaziel Lopez,Donna,50.17,102.06,40.82,99.79,242.67,Single-ply,SBD,F
Girls,51.94,10,Mitzi Juarez,Donna,50.35,86.18,43.09,81.65,210.92,Single-ply,SBD,F
Girls,51.94,DQ,Lesly Suarez,Brownsville Lopez,50.89,,,,,Single-ply,SBD,F
Girls,51.94,DQ,Danyel Leal,Los Fresnos,50.8,92.99,,,,Single-ply,SBD,F
Girls,56.02,1,Norma Vega,Brownsville Lopez,54.88,154.22,81.65,149.69,385.55,Single-ply,SBD,F
Girls,56.02,2,Nora Cortez,PSJA Southwest,55.88,127.01,70.31,124.74,322.05,Single-ply,SBD,F
Girls,56.02,3,Alyzza Ortiz,Edinburg Quest College Prep,54.34,120.2,61.23,111.13,292.57,Single-ply,SBD,F
Girls,56.02,4,Viviana Lopez,Port Isabel,52.16,122.47,56.7,111.13,290.3,Single-ply,SBD,F
Girls,56.02,5,Jackie Del Molino,Brownsville Veterans Memorial,55.16,117.93,47.63,120.2,285.76,Single-ply,SBD,F
Girls,56.02,6,Rosa Perales,Brownsville Hanna,53.89,113.4,56.7,113.4,283.5,Single-ply,SBD,F
Girls,56.02,7,Jacqueline Sanchez,Donna,53.52,113.4,47.63,117.93,278.96,Single-ply,SBD,F
Girls,56.02,8,Alexandria Garcia,Los Fresnos,54.34,115.67,49.9,113.4,278.96,Single-ply,SBD,F
Girls,56.02,9,Sabrina Trevino,San Benito,54.16,120.2,52.16,102.06,274.42,Single-ply,SBD,F
Girls,56.02,10,Christine Garza,PSJA Southwest,55.43,111.13,52.16,111.13,274.42,Single-ply,SBD,F
Girls,56.02,11,Vanessa Puig,Los Fresnos,54.88,113.4,54.43,102.06,269.89,Single-ply,SBD,F
Girls,56.02,12,Clarissa Sanchez,PSJA Southwest,54.16,88.45,52.16,111.13,251.74,Single-ply,SBD,F
Girls,56.02,13,Alexandra Davila,Brownsville Pace,55.43,104.33,38.56,92.99,235.87,Single-ply,SBD,F
Girls,56.02,14,Valerie Leija,Los Fresnos,53.43,99.79,38.56,92.99,231.33,Single-ply,SBD,F
Girls,56.02,15,Angela Sandoval,Donna,55.79,95.25,36.29,97.52,229.06,Single-ply,SBD,F
Girls,56.02,16,Taylor Cavazos,Mercedes,53.8,74.84,24.95,74.84,174.63,Single-ply,SBD,F
Girls,56.02,17,Pricila Perez,Brownsville Rivera,52.16,52.16,20.41,65.77,138.35,Single-ply,SBD,F
Girls,56.02,DQ,Annahi Pizana,Brownsville Lopez,55.38,138.35,,,,Single-ply,SBD,F
Girls,56.02,DQ,Sofie De Leon,Los Fresnos,54.43,124.74,,,,Single-ply,SBD,F
Girls,56.02,DQ,Kat Ruiz,Los Fresnos,53.52,,,,,Single-ply,SBD,F
Girls,56.02,DQ,Athena Moore,Los Fresnos,55.88,,,,,Single-ply,SBD,F
Girls,56.02,DQ,Anyssa De La Garza,Brownsville Pace,54.88,104.33,49.9,,,Single-ply,SBD,F
Girls,56.02,DQ,Ana Garcia,Brownsville Lopez,55.25,102.06,,,,Single-ply,SBD,F
Girls,56.02,DQ,Maria Sanchez,Brownsville Rivera,51.98,,,,,Single-ply,SBD,F
Girls,60.1,1,Julianna Barrera,Port Isabel,59.24,158.76,77.11,138.35,374.21,Single-ply,SBD,F
Girls,60.1,2,Brenda Garcia,Los Fresnos,59.33,154.22,72.57,120.2,347,Single-ply,SBD,F
Girls,60.1,3,Sylvia Cardenas,Brownsville Hanna,59.87,149.69,70.31,124.74,344.73,Single-ply,SBD,F
Girls,60.1,4,Cassandra Vargas,PSJA North,59.69,145.15,74.84,117.93,337.93,Single-ply,SBD,F
Girls,60.1,5,Janessa Campos,PSJA North,58.88,122.47,68.04,99.79,290.3,Single-ply,SBD,F
Girls,60.1,6,Heidi Perez,PSJA Memorial,56.88,111.13,40.82,127.01,278.96,Single-ply,SBD,F
Girls,60.1,7,Asia De Leon,Brownsville Pace,57.7,108.86,47.63,102.06,258.55,Single-ply,SBD,F
Girls,60.1,8,Jacqueline Perez,Port Isabel,56.7,97.52,40.82,113.4,251.74,Single-ply,SBD,F
Girls,60.1,9,Brianna Benedetti,PSJA Memorial,58.79,92.99,43.09,99.79,235.87,Single-ply,SBD,F
Girls,60.1,10,Valerie Soto,San Benito,58.6,92.99,52.16,83.91,229.06,Single-ply,SBD,F
Girls,60.1,11,Vanessa Diaz,PSJA Memorial,58.97,83.91,38.56,104.33,226.8,Single-ply,SBD,F
Girls,60.1,12,Nicole Rivera,Brownsville Pace,58.24,81.65,47.63,95.25,224.53,Single-ply,SBD,F
Girls,60.1,13,Paulina Esquivel,Brownsville Pace,58.51,72.57,38.56,72.57,183.7,Single-ply,SBD,F
Girls,60.1,DQ,Noemi Gallardo,Brownsville Lopez,59.51,147.42,,,,Single-ply,SBD,F
Girls,60.1,DQ,Caydence Castillo,Los Fresnos,57.97,,,,,Single-ply,SBD,F
Girls,60.1,DQ,Angelin Cruz,San Benito,59.69,115.67,,,,Single-ply,SBD,F
Girls,67.36,1,Karen Ledezma,Brownsville Hanna,63.37,142.88,90.72,136.08,369.68,Single-ply,SBD,F
Girls,67.36,2,Stephanie Cantu,San Benito,63.59,136.08,81.65,133.81,351.53,Single-ply,SBD,F
Girls,67.36,3,Mikayla Rodriguez,Rio Hondo,66.32,129.27,65.77,136.08,331.12,Single-ply,SBD,F
Girls,67.36,4,Oyuki Minez,Brownsville Porter,66.68,113.4,74.84,127.01,315.25,Single-ply,SBD,F
Girls,67.36,5,Sarah Morillion,Los Fresnos,60.24,124.74,61.23,115.67,301.64,Single-ply,SBD,F
Girls,67.36,6,Ruth Avila,Edinburg Quest College Prep,61.33,127.01,52.16,102.06,281.23,Single-ply,SBD,F
Girls,67.36,7,Isis Sandiford,Edinburg Idea College Prep,60.6,106.59,47.63,111.13,265.35,Single-ply,SBD,F
Girls,67.36,8,Mayra Yanez #2,San Benito,62.51,102.06,52.16,111.13,265.35,Single-ply,SBD,F
Girls,67.36,9,Andrea Rizo,Brownsville Pace,65.23,106.59,47.63,102.06,256.28,Single-ply,SBD,F
Girls,67.36,10,Vanessa Garcia,Donna,66.86,106.59,47.63,95.25,249.48,Single-ply,SBD,F
Girls,67.36,11,Jacqueline Zuniga,PSJA Memorial,62.23,97.52,43.09,99.79,240.4,Single-ply,SBD,F
Girls,67.36,12,Silvia Gonzalez,Port Isabel,66.41,83.91,52.16,102.06,238.14,Single-ply,SBD,F
Girls,67.36,13,Alexia Suarez,PSJA Memorial,66.41,83.91,45.36,92.99,222.26,Single-ply,SBD,F
Girls,67.36,14,Valery Gomez,PSJA Memorial,62.87,83.91,36.29,83.91,204.12,Single-ply,SBD,F
Girls,67.36,DQ,Natalie Trevino,PSJA North,65.41,102.06,,,,Single-ply,SBD,F
Girls,67.36,DQ,Jackie Calderon,PSJA North,66.68,129.27,,,,Single-ply,SBD,F
Girls,67.36,DQ,Yumara Villanueva,Brownsville Rivera,63.23,120.2,,,,Single-ply,SBD,F
Girls,67.36,DQ,Anahi Escobar,Brownsville Lopez,63.96,147.42,,,,Single-ply,SBD,F
Girls,67.36,DQ,Mayaliza Sanchez,Brownsville Lopez,66.45,151.95,,,,Single-ply,SBD,F
Girls,75.07,1,Katherine Martinez,Los Fresnos,70.13,147.42,83.91,147.42,378.75,Single-ply,SBD,F
Girls,75.07,2,Alexis Alaniz,Brownsville Hanna,71.67,138.35,102.06,124.74,365.14,Single-ply,SBD,F
Girls,75.07,3,Carolina Hernandez,Brownsville Hanna,67.49,138.35,70.31,142.88,351.53,Single-ply,SBD,F
Girls,75.07,4,Jenifher Gallegos,San Benito,72.21,127.01,74.84,120.2,322.05,Single-ply,SBD,F
Girls,75.07,5,Sindy Garcia,Edinburg Idea College Prep,72.67,147.42,61.23,113.4,322.05,Single-ply,SBD,F
Girls,75.07,6,Madelyn Galvan,Port Isabel,68.76,117.93,63.5,127.01,308.44,Single-ply,SBD,F
Girls,75.07,7,Karen Martinez,PSJA Southwest,71.03,117.93,63.5,120.2,301.64,Single-ply,SBD,F
Girls,75.07,8,Brianna Garcia,Brownsville Pace,70.76,124.74,56.7,102.06,283.5,Single-ply,SBD,F
Girls,75.07,9,Abigail Vega,PSJA Memorial,72.21,104.33,52.16,115.67,272.16,Single-ply,SBD,F
Girls,75.07,10,Yvette Solis,Donna,72.94,102.06,52.16,99.79,254.01,Single-ply,SBD,F
Girls,75.07,11,Alisha Galvan,Santa Rosa,72.21,88.45,47.63,97.52,233.6,Single-ply,SBD,F
Girls,75.07,12,Natalia Marinov,Port Isabel,72.03,83.91,45.36,95.25,224.53,Single-ply,SBD,F
Girls,75.07,13,Myra Compean,PSJA Memorial,70.76,83.91,38.56,92.99,215.46,Single-ply,SBD,F
Girls,75.07,DQ,Kassandra DeLeon,PSJA North,72.67,,,,,Single-ply,SBD,F
Girls,75.07,DQ,Mariana Juarez,PSJA North,72.48,,,,,Single-ply,SBD,F
Girls,82.33,1,Natalie Rivera,Brownsville Pace,78.2,156.49,77.11,129.27,362.87,Single-ply,SBD,F
Girls,82.33,2,Lorely Galvan,Brownsville Pace,79.92,142.88,68.04,142.88,353.8,Single-ply,SBD,F
Girls,82.33,3,Brittany Garza,Donna,80.2,140.61,72.57,131.54,344.73,Single-ply,SBD,F
Girls,82.33,4,Anastacia Galvan,Los Fresnos,76.93,151.95,63.5,124.74,340.19,Single-ply,SBD,F
Girls,82.33,5,Emily Rodriguez,Los Fresnos,79.56,136.08,52.16,124.74,312.98,Single-ply,SBD,F
Girls,82.33,6,Nayeli Lopez,Brownsville Veterans Memorial,78.24,124.74,56.7,120.2,301.64,Single-ply,SBD,F
Girls,82.33,7,Angelina Cervantes,Brownsville Rivera,79.83,124.74,54.43,117.93,297.1,Single-ply,SBD,F
Girls,82.33,8,Samantha Gonzalez,Edinburg Idea College Prep,81.92,113.4,61.23,115.67,290.3,Single-ply,SBD,F
Girls,82.33,9,Cassandra Cepeda,PSJA Memorial,76.66,106.59,56.7,111.13,274.42,Single-ply,SBD,F
Girls,82.33,10,Jackie Ybarra,Edinburg Idea College Prep,80.83,102.06,38.56,106.59,247.21,Single-ply,SBD,F
Girls,82.33,11,Bianca Garcia,PSJA Southwest,81.28,90.72,47.63,90.72,229.06,Single-ply,SBD,F
Girls,82.33,12,Torales Itali,PSJA Memorial,76.29,90.72,47.63,88.45,226.8,Single-ply,SBD,F
Girls,82.33,13,Gladys Castillo,Brownsville Porter,81.19,90.72,31.75,88.45,210.92,Single-ply,SBD,F
Girls,82.33,14,Carmen Lainez,Los Fresnos,79.38,149.69,,,149.69,Single-ply,S,F
Girls,82.33,DQ,Leticia Flores,PSJA North,81.1,117.93,,,,Single-ply,SBD,F
Girls,90.04,1,Arianna Guerra,Donna,87.82,181.44,90.72,154.22,426.38,Single-ply,SBD,F
Girls,90.04,2,Mickey Castaneda,Los Fresnos,88.9,172.37,83.91,142.88,399.16,Single-ply,SBD,F
Girls,90.04,3,Megan Ayala,San Benito,87.27,165.56,79.38,133.81,378.75,Single-ply,SBD,F
Girls,90.04,4,Halley Montoya,Brownsville Hanna,87,149.69,79.38,142.88,371.95,Single-ply,SBD,F
Girls,90.04,5,Arlyssa Ybarra,Donna,86.18,163.29,61.23,127.01,351.53,Single-ply,SBD,F
Girls,90.04,6,Dalila Araguz,San Benito,89.27,142.88,61.23,111.13,315.25,Single-ply,SBD,F
Girls,90.04,7,Alexis Garcia,Brownsville Veterans Memorial,89.27,79.38,88.45,124.74,292.57,Single-ply,SBD,F
Girls,90.04,8,Mikaela Snyder,Port Isabel,87.54,113.4,52.16,124.74,290.3,Single-ply,SBD,F
Girls,90.04,9,Maria Cuellar,PSJA Memorial,87.36,108.86,61.23,113.4,283.5,Single-ply,SBD,F
Girls,90.04,10,Atziry Payan,Brownsville Rivera,86.91,104.33,47.63,104.33,256.28,Single-ply,SBD,F
Girls,90.04,11,Arecelia Villalon,Brownsville Rivera,86.32,102.06,45.36,92.99,240.4,Single-ply,SBD,F
Girls,90.04,12,Yadira Zapata,Brownsville Pace,85.73,102.06,56.7,79.38,238.14,Single-ply,SBD,F
Girls,90.04,DQ,Amaya Guerra,Donna,88.27,,,,,Single-ply,SBD,F
Girls,100.02,1,Michelle Davila,Brownsville Hanna,97.39,170.1,74.84,149.69,394.63,Single-ply,SBD,F
Girls,100.02,2,Alexandra Hall,Edinburg Quest College Prep,90.08,154.22,81.65,136.08,371.95,Single-ply,SBD,F
Girls,100.02,3,Caroline Hernandez,San Benito,91.81,154.22,77.11,136.08,367.41,Single-ply,SBD,F
Girls,100.02,4,Irlanda Moreno,Brownsville Veterans Memorial,98.88,142.88,63.5,149.69,356.07,Single-ply,SBD,F
Girls,100.02,5,Crystal Magana,Brownsville Hanna,93.08,149.69,74.84,124.74,349.27,Single-ply,SBD,F
Girls,100.02,6,Yvonne De La Fuente,Brownsville Veterans Memorial,97.02,124.74,45.36,140.61,310.71,Single-ply,SBD,F
Girls,100.02,7,Shyanna Gutierrez,San Benito,97.61,136.08,68.04,99.79,303.91,Single-ply,SBD,F
Girls,100.02,8,Valeria Garcia,Brownsville Rivera,97.52,102.06,49.9,129.27,281.23,Single-ply,SBD,F
Girls,100.02,DQ,Anyah Brown,PSJA North,95.71,122.47,,,,Single-ply,SBD,F
Girls,117.71,1,Julieann Delgado,Brownsville Lopez,110.9,235.87,142.88,174.63,553.38,Single-ply,SBD,F
Girls,117.71,2,Melanie Morales,Edinburg Idea College Prep,114.12,226.8,102.06,167.83,496.68,Single-ply,SBD,F
Girls,117.71,3,Brittany Lozano,Brownsville Hanna,115.48,204.12,97.52,156.49,458.13,Single-ply,SBD,F
Girls,117.71,4,Roxanne Martinez,Donna,110.22,204.12,97.52,136.08,437.72,Single-ply,SBD,F
Girls,117.71,5,Alysha Torres,PSJA North,111.67,172.37,61.23,138.35,371.95,Single-ply,SBD,F
Girls,117.71,6,Nataly Jimenez,Donna,106.14,151.95,68.04,113.4,333.39,Single-ply,SBD,F
Girls,117.71,7,Esperanza Chavarria,Rio Hondo,107.5,131.54,70.31,124.74,326.59,Single-ply,SBD,F
Girls,117.71,8,Kenya Moreno,PSJA Memorial,108.23,106.59,54.43,70.31,231.33,Single-ply,SBD,F
Girls,117.71,DQ,Katya Alfaro,Brownsville Porter,104.78,167.83,,,,Single-ply,SBD,F
Girls,117.71+,DQ,Nelly Garcia,Brownsville Lopez,132.13,208.65,,,,Single-ply,SBD,F
Girls,,NS,Anyssa Barrientes,Rio Hondo,,,,,,Single-ply,SBD,F
Girls,,NS,Victoria Olivarez,Santa Rosa,,,,,,Single-ply,SBD,F
Girls,,NS,Amor Sosa,Rio Hondo,,,,,,Single-ply,SBD,F
Girls,,NS,Yaira Velez,Rio Hondo,,,,,,Single-ply,SBD,F
Girls,,NS,Casey Najar,Rio Hondo,,,,,,Single-ply,SBD,F
Girls,,NS,Crystal Haro,PSJA Southwest,,,,,,Single-ply,SBD,F
Girls,,NS,Lynnete Trejo,Brownsville Porter,,,,,,Single-ply,SBD,F
Girls,,NS,Sandra Sermeno,Brownsville Rivera,,,,,,Single-ply,SBD,F
Girls,,NS,Sophia De La Garza,Brownsville Veterans Memorial,,,,,,Single-ply,SBD,F
Girls,,NS,Paula Guerrero,Brownsville Veterans Memorial,,,,,,Single-ply,SBD,F
Girls,,NS,Fatima Rios,Brownsville Veterans Memorial,,,,,,Single-ply,SBD,F
