Division,WeightClassKg,Place,Name,Team,BodyweightKg,Best3SquatKg,Best3BenchKg,Best3DeadliftKg,TotalKg,Equipment,Event,Sex
Girls,44.23,1,Chloie Devillier,Jacksonville,44.04,111.13,47.63,97.52,256.28,Single-ply,SBD,F
Girls,44.23,2,Ashley Warren,Lindale,43.36,83.91,34.02,106.59,224.53,Single-ply,SBD,F
Girls,44.23,3,Hien Tran,Whitehouse,41.87,83.91,43.09,95.25,222.26,Single-ply,SBD,F
Girls,44.23,4,Emma Teter,Longview Pine Tree,41.05,74.84,36.29,77.11,188.24,Single-ply,SBD,F
Girls,44.23,5,Madelyn Crebbs,Tyler Lee,43.36,68.04,34.02,74.84,176.9,Single-ply,SBD,F
Girls,44.23,6,Ayari Garcia,Corsicana,43.77,61.23,27.22,83.91,172.37,Single-ply,SBD,F
Girls,44.23,7,Ty'Dashia Jones,Tyler Lee,36.29,54.43,29.48,68.04,151.95,Single-ply,SBD,F
Girls,47.85,1,Calie Treadaway,Kaufman,47.36,102.06,40.82,108.86,251.74,Single-ply,SBD,F
Girls,47.85,2,Karleigh Stewart,Jacksonville,46.9,95.25,47.63,106.59,249.48,Single-ply,SBD,F
Girls,47.85,3,Trinity Hudgins,Whitehouse,46.72,88.45,52.16,97.52,238.14,Single-ply,SBD,F
Girls,47.85,4,Nyia Williams,Longview Pine Tree,44.59,95.25,52.16,83.91,231.33,Single-ply,SBD,F
Girls,47.85,5,Candice Dyer,Lindale,46.27,95.25,38.56,97.52,231.33,Single-ply,SBD,F
Girls,47.85,6,Aillissa West,Forney,44.63,81.65,31.75,102.06,215.46,Single-ply,SBD,F
Girls,47.85,7,Makayla Key,Tyler Lee,46.27,83.91,38.56,88.45,210.92,Single-ply,SBD,F
Girls,47.85,8,Haley Haddox,Midlothian,46.04,81.65,45.36,79.38,206.38,Single-ply,SBD,F
Girls,47.85,9,Caitlyn Dixon,Longview,45.36,79.38,31.75,86.18,197.31,Single-ply,SBD,F
Girls,47.85,10,Viktorya Rodriguez,Midlothian,46.4,65.77,47.63,72.57,185.97,Single-ply,SBD,F
Girls,47.85,11,Martina Ramirez,Mount Pleasant,46.45,68.04,31.75,74.84,174.63,Single-ply,SBD,F
Girls,51.94,1,Reese Roberts,Whitehouse,51.17,117.93,68.04,108.86,294.84,Single-ply,SBD,F
Girls,51.94,2,Brittany Westbrook,Jacksonville,51.89,111.13,63.5,115.67,290.3,Single-ply,SBD,F
Girls,51.94,3,Tionna Lewis,Longview Pine Tree,49.26,108.86,52.16,117.93,278.96,Single-ply,SBD,F
Girls,51.94,4,Wiam SehLaoui,Huntsville,51.53,111.13,54.43,111.13,276.69,Single-ply,SBD,F
Girls,51.94,5,Amanda Rodriguez,Kaufman,51.44,117.93,52.16,104.33,274.42,Single-ply,SBD,F
Girls,51.94,6,Taleiah Fortner,Longview,50.85,97.52,45.36,120.2,263.08,Single-ply,SBD,F
Girls,51.94,7,Rachael Puckett,Lindale,49.94,120.2,47.63,92.99,260.82,Single-ply,SBD,F
Girls,51.94,8,Katherine Deck,Whitehouse,49.31,83.91,49.9,92.99,226.8,Single-ply,SBD,F
Girls,51.94,9,Julissa Montoya,Longview Pine Tree,51.89,86.18,43.09,97.52,226.8,Single-ply,SBD,F
Girls,51.94,10,Abrie Johnson,Whitehouse,51.53,74.84,40.82,86.18,201.85,Single-ply,SBD,F
Girls,51.94,11,Kymie Freeman,Greenville,50.03,83.91,29.48,83.91,197.31,Single-ply,SBD,F
Girls,51.94,DQ,Debra Ortiz,Corsicana,50.67,,,,,Single-ply,SBD,F
Girls,56.02,1,Layla Newton,Greenville,54.52,138.35,65.77,108.86,312.98,Single-ply,SBD,F
Girls,56.02,2,Ashlee Taylor,Whitehouse,55.07,113.4,61.23,133.81,308.44,Single-ply,SBD,F
Girls,56.02,3,Aslin Barrientos,Mount Pleasant,54.75,124.74,56.7,117.93,299.37,Single-ply,SBD,F
Girls,56.02,4,Hannah Barry,Longview Pine Tree,52.25,108.86,58.97,127.01,294.84,Single-ply,SBD,F
Girls,56.02,5,Jordyn Watson,Forney,54.7,108.86,56.7,111.13,276.69,Single-ply,SBD,F
Girls,56.02,6,Brittany Chavez,Lindale,51.98,97.52,43.09,117.93,258.55,Single-ply,SBD,F
Girls,56.02,7,Wendy Silva,Midlothian,54.7,86.18,58.97,108.86,254.01,Single-ply,SBD,F
Girls,56.02,8,Kira Jimmerson,Whitehouse,54.43,95.25,45.36,106.59,247.21,Single-ply,SBD,F
Girls,56.02,9,Brooke Woods,Forney,54.75,95.25,45.36,97.52,238.14,Single-ply,SBD,F
Girls,56.02,10,Addyson Lamb,Sulphur Springs,54.02,81.65,43.09,102.06,226.8,Single-ply,SBD,F
Girls,56.02,11,Madeleine Hesselgesser,Midlothian,54.48,92.99,36.29,92.99,222.26,Single-ply,SBD,F
Girls,56.02,12,Macy Skinner,Tyler Lee,54.75,83.91,36.29,92.99,213.19,Single-ply,SBD,F
Girls,60.1,1,Alyssa Allison,Greenville,57.83,163.29,83.91,131.54,378.75,Single-ply,SBD,F
Girls,60.1,2,Meredith Williams,Greenville,58.47,122.47,47.63,124.74,294.84,Single-ply,SBD,F
Girls,60.1,3,Kassy Bennett,Lindale,59.83,122.47,49.9,122.47,294.84,Single-ply,SBD,F
Girls,60.1,4,Mia Hawkins,Tyler Lee,58.15,102.06,58.97,129.27,290.3,Single-ply,SBD,F
Girls,60.1,5,Natalia Rodriguez,Longview Pine Tree,57.15,122.47,45.36,113.4,281.23,Single-ply,SBD,F
Girls,60.1,6,Chelynn Palmer,Lindale,58.92,115.67,45.36,117.93,278.96,Single-ply,SBD,F
Girls,60.1,7,Catherine Monk,Corsicana,58.15,108.86,45.36,111.13,265.35,Single-ply,SBD,F
Girls,60.1,8,Alani Diaz,Waxahachie,58.24,108.86,47.63,104.33,260.82,Single-ply,SBD,F
Girls,60.1,9,Marilyn Melgar,Tyler,59.06,102.06,52.16,95.25,249.48,Single-ply,SBD,F
Girls,60.1,10,Anna Gafford,Forney,58.69,90.72,49.9,106.59,247.21,Single-ply,SBD,F
Girls,60.1,11,Joanna Sandoval,Mount Pleasant,58.38,92.99,47.63,95.25,235.87,Single-ply,SBD,F
Girls,60.1,DQ,Maddline Jaggers,Hallsville,59.87,,,,,Single-ply,SBD,F
Girls,67.36,1,Taitum Barry,Longview Pine Tree,62.19,149.69,58.97,142.88,351.53,Single-ply,SBD,F
Girls,67.36,2,Kelly Casel,Whitehouse,65.45,136.08,70.31,131.54,337.93,Single-ply,SBD,F
Girls,67.36,3,Brenda Guerrero,Tyler Lee,63.14,131.54,56.7,136.08,324.32,Single-ply,SBD,F
Girls,67.36,4,Natalie McBride,Waxahachie,61.51,133.81,58.97,129.27,322.05,Single-ply,SBD,F
Girls,67.36,5,Eniyah Watson,Tyler,64.68,122.47,63.5,131.54,317.51,Single-ply,SBD,F
Girls,67.36,6,Aneessia Blackburn,Tyler Lee,63.37,120.2,54.43,131.54,306.17,Single-ply,SBD,F
Girls,67.36,7,Ashlyn Brooks,Mount Pleasant,65.23,127.01,47.63,127.01,301.64,Single-ply,SBD,F
Girls,67.36,8,Madison Hammond,Tyler Lee,66,111.13,56.7,124.74,292.57,Single-ply,SBD,F
Girls,67.36,9,Jada Dews,Tyler Lee,64.77,113.4,54.43,117.93,285.76,Single-ply,SBD,F
Girls,67.36,10,Kathrine Henke,Huntsville,62.14,102.06,63.5,113.4,278.96,Single-ply,SBD,F
Girls,67.36,11,Jasmine Mitchell,Lindale,64.55,113.4,49.9,106.59,269.89,Single-ply,SBD,F
Girls,67.36,DQ,Jaeden Thrasher,Forney,65.45,,,,,Single-ply,SBD,F
Girls,75.07,1,Savannah Petty,Lindale,69.49,145.15,70.31,145.15,360.61,Single-ply,SBD,F
Girls,75.07,2,Jemah Khalil,Lindale,73.26,140.61,58.97,142.88,342.46,Single-ply,SBD,F
Girls,75.07,3,Samira Matlock,Tyler Lee,73.3,129.27,54.43,129.27,312.98,Single-ply,SBD,F
Girls,75.07,4,Sable Erdmier,Sulphur Springs,73.3,136.08,40.82,136.08,312.98,Single-ply,SBD,F
Girls,75.07,5,Ja'Khaila Evans,Tyler Lee,69.99,113.4,54.43,138.35,306.17,Single-ply,SBD,F
Girls,75.07,6,Makayla Ragland,Lindale,67.86,106.59,52.16,133.81,292.57,Single-ply,SBD,F
Girls,75.07,7,Gracie Russell,Longview,72.71,113.4,52.16,120.2,285.76,Single-ply,SBD,F
Girls,75.07,8,Taiz Hawkins,Corsicana,73.39,102.06,47.63,115.67,265.35,Single-ply,SBD,F
Girls,75.07,DQ,Ari Gonzalez,Mount Pleasant,71.03,108.86,,,,Single-ply,SBD,F
Girls,75.07,DQ,Savanna Valderas,Kaufman,75.02,,,,,Single-ply,SBD,F
Girls,82.33,1,Yanelly Barrera,Jacksonville,77.2,147.42,72.57,151.95,371.95,Single-ply,SBD,F
Girls,82.33,2,Destiny McPherson,Whitehouse,76.93,138.35,70.31,140.61,349.27,Single-ply,SBD,F
Girls,82.33,3,Felicity Smith,Lindale,79.79,129.27,74.84,117.93,322.05,Single-ply,SBD,F
Girls,82.33,4,Braden Gill,Lindale,78.83,136.08,54.43,129.27,319.78,Single-ply,SBD,F
Girls,82.33,5,Brianna Paredes,Lindale,78.06,129.27,52.16,136.08,317.51,Single-ply,SBD,F
Girls,82.33,6,Marina Mendez,Waxahachie,81.83,131.54,52.16,120.2,303.91,Single-ply,SBD,F
Girls,82.33,7,Reese Britton,Lindale,79.51,120.2,52.16,122.47,294.84,Single-ply,SBD,F
Girls,82.33,8,Amaris Johnson,Tyler,80.2,108.86,61.23,108.86,278.96,Single-ply,SBD,F
Girls,82.33,9,Tiernan Pytlak,Tyler Lee,78.11,117.93,49.9,106.59,274.42,Single-ply,SBD,F
Girls,82.33,10,Jasmin Hernandez,Longview Pine Tree,77.79,113.4,47.63,106.59,267.62,Single-ply,SBD,F
Girls,90.04,1,Ari Guzman,Tyler Lee,88.18,190.51,77.11,165.56,433.18,Single-ply,SBD,F
Girls,90.04,2,Jia Lewis,Longview Pine Tree,88.86,176.9,83.91,163.29,424.11,Single-ply,SBD,F
Girls,90.04,3,Madai Mendoza,Whitehouse,88.41,136.08,61.23,122.47,319.78,Single-ply,SBD,F
Girls,90.04,4,Junie Harry,Corsicana,87.95,124.74,56.7,131.54,312.98,Single-ply,SBD,F
Girls,90.04,5,Gabriela Cantu,Midlothian,84.01,88.45,74.84,133.81,297.1,Single-ply,SBD,F
Girls,90.04,6,Tatyana Williams,Tyler,85.23,106.59,58.97,131.54,297.1,Single-ply,SBD,F
Girls,90.04,7,Joselyn Reta,Longview Pine Tree,89.99,131.54,58.97,104.33,294.84,Single-ply,SBD,F
Girls,90.04,8,Kenya Hunter,Marshall,86.36,115.67,47.63,122.47,285.76,Single-ply,SBD,F
Girls,90.04,9,Eva Snelgrove,Forney,87.45,108.86,56.7,115.67,281.23,Single-ply,SBD,F
Girls,90.04,10,Cinthya Hernandez,Longview Pine Tree,86.09,108.86,61.23,104.33,274.42,Single-ply,SBD,F
Girls,90.04,11,Kodi Loper,Midlothian,82.46,99.79,52.16,117.93,269.89,Single-ply,SBD,F
Girls,90.04,12,Lauren Moses,Corsicana,87.36,97.52,47.63,115.67,260.82,Single-ply,SBD,F
Girls,100.02,1,Sadie Hewitt,Forney,97.75,210.92,95.25,176.9,483.08,Single-ply,SBD,F
Girls,100.02,2,Asia Burnley,Tyler Lee,92.99,165.56,81.65,151.95,399.16,Single-ply,SBD,F
Girls,100.02,3,Mariah Carter,Waxahachie,92.17,163.29,63.5,142.88,369.68,Single-ply,SBD,F
Girls,100.02,4,Avery Malesky,Waxahachie,94.26,133.81,77.11,124.74,335.66,Single-ply,SBD,F
Girls,100.02,5,Kayla Anderson,Whitehouse,92.49,131.54,63.5,108.86,303.91,Single-ply,SBD,F
Girls,100.02,6,Learondra Reese,Marshall,96.3,117.93,47.63,138.35,303.91,Single-ply,SBD,F
Girls,100.02,7,Annie Vieau,Tyler Lee,92.85,115.67,47.63,113.4,276.69,Single-ply,SBD,F
Girls,100.02,DQ,Lisandra Ortega,Terrell,96.34,,,,,Single-ply,SBD,F
Girls,100.02,DQ,Haile Holland,Hallsville,99.97,,,,,Single-ply,SBD,F
Girls,117.71,1,Kaitlyn Perkins,Midlothian,111.9,142.88,77.11,147.42,367.41,Single-ply,SBD,F
Girls,117.71,2,Kirstin Millerd,Lindale,106.55,151.95,58.97,131.54,342.46,Single-ply,SBD,F
Girls,117.71,3,Derica Pipkin,Corsicana,106.32,127.01,63.5,149.69,340.19,Single-ply,SBD,F
Girls,117.71,4,Camille Cantu,Mount Pleasant,112.08,145.15,61.23,133.81,340.19,Single-ply,SBD,F
Girls,117.71,5,Maria Ruiz,Corsicana,117.21,127.01,49.9,131.54,308.44,Single-ply,SBD,F
Girls,117.71,6,Izzy Vallejo,Hallsville,102.15,117.93,61.23,124.74,303.91,Single-ply,SBD,F
Girls,117.71,7,Emma Sullivan,Marshall,107.5,122.47,61.23,120.2,303.91,Single-ply,SBD,F
Girls,117.71,8,Carina Cardenas,Corsicana,102.06,74.84,56.7,88.45,219.99,Single-ply,SBD,F
Girls,117.71,DQ,Olivia Massey,Terrell,103.96,,,,,Single-ply,SBD,F
Girls,117.71+,1,Demarshayla Mosley,Tyler Lee,141.43,183.7,77.11,165.56,426.38,Single-ply,SBD,F
Girls,117.71+,2,Chole Camacho,Nacogdoches,128,172.37,83.91,165.56,421.84,Single-ply,SBD,F
Girls,117.71+,3,Lori Gutierrez,Corsicana,122.47,181.44,83.91,136.08,401.43,Single-ply,SBD,F
Girls,117.71+,4,Makayla Allison,Longview Pine Tree,124.74,154.22,102.06,138.35,394.63,Single-ply,SBD,F
Girls,117.71+,5,Chloe Durham,Tyler,160.21,167.83,90.72,127.01,385.55,Single-ply,SBD,F
Girls,117.71+,6,Praise Thomas,Whitehouse,122.2,163.29,70.31,136.08,369.68,Single-ply,SBD,F
Girls,117.71+,7,Madison Sykes,Corsicana,129.27,142.88,81.65,145.15,369.68,Single-ply,SBD,F
Girls,117.71+,8,Kyra Miller,Corsicana,122.79,97.52,49.9,108.86,256.28,Single-ply,SBD,F
Girls,117.71+,DQ,Chloe Jones,Marshall,126.55,,,,,Single-ply,SBD,F
