Division,WeightClassKg,Place,Name,Team,BodyweightKg,Best3SquatKg,Best3BenchKg,Best3DeadliftKg,TotalKg,Equipment,Event,Sex
Girls,44.23,1,Krista Rash,Gilmer,43.09,77.11,34.02,81.65,192.78,Single-ply,SBD,F
Girls,47.85,1,Elizabeth Chavez,Center,46.72,131.54,45.36,113.4,290.3,Single-ply,SBD,F
Girls,47.85,2,Jessica Taylor,Gilmer,46.72,111.13,52.16,104.33,267.62,Single-ply,SBD,F
Girls,47.85,3,Emilee Jones,Simms Bowie,47.4,106.59,49.9,108.86,265.35,Single-ply,SBD,F
Girls,47.85,4,Grace Ritter,Gilmer,47.08,90.72,52.16,104.33,247.21,Single-ply,SBD,F
Girls,47.85,5,Saylor Jasper,Gladewater Union Grove,44.91,88.45,43.09,90.72,222.26,Single-ply,SBD,F
Girls,47.85,DQ,Ella Pearson,Diana New Diana,47.17,,,,,Single-ply,SBD,F
Girls,51.94,1,Karina Castillo,Gilmer,49.53,124.74,70.31,127.01,322.05,Single-ply,SBD,F
Girls,51.94,2,Jaelan Linville,Mount Enterprise,51.89,120.2,81.65,117.93,319.78,Single-ply,SBD,F
Girls,51.94,3,Sydney Jo Sears,Center,51.07,129.27,49.9,113.4,292.57,Single-ply,SBD,F
Girls,51.94,4,Evette Martinez,De Kalb,51.26,102.06,47.63,117.93,267.62,Single-ply,SBD,F
Girls,51.94,5,Natalie Salaises,Gilmer Union Hill,49.08,88.45,49.9,108.86,247.21,Single-ply,SBD,F
Girls,51.94,6,Erica Johnson,Gilmer,51.17,102.06,47.63,97.52,247.21,Single-ply,SBD,F
Girls,51.94,7,Maddie Clowers,Gladewater Union Grove,51.89,95.25,52.16,92.99,240.4,Single-ply,SBD,F
Girls,51.94,8,Makayla McHenry,Gilmer,50.35,74.84,38.56,95.25,208.65,Single-ply,SBD,F
Girls,51.94,9,Jazmin Guevara,Center,50.62,86.18,36.29,79.38,201.85,Single-ply,SBD,F
Girls,56.02,1,Madi Newman,Gladewater Union Grove,55.16,129.27,79.38,124.74,333.39,Single-ply,SBD,F
Girls,56.02,2,Annie Stevenson,Gilmer,55.34,129.27,58.97,127.01,315.25,Single-ply,SBD,F
Girls,56.02,3,Samantha Collier,Gilmer Union Hill,53.25,124.74,65.77,122.47,312.98,Single-ply,SBD,F
Girls,56.02,4,Sela Aguilar,Gladewater Union Grove,54.34,120.2,77.11,111.13,308.44,Single-ply,SBD,F
Girls,56.02,5,Pel Htoo,Center,53.34,124.74,65.77,102.06,292.57,Single-ply,SBD,F
Girls,56.02,6,Kailey Griffith,Gilmer,54.25,106.59,61.23,108.86,276.69,Single-ply,SBD,F
Girls,56.02,7,Taylor Pate,Maud,56.02,90.72,47.63,81.65,219.99,Single-ply,SBD,F
Girls,56.02,DQ,Maddie Davidson,Gilmer,52.71,86.18,,,,Single-ply,SBD,F
Girls,56.02,DQ,Sydney Bell,Gilmer,54.79,,,,,Single-ply,SBD,F
Girls,60.1,1,Cierra Anderson,Gilmer,59.06,145.15,65.77,133.81,344.73,Single-ply,SBD,F
Girls,60.1,2,Victoria Urquidez,Gilmer,59.69,129.27,72.57,142.88,344.73,Single-ply,SBD,F
Girls,60.1,3,Cassidy Olazabal,Diana New Diana,60.06,133.81,58.97,124.74,317.51,Single-ply,SBD,F
Girls,60.1,4,Carlie Rogers,Diana New Diana,60.06,133.81,52.16,124.74,310.71,Single-ply,SBD,F
Girls,60.1,5,Dioseny Mejia,Gilmer Union Hill,59.06,117.93,61.23,120.2,299.37,Single-ply,SBD,F
Girls,60.1,6,Makayla Martin,Linden-Kildare,60.06,120.2,61.23,117.93,299.37,Single-ply,SBD,F
Girls,60.1,7,Lane Carr,Maud,58.51,117.93,52.16,122.47,292.57,Single-ply,SBD,F
Girls,60.1,8,Makenna Jones,Maud,58.06,117.93,56.7,113.4,288.03,Single-ply,SBD,F
Girls,60.1,9,Chyenne Kimbrell,Hawkins,58.6,90.72,38.56,111.13,240.4,Single-ply,SBD,F
Girls,60.1,10,Skyla Craig,Laird Hill Leveretts Chapel,58.51,86.18,36.29,106.59,229.06,Single-ply,SBD,F
Girls,60.1,11,Jaycee Simmons,Simms Bowie,58.97,74.84,47.63,90.72,213.19,Single-ply,SBD,F
Girls,67.36,1,Felicity Garza,Gilmer,62.41,122.47,49.9,127.01,299.37,Single-ply,SBD,F
Girls,67.36,2,Taylor Colbert,Gilmer Union Hill,65.68,117.93,56.7,120.2,294.84,Single-ply,SBD,F
Girls,67.36,3,Miriam Almaguer,Center,66.68,122.47,49.9,120.2,292.57,Single-ply,SBD,F
Girls,67.36,4,Jordann Schuler,Linden-Kildare,64.09,124.74,56.7,108.86,290.3,Single-ply,SBD,F
Girls,67.36,5,Reanna Rogers,Gilmer Union Hill,61.87,106.59,49.9,108.86,265.35,Single-ply,SBD,F
Girls,67.36,6,Sulinda Martinez,De Kalb,67.31,97.52,36.29,99.79,233.6,Single-ply,SBD,F
Girls,75.07,1,Jocalynn Fountain,Gilmer,74.84,149.69,61.23,136.08,347,Single-ply,SBD,F
Girls,75.07,2,Ariuana Wilson,Laird Hill Leveretts Chapel,74.84,158.76,61.23,124.74,344.73,Single-ply,SBD,F
Girls,75.07,3,Ashton Roberts,Simms Bowie,69.13,92.99,56.7,115.67,265.35,Single-ply,SBD,F
Girls,75.07,4,Makenzie Hilton,Simms Bowie,72.48,92.99,40.82,127.01,260.82,Single-ply,SBD,F
Girls,75.07,5,Hillary Kemp,Simms Bowie,71.58,108.86,45.36,102.06,256.28,Single-ply,SBD,F
Girls,75.07,6,Gracie Meister,De Kalb,71.03,92.99,47.63,104.33,244.94,Single-ply,SBD,F
Girls,75.07,7,Heather Martin,Simms Bowie,73.3,92.99,49.9,102.06,244.94,Single-ply,SBD,F
Girls,75.07,8,Ti'Jana Hall,Jefferson,69.22,72.57,31.75,77.11,181.44,Single-ply,SBD,F
Girls,75.07,DQ,Abby Harkness,Diana New Diana,69.67,113.4,,,,Single-ply,SBD,F
Girls,82.33,1,Marshae Davis,Gilmer,79.65,165.56,88.45,172.37,426.38,Single-ply,SBD,F
Girls,82.33,2,Katie Melton,Gladewater Union Grove,76.57,151.95,83.91,129.27,365.14,Single-ply,SBD,F
Girls,82.33,3,Cheyenne Rogers,Maud,79.38,127.01,68.04,111.13,306.17,Single-ply,SBD,F
Girls,82.33,4,Kaitlyn Salazar,Linden-Kildare,77.02,113.4,63.5,117.93,294.84,Single-ply,SBD,F
Girls,82.33,5,Amber Largent,Hawkins,82.1,113.4,54.43,102.06,269.89,Single-ply,SBD,F
Girls,82.33,6,Natalie Ramsey,Jefferson,81.92,77.11,38.56,95.25,210.92,Single-ply,SBD,F
Girls,90.04,1,Kailan Randle,Center,88.27,154.22,68.04,138.35,360.61,Single-ply,SBD,F
Girls,90.04,2,Amanda Torres,Hawkins,89.81,129.27,54.43,147.42,331.12,Single-ply,SBD,F
Girls,90.04,3,Aubrey Williamsom,Laird Hill Leveretts Chapel,86.09,120.2,65.77,124.74,310.71,Single-ply,SBD,F
Girls,100.02,1,Shelby Prazak,Diana New Diana,94.62,122.47,56.7,113.4,292.57,Single-ply,SBD,F
Girls,100.02,2,Lezlie Smith,Hawkins,97.16,86.18,40.82,115.67,242.67,Single-ply,SBD,F
Girls,117.71,1,Mya Rose,Hawkins,113.13,136.08,54.43,154.22,344.73,Single-ply,SBD,F
Girls,117.71,2,Grace Moses,Gilmer,117.12,149.69,54.43,122.47,326.59,Single-ply,SBD,F
Girls,117.71,3,Caroline Baker-Francis,Atlanta,113.4,120.2,47.63,136.08,303.91,Single-ply,SBD,F
Girls,117.71+,1,Shannie Jones,Gilmer,119.66,226.8,88.45,149.69,464.93,Single-ply,SBD,F
Girls,117.71+,2,Makailah McConnell,Gilmer,130,156.49,92.99,145.15,394.63,Single-ply,SBD,F
Girls,117.71+,3,Janiea Rose,Hawkins,120.84,120.2,65.77,174.63,360.61,Single-ply,SBD,F
Girls,117.71+,4,Derranique Lewis,Marshall,145.78,138.35,65.77,120.2,324.32,Single-ply,SBD,F
