Name,Age,Division,Sex,Event,Equipment,BodyweightKg,WeightClassKg,Squat1Kg,Squat2Kg,Squat3Kg,Best3SquatKg,Bench1Kg,Bench2Kg,Bench3Kg,Best3BenchKg,Deadlift1Kg,Deadlift2Kg,Deadlift3Kg,Best3DeadliftKg,TotalKg,Place
Amy Hartman,27,F-O-E,F,SBD,Multi-ply,108.4,90+,-215,215,227.5,227.5,175,-185,-185,175,175,187.5,197.5,197.5,600,1
Nicole Bowles,24,F-O,F,SBD,Raw,62,67.5,77.5,97.5,-110,97.5,62.5,65,70,70,137.5,150,155,155,322.5,1
Shannon Thompson,21,F-O,F,SBD,Raw,58.8,60,95,105,115,115,52.5,-57.5,-57.5,52.5,115,125,-137.5,125,292.5,2
April Harper,28,F-O,F,SBD,Raw,65.4,67.5,100,107.5,-117.5,107.5,-65,70,75,75,120,-125,135,135,317.5,3
Allison Flores,18,F-O,F,SBD,Raw,55.8,56,-95,95,-97.5,95,52.5,57.5,62.5,62.5,102.5,112.5,-125,112.5,270,4
Jamie Smith,25,F-O,F,SBD,Raw,65,67.5,65,-75,-85,65,40,47.5,-52.5,47.5,90,100,112.5,112.5,225,5
Jake Benedix,19,M-J/T-E,M,SBD,Multi-ply,61,67.5,-180,190,197.5,197.5,107.5,112.5,117.5,117.5,162.5,-170,,162.5,477.5,1
Brett Benedix,17,M-O-E,M,SBD,Multi-ply,66.8,67.5,240,-255,255,255,102.5,110,115,115,200,210,215,215,585,1
Chris Jacobson,21,M-O-E,M,SBD,Multi-ply,75,75,-237.5,237.5,-250,237.5,120,130,-135,130,205,235,240,240,607.5,1
Ronnie Paras,51,M-O-E,M,SBD,Multi-ply,98.2,100,362.5,-385,-385,362.5,-277.5,-277.5,-277.5,,,,,,,DQ
Matt Delgado,20,M-O-E,M,SBD,Multi-ply,107.8,110,240,265,272.5,272.5,167.5,180,-187.5,180,240,255,272.5,272.5,725,1
Trevor Pfaendtner,24,M-O-E,M,SBD,Multi-ply,125.6,140,-320,340,-365,340,305,327.5,-337.5,327.5,265,275,-285,275,942.5,1
Michael Matlock,40,M-M,M,SBD,Raw,89.4,90,-182.5,182.5,-195,182.5,137.5,-147.5,,137.5,197.5,-212.5,,197.5,517.5,1
Jacques Williams,20,M-J/T,M,SBD,Raw,96.6,100,260,272.5,-287.5,272.5,192.5,-210,-210,192.5,205,,,205,670,1
Nate McCoole,18,M-J/T,M,SBD,Raw,137,140,240,265,272.5,272.5,195,207.5,-215,207.5,255,,,255,735,2
Brandon Sangemino,21,M-J/T,M,SBD,Raw,66.2,67.5,182.5,-190,-190,182.5,110,112.5,-117.5,112.5,190,210,212.5,212.5,507.5,3
Dominic Beswick,20,M-J/T,M,SBD,Raw,108.2,110,220,235,-250,235,142.5,157.5,170,170,230,255,265,265,670,4
Nicholas Womble,20,M-J/T,M,SBD,Raw,65.2,67.5,152.5,162.5,175,175,97.5,105,110,110,160,170,182.5,182.5,467.5,5
Kevin Tai,21,M-J/T,M,SBD,Raw,58.8,60,142.5,160,-170,160,92.5,-100,-100,92.5,137.5,150,-170,150,402.5,6
Paulo Sevick,14,M-J/T,M,SBD,Raw,70,75,120,135,-145,135,-102.5,-102.5,102.5,102.5,152.5,170,-182.5,170,407.5,7
David Argy,18,M-J/T,M,SBD,Raw,70.8,75,102.5,112.5,117.5,117.5,87.5,97.5,-102.5,97.5,-152.5,162.5,167.5,167.5,382.5,8
Brandon Hagerott,22,M-J/T,M,SBD,Raw,96.4,100,205,-227.5,,205,130,-140,,130,65,,,65,400,9
Matt Jacobson,18,M-O,M,SBD,Raw,55.8,56,85,95,107.5,107.5,52.5,62.5,67.5,67.5,102.5,120,135,135,310,1
Joe Morrow,30,M-O,M,SBD,Raw,61.4,67.5,190,202.5,210,210,127.5,135,-142.5,135,240,252.5,-267.5,252.5,597.5,1
Tony Conyers,54,M-O,M,SBD,Raw,71.6,75,-237.5,237.5,250,250,150,165,-172.5,165,272.5,-292.5,,272.5,687.5,1
Richard Yu,25,M-O,M,SBD,Raw,72,75,175,-187.5,-187.5,175,125,132.5,-137.5,132.5,217.5,227.5,-237.5,227.5,535,2
John O'Hara,22,M-O,M,SBD,Raw,80.8,82.5,205,220,230,230,-150,162.5,-172.5,162.5,215,227.5,240,240,632.5,1
Juan Bedoya,33,M-O,M,SBD,Raw,80.4,82.5,185,205,-212.5,205,150,162.5,170,170,205,227.5,247.5,247.5,622.5,2
Jordon Fowler,25,M-O,M,SBD,Raw,81,82.5,170,180,190,190,140,147.5,155,155,207.5,220,240,240,585,3
Bill Holton,27,M-O,M,SBD,Raw,89.6,90,225,240,250,250,165,175,182.5,182.5,260,272.5,-280,272.5,705,1
Jordan Characo,20,M-O,M,SBD,Raw,88.8,90,215,-225,-225,215,170,180,-185,180,245,252.5,-257.5,252.5,647.5,2
Jay Grayauskie,30,M-O,M,SBD,Raw,88.8,90,167.5,185,190,190,135,140,145,145,245,260,-272.5,260,595,3
David Siciliano,27,M-O,M,SBD,Raw,88.4,90,142.5,167.5,-182.5,167.5,87.5,102.5,-107.5,102.5,165,185,192.5,192.5,462.5,4
Sony Peronel,29,M-O,M,SBD,Raw,89.6,90,,,,,,,,,,,,,,DQ
Joseph Sonntag,22,M-O,M,SBD,Raw,99,100,250,260,-267.5,260,165,172.5,-177.5,172.5,275,285,-290,285,717.5,1
Michael Masi,25,M-O,M,SBD,Raw,99.8,100,210,220,227.5,227.5,142.5,150,-157.5,150,212.5,227.5,237.5,237.5,615,2
Joshua Lubczynski,22,M-O,M,SBD,Raw,107.4,110,205,217.5,220,220,-157.5,157.5,-167.5,157.5,230,-237.5,237.5,237.5,615,1
Joshua Jacobs,26,M-O,M,SBD,Raw,107.6,110,165,177.5,185,185,110,120,-127.5,120,205,212.5,227.5,227.5,532.5,2
Greg Alvarado,40,M-M-E,M,B,Multi-ply,110,110,,,,,-247.5,247.5,-262.5,247.5,,,,,247.5,1
Jonathan Gade,47,M-M-E,M,B,Multi-ply,127.4,140,,,,,160,182.5,-205,182.5,,,,,182.5,2
Joe Fargo,34,M-O-E,M,B,Multi-ply,88,90,,,,,-247.5,247.5,-257.5,247.5,,,,,247.5,1
Marvin Coleman,45,M-O-E,M,B,Multi-ply,89.8,90,,,,,-122.5,,,,,,,,,DQ
Jim Hoskinson,48,M-O-E,M,B,Multi-ply,131.8,140,,,,,-317.5,-317.5,317.5,317.5,,,,,317.5,1
Brian Burritt,46,M-M,M,B,Raw,81.8,82.5,,,,,182.5,187.5,-190,187.5,,,,,187.5,1
Barry Gershman,41,M-M,M,B,Raw,124.3,125,,,,,200,215,222.5,222.5,,,,,222.5,2
John Melcher,50,M-M,M,B,Raw,105.8,110,,,,,165,175,-182.5,175,,,,,175,3
Todd Berry,52,M-M,M,B,Raw,109.2,110,,,,,125,135,140,140,,,,,140,4
Kejajuan Collington,29,M-O,M,B,Raw,58.8,60,,,,,137.5,147.5,-152.5,147.5,,,,,147.5,1
Justin Hope,33,M-O,M,B,Raw,72.2,75,,,,,142.5,152.5,155,155,,,,,155,1
Joe Hill,37,M-O,M,B,Raw,80.8,82.5,,,,,190,200,-212.5,200,,,,,200,1
Brian Burritt,46,M-O,M,B,Raw,81.8,82.5,,,,,182.5,187.5,-190,187.5,,,,,187.5,2
Adam Downing,29,M-O,M,B,Raw,97.2,100,,,,,192.5,202.5,210,210,,,,,210,1
Brandon Smith,32,M-O,M,B,Raw,106.3,110,,,,,-227.5,227.5,-240,227.5,,,,,227.5,1
Barry Gershman,41,M-O,M,B,Raw,124.3,125,,,,,200,215,222.5,222.5,,,,,222.5,1
