Name,WeightClassKg,Best3SquatKg,Best3BenchKg,Best3DeadliftKg,TotalKg,Event,Equipment,Division,Sex,Place
Leanne Johnson,90+,222.5,112.5,200.0,535.0,SBD,Single-ply,Open,F,1
Chris Holt,82.5,140.0,77.5,160.0,377.5,SBD,Single-ply,Open,M,1
Darren Jays,90.0,210.0,147.5,212.5,570.0,SBD,Single-ply,Open,M,2
Chris Gafa,90.0,210.0,120.0,242.5,572.5,SBD,Single-ply,Open,M,1
Andrew Arduca,100.0,200.0,125.0,220.0,545.0,SBD,Single-ply,Open,M,4
Peter Malic,100.0,227.5,155.5,265.0,647.5,SBD,Single-ply,Open,M,1
Matthew Taylor,100.0,200.0,122.5,220.0,542.5,SBD,Single-ply,Open,M,5
Mark Taylor,100.0,205.0,120.0,255.0,580.0,SBD,Single-ply,Open,M,3
Bill Jubao,100.0,240.0,127.5,242.5,610.0,SBD,Single-ply,Open,M,2
