﻿REZULTATI - MUŠKARCI;;;;;;;;;;;;;;;;;;;;;
;;;;;;;;;;;;;;;;;;;;;
R.b.;Ime i prezime;God;BW;Č1;Č2;Č3;Č4;NČ;P1;P2;P3;P4;NP;MZ;D1;D2;D3;D4;ND;TOTAL;BODOVI
DOBNA KATEGORIJA: JUNIOR;;;;;;;;;;;;;;;;;;;;;
Kategorija: - 75kg;;;;;;;;;;;;;;;;;;;;;
1.;Danijel Parac;23;71.0;170;200;200;-;200;100;115;120;-;120;320;200;230;250;-;230;550;647.9
DOBNA KATEGORIJA: OPEN;;;;;;;;;;;;;;;;;;;;;
Kategorija: - 75kg;;;;;;;;;;;;;;;;;;;;;
1.;Aleks Piciga;35;75.0;130;135;145;-;135;105;110;115;-;110;245;150;170;180;-;180;425;474.725
Kategorija: - 82.5kg;;;;;;;;;;;;;;;;;;;;;
1.;Borna Čanić;24;80.2;140;160;170;-;170;100;110;117.5;-;117.5;287.5;160;180;195;-;195;482.5;507.108