Name,Sex,Tested,Division,Equipment,WeightClassKg,BodyweightKg,Event,Squat1Kg,Squat2Kg,Squat3Kg,Best3SquatKg,Bench1Kg,Bench2Kg,Bench3Kg,Best3BenchKg,Deadlift1Kg,Deadlift2Kg,Deadlift3Kg,Best3DeadliftKg,TotalKg,Place
Jordan Gibson,M,No,Open,Multi-ply,110,109.13,SBD,330,367.5,390,390,170,205,,205,265,,,265,860,2
Brandon Bunn,M,No,Open,Multi-ply,140,137.08,SBD,410,455,467.5,467.5,272.5,,295,295,250,282.5,,282.5,1045,1
Arhie Smith,M,No,Masters,Multi-ply,125,114.4,SBD,182.5,205,235,235,165,185,,185,170,190,205,205,625,3
Larry Hadley,M,No,Masters,Wraps,90,87.91,SBD,92.5,125,137.5,137.5,85,102.5,,102.5,102.5,130,150,150,390,4
Samantha Mello,F,No,Open,Wraps,82.5,82.19,SBD,207.5,217.5,,217.5,92.5,97.5,100,100,182.5,190,195,195,512.5,1
Kimberly Christiansen,F,No,Open,Wraps,90,89.72,SD,107.5,115,120,120,,,,,125,142.5,150,150,270,2
