Place,WeightClassKg,Sex,Division,Name,BirthYear,BirthDate,BodyweightKg,Country,Best3SquatKg,Best3BenchKg,Best3DeadliftKg,TotalKg,Event,Equipment
1,52,F,Masters 1,Vuokko Viitasaari,1954,,47.5,Finland,142.5,77.5,167.5,387.5,SBD,Single-ply
2,52,F,Masters 1,Svetlana Eremenko,1957,,50.8,Russia,135,62.5,150,347.5,SBD,Single-ply
3,52,F,Masters 1,Alexan Karbysheva,1956,,47.7,Russia,132.5,67.5,130,330,SBD,Single-ply
4,52,F,Masters 1,Sally Bowers,1949,,51.3,USA,130,57.5,157.5,345,SBD,Single-ply
5,52,F,Masters 1,Cathy Solan,1958,,44,USA,112.5,52.5,130,295,SBD,Single-ply
6,52,F,Masters 1,Seiko Omori,1951,,50.9,Japan,130,60,137.5,327.5,SBD,Single-ply
7,52,F,Masters 1,Monika Bruder,1954,,47.5,Germany,122.5,52.5,127.5,302.5,SBD,Single-ply
8,52,F,Masters 1,Nadejda Uvachan,1944,,51.5,Russia,122.5,67.5,130,320,SBD,Single-ply
9,52,F,Masters 1,Yoko Matsuura,1958,,51.6,Japan,120,72.5,125,317.5,SBD,Single-ply
10,52,F,Masters 1,Donna Aliminosa,1951,,42.8,USA,85,45,105,235,SBD,Single-ply
11,52,F,Masters 1,Seija Turunen,1947,,47.5,Finland,82.5,50,100,232.5,SBD,Single-ply
DQ,52,F,Masters 1,Liliane Boulle,1946,,43.2,France,100,,,,SBD,Single-ply
1,67.5,F,Masters 1,Natalia Kashirina,1954,,58.9,Russia,167.5,85,185,437.5,SBD,Single-ply
2,67.5,F,Masters 1,Ellen Stein,1953,,58.7,USA,155,82.5,190,427.5,SBD,Single-ply
3,67.5,F,Masters 1,Kazuko Ishikawa,1956,,59.6,Japan,147.5,90,155,392.5,SBD,Single-ply
4,67.5,F,Masters 1,Mieke Vivijs,1953,,55.6,Belgium,132.5,70,165,367.5,SBD,Single-ply
5,67.5,F,Masters 1,Lucienne Daumas,1955,,55.3,France,135,72.5,157.5,365,SBD,Single-ply
6,67.5,F,Masters 1,Rita Bass,1945,,56.8,UK,135,70,167.5,372.5,SBD,Single-ply
7,67.5,F,Masters 1,Adina Hyková,1943,,58,Czechia,125,75,155,355,SBD,Single-ply
8,67.5,F,Masters 1,Kate Dingle-Craig,1957,,59,USA,125,75,140,340,SBD,Single-ply
9,67.5,F,Masters 1,Lydia Louarduzzi,1958,,56.1,France,125,65,135,325,SBD,Single-ply
10,67.5,F,Masters 1,Hana Takáčová,1954,,66.8,Czechia,145,85,140,370,SBD,Single-ply
11,67.5,F,Masters 1,Doreen Dowsett,1951,,64.9,UK,115,57.5,155,327.5,SBD,Single-ply
12,67.5,F,Masters 1,Setsuko Takahashi,1949,,52.7,Japan,105,55,105,265,SBD,Single-ply
13,67.5,F,Masters 1,Lanette Lopez,1959,,55,USA,95,50,127.5,272.5,SBD,Single-ply
14,67.5,F,Masters 1,Marianne Lankau,1953,,65.3,Germany,102.5,65,120,287.5,SBD,Single-ply
15,67.5,F,Masters 1,Ursula Nothnagel,1938,,58.8,Germany,90,57.5,110,257.5,SBD,Single-ply
DQ,67.5,F,Masters 1,Hatsuko Kimura,1951,,53.4,Japan,130,,,,SBD,Single-ply
1,67.5+,F,Masters 1,Harriet Hall,1948,,95,USA,212.5,130,207.5,550,SBD,Single-ply
2,67.5+,F,Masters 1,Mariet Spronk,1955,,71.4,Netherlands,160,97.5,182.5,440,SBD,Single-ply
3,67.5+,F,Masters 1,Rosemarie Beer,1945,,75.5,Austria,172.5,105,177.5,455,SBD,Single-ply
4,67.5+,F,Masters 1,Tatyana Fomina,1946,,67.6,Russia,175,67.5,175,417.5,SBD,Single-ply
5,67.5+,F,Masters 1,Joke van der Meulen,1951,,70.4,Netherlands,165,85,170,420,SBD,Single-ply
6,67.5+,F,Masters 1,Ruth Welding,1956,,67.7,USA,137.5,72.5,162.5,372.5,SBD,Single-ply
7,67.5+,F,Masters 1,Sue Hallen,1957,,106.6,USA,175,125,155,455,SBD,Single-ply
8,67.5+,F,Masters 1,Sue Hollands,1951,,84,UK,162.5,57.5,150,370,SBD,Single-ply
9,67.5+,F,Masters 1,Jana Hranickova,1955,,70.2,Czechia,137.5,65,122.5,325,SBD,Single-ply
10,67.5+,F,Masters 1,Tho Gardarsdottir,1944,,84.5,Iceland,115,82.5,157.5,355,SBD,Single-ply
11,67.5+,F,Masters 1,Helen Richards,1953,,69.4,UK,120,57.5,132.5,310,SBD,Single-ply
12,67.5+,F,Masters 1,Lizet v Schijndel,1958,,79.8,Netherlands,120,60,152.5,332.5,SBD,Single-ply
13,67.5+,F,Masters 1,Catherine Wass,1951,,73,UK,120,62.5,125,307.5,SBD,Single-ply
14,67.5+,F,Masters 1,Anke Beninga,1954,,72,Germany,97.5,67.5,120,285,SBD,Single-ply
1,52,M,Masters 1,Antonio Taguibao,1956,,51.5,Philippines,165,80,190,435,SBD,Single-ply
2,52,M,Masters 1,Masaru Kagawa,1953,,51.7,Japan,135,107.5,155,397.5,SBD,Single-ply
3,52,M,Masters 1,Yutaka Yamashita,1959,,51.8,Japan,120,110,130,360,SBD,Single-ply
1,56,M,Masters 1,Ken Yamakawa,1960,,55.15,Japan,215,85,222.5,522.5,SBD,Single-ply
2,56,M,Masters 1,Yasuhiro Sotowa,1954,,55.6,Japan,197.5,92.5,192.5,482.5,SBD,Single-ply
3,56,M,Masters 1,Danny Barleen,1960,,55.7,USA,160,112.5,187.5,460,SBD,Single-ply
4,56,M,Masters 1,Anand B. Raj,1959,,55.2,India,180,85,185,450,SBD,Single-ply
5,56,M,Masters 1,Vladi Timirgaleev,1956,,55.8,Russia,162.5,100,180,442.5,SBD,Single-ply
6,56,M,Masters 1,Czeslaw Kedziora,1951,,56,Poland,137.5,107.5,187.5,432.5,SBD,Single-ply
1,60,M,Masters 1,Gennady Sayapin,1952,,59.7,Russia,215,122.5,225,562.5,SBD,Single-ply
2,60,M,Masters 1,Bernard Vincent,1957,,59.6,France,202.5,130,217.56,550,SBD,Single-ply
3,60,M,Masters 1,S.V.S. Kamath,1953,,59.4,India,215,100,220,535,SBD,Single-ply
4,60,M,Masters 1,Anato Bochkowskyy,1954,,58.6,Ukraine,180,97.5,220,497.5,SBD,Single-ply
5,60,M,Masters 1,John Corsello,1958,,59.5,USA,150,127.5,177.5,455,SBD,Single-ply
DQ,60,M,Masters 1,Anatol Merzlyakov,1956,,60,Russia,,,,,SBD,Single-ply
1,67.5,M,Masters 1,Petr Posokhin,1955,,67,Russia,237.5,150,260,647.5,SBD,Single-ply
2,67.5,M,Masters 1,Lloyd Weinstein,1959,,66.5,USA,237.5,137.5,245,620,SBD,Single-ply
3,67.5,M,Masters 1,Anton Mihok,1957,,66.2,Slovakia,227.5,145,235,607.5,SBD,Single-ply
4,67.5,M,Masters 1,Hiroshi Miki,1957,,66.6,Japan,227.5,160,220,607.5,SBD,Single-ply
5,67.5,M,Masters 1,Kurt Rooch,1957,,67.2,Germany,200,170,232.5,602.5,SBD,Single-ply
6,67.5,M,Masters 1,Rafael Lopez,1958,,66.4,Spain,215,130,240,585,SBD,Single-ply
7,67.5,M,Masters 1,Réjean Talon,1957,,67.4,Canada,202.5,152.5,210,565,SBD,Single-ply
8,67.5,M,Masters 1,Miguel Flores,1955,,66.8,UK,200,110,205,515,SBD,Single-ply
9,67.5,M,Masters 1,Timo Rautiainen,1958,,67.2,Finland,185,130,185,500,SBD,Single-ply
10,67.5,M,Masters 1,Steen Gildesberg,1958,,67,Denmark,150,102.5,187.5,440,SBD,Single-ply
DQ,67.5,M,Masters 1,Salen Shrivastava,1953,,66,India,,,,,SBD,Single-ply
1,75,M,Masters 1,Arrigo Niccolini,1956,,74.5,Italy,278,155,260,692.5,SBD,Single-ply
2,75,M,Masters 1,Mike Roy,1954,,74.5,USA,272.5,160,252.5,685,SBD,Single-ply
3,75,M,Masters 1,Alan Cayer,1956,,74.2,USA,242.5,162.5,277.5,682.5,SBD,Single-ply
4,75,M,Masters 1,Mani Khosravi,1960,,73,Iran,245,170,265,680,SBD,Single-ply
5,75,M,Masters 1,Wally Schmidt,1958,,74,South Africa,235,150,275,660,SBD,Single-ply
6,75,M,Masters 1,Takaaki Matsuda,1958,,74.7,Japan,255,152.5,252.5,660,SBD,Single-ply
7,75,M,Masters 1,Nariano Coppari,1951,,75,Italy,230,155,270,655,SBD,Single-ply
8,75,M,Masters 1,Carlos Lewis,1958,,73.9,Germany,260,145,245,650,SBD,Single-ply
9,75,M,Masters 1,Co Hoppenbrouwers,1958,,74.5,Netherlands,230,145,270,645,SBD,Single-ply
10,75,M,Masters 1,Felipe Hernandez #1,1953,,74.2,Spain,230,150,250,630,SBD,Single-ply
11,75,M,Masters 1,Dietmar Daron,1959,,73.1,Germany,235,132.5,252.5,620,SBD,Single-ply
12,75,M,Masters 1,Macolm Karn,1952,,74.2,UK,225,105,290,620,SBD,Single-ply
13,75,M,Masters 1,Renato Dio,1956,,73.9,Philippines,235,140,230,605,SBD,Single-ply
14,75,M,Masters 1,R.W. Gajanana,1952,,74.4,India,225,142.5,232.5,600,SBD,Single-ply
15,75,M,Masters 1,Thalo Rusbjerg,1957,,73.6,Denmark,215,130,235,580,SBD,Single-ply
16,75,M,Masters 1,Jan Sahlgren,1960,,74.8,Denmark,215,130,215,560,SBD,Single-ply
17,75,M,Masters 1,Petr Hrubý,1952,,73.9,Czechia,210,145,200,555,SBD,Single-ply
18,75,M,Masters 1,Louis Jacobs,1958,,74.2,South Africa,205,135,202.5,542.5,SBD,Single-ply
DQ,75,M,Masters 1,Akihiro Nakane,1956,,73.2,Japan,230,,,,SBD,Single-ply
DQ,75,M,Masters 1,Oleksiy Sachenko,1958,,74.3,Ukraine,200,,,,SBD,Single-ply
1,82.5,M,Masters 1,Larry Maile,1958,,81.6,USA,270,187.5,265,722.5,SBD,Single-ply
2,82.5,M,Masters 1,Andrey Kazhakov,1959,,79.5,Kazakhstan,280,160,280,720,SBD,Single-ply
3,82.5,M,Masters 1,Sergey Rykov,1958,,81.8,Russia,270,172.5,270,712.5,SBD,Single-ply
4,82.5,M,Masters 1,Stanislav Hoza,1956,,82.4,Czechia,275,160,260,695,SBD,Single-ply
5,82.5,M,Masters 1,Bill Scully,1958,,81.8,USA,255,170,267.5,692.5,SBD,Single-ply
6,82.5,M,Masters 1,Jurij Ivanushin,1960,,81.6,Latvia,245,150,295,690,SBD,Single-ply
7,82.5,M,Masters 1,Franc Michalowski,1958,,82.4,Poland,260,150,280,690,SBD,Single-ply
8,82.5,M,Masters 1,Taras Brytan,1953,,80.9,Ukraine,235,150,280,665,SBD,Single-ply
9,82.5,M,Masters 1,Jerry Marentette,1956,,81.8,Canada,222.5,165,260,647.5,SBD,Single-ply
10,82.5,M,Masters 1,Vasiliy Savinikh,1956,,81.8,Russia,265,140,235,640,SBD,Single-ply
11,82.5,M,Masters 1,Gorgio Agostinoni,1959,,81.1,Italy,250,137.5,250,637.5,SBD,Single-ply
12,82.5,M,Masters 1,Peter Rathke,1956,,82.3,Germany,210,155,225,590,SBD,Single-ply
13,82.5,M,Masters 1,Lucian Bertoletti,1960,,81.7,Italy,200,157.5,220,577.5,SBD,Single-ply
14,82.5,M,Masters 1,Norbert Tibbe,1955,,81.2,Belgium,175,127.5,240,542.5,SBD,Single-ply
15,82.5,M,Masters 1,R.M.K. Shrivasta,1953,,82.5,India,190,132.5,195,517.5,SBD,Single-ply
DQ,82.5,M,Masters 1,Pert Taavitsainen,1959,,82.2,Finland,240,150,,,SBD,Single-ply
1,90,M,Masters 1,Ser Klimashewskiy,1956,,89.4,Russia,292.5,180,270,742.5,SBD,Single-ply
2,90,M,Masters 1,Jaroslv Kelner,1956,,89.7,Czechia,280,167.5,285,732.5,SBD,Single-ply
3,90,M,Masters 1,Eric Mauchosse,1958,,88.6,France,270,190,270,730,SBD,Single-ply
4,90,M,Masters 1,Kichizo Wakushima,1958,,88.2,Japan,250,180,280,710,SBD,Single-ply
5,90,M,Masters 1,Nagatan Kaneyoshi,1960,,89.5,Japan,267.5,175,265,707.5,SBD,Single-ply
6,90,M,Masters 1,Kevin Jane,1951,,89.6,UK,265,155,285,705,SBD,Single-ply
7,90,M,Masters 1,Gary Ferstler,1955,,89.1,USA,272.5,142.5,282.5,697.5,SBD,Single-ply
8,90,M,Masters 1,Sandro Rossi,1952,,89.8,Italy,275,142.5,280,697.5,SBD,Single-ply
9,90,M,Masters 1,Mich Tartainville,1956,,87.2,France,240,150,270,660,SBD,Single-ply
10,90,M,Masters 1,Maksim Elizeev,1956,,85.4,Kazakhstan,230,160,260,650,SBD,Single-ply
11,90,M,Masters 1,Wolfga Weidemeier,1954,,88,Germany,227.5,135,257.5,620,SBD,Single-ply
12,90,M,Masters 1,Carlo DeCarli,1957,,87.8,Italy,210,145,255,610,SBD,Single-ply
13,90,M,Masters 1,Dan Kram,1957,,86.1,Canada,210,160,225,595,SBD,Single-ply
14,90,M,Masters 1,Per Berndorff,1960,,87.5,Denmark,215,165,170,550,SBD,Single-ply
DQ,90,M,Masters 1,Manfréd Rőhm,1954,,89.5,Czechia,260,180,,,SBD,Single-ply
DQ,90,M,Masters 1,Rüdiger Hopp,1955,,89.8,Sweden,,,,,SBD,Single-ply
1,100,M,Masters 1,Ján Beneš,1959,,99.6,Czechia,270,190,330,790,SBD,Single-ply
2,100,M,Masters 1,Scott Roberts,1958,,99.3,USA,312.5,180,280,772.5,SBD,Single-ply
3,100,M,Masters 1,Vladimir Tsukanov,1959,,99.8,Russia,305,202.5,260,767.5,SBD,Single-ply
4,100,M,Masters 1,Asama Shigetoshi,1959,,93.4,Japan,285,175,290,750,SBD,Single-ply
5,100,M,Masters 1,Roberto Alesio,1958,,99.5,Argentina,290,170,290,750,SBD,Single-ply
6,100,M,Masters 1,Tadeusz Hul,1956,,99.9,Poland,312.5,162.5,275,750,SBD,Single-ply
7,100,M,Masters 1,Reinhard Melzig,1955,,97.2,Germany,275,155,292.5,722.5,SBD,Single-ply
8,100,M,Masters 1,Adam Czupori,1957,,96.4,Slovakia,270,170,270,710,SBD,Single-ply
9,100,M,Masters 1,Didier Auclair,1957,,99.5,France,260,180,270,710,SBD,Single-ply
10,100,M,Masters 1,Kjell Fransson,1955,,99.5,Sweden,260,162.5,250,672.5,SBD,Single-ply
11,100,M,Masters 1,Andy Kuttner,1956,,99.3,UK,240,155,250,645,SBD,Single-ply
12,100,M,Masters 1,Murphy Maart,1956,,98.75,South Africa,230,140,260,630,SBD,Single-ply
DQ,100,M,Masters 1,Ola Wermelin,1955,,99,Sweden,280,,,,SBD,Single-ply
1,110,M,Masters 1,Shawn Cain,1957,,107.5,USA,285,205,330,820,SBD,Single-ply
2,110,M,Masters 1,Alexander Koblov,1956,,108.9,Russia,305,225,290,820,SBD,Single-ply
3,110,M,Masters 1,Kari Vilppola,1955,,109.6,Finland,270,217.5,325,812.5,SBD,Single-ply
4,110,M,Masters 1,Valeriy Melnyk,1958,,108.8,Ukraine,310,190,295,795,SBD,Single-ply
5,110,M,Masters 1,Michelangelo DiCerbo,1957,,107.9,Italy,285,180,300,765,SBD,Single-ply
6,110,M,Masters 1,Geoff Poole,1958,,108.7,UK,320,150,280,750,SBD,Single-ply
7,110,M,Masters 1,Nirmaljit Singh,1958,,101.9,India,295,165,280,740,SBD,Single-ply
8,110,M,Masters 1,Juraj Pástor,1960,,109.2,Slovakia,310,100,312.5,722.5,SBD,Single-ply
9,110,M,Masters 1,Greg Phillips,1959,,108.7,Australia,230,167.5,285,682.5,SBD,Single-ply
10,110,M,Masters 1,Jan-Leif Lande,1953,,102.7,Norway,277.5,150,250,677.5,SBD,Single-ply
11,110,M,Masters 1,Hjörtur Geirsson,1957,,109.1,Iceland,210,155,290,655,SBD,Single-ply
12,110,M,Masters 1,Daniel Royer,1957,,108.3,Canada,205,195,220,620,SBD,Single-ply
13,110,M,Masters 1,K. Giangiappa,1952,,103.4,India,255,130,215,600,SBD,Single-ply
14,110,M,Masters 1,Bjørn Nielsen,1959,,104.5,Denmark,192.5,145,220,557.5,SBD,Single-ply
15,110,M,Masters 1,Arne Nomerstad,1954,,105.1,Norway,270,150,100,520,SBD,Single-ply
DQ,110,M,Masters 1,Václav Vimmer,1959,,109.3,Czechia,230,,,,SBD,Single-ply
DQ,110,M,Masters 1,Josef Pesta,1955,,105.5,Slovakia,240,,,,SBD,Single-ply
DQ,110,M,Masters 1,Antonín Šota,1952,,109,Czechia,270,,,,SBD,Single-ply
1,125,M,Masters 1,Leopold Krendl,1957,,123.4,Austria,350,185,315,850,SBD,Single-ply
2,125,M,Masters 1,Bengt Fridell,1957,,123.2,Sweden,325,197.5,320,842.5,SBD,Single-ply
3,125,M,Masters 1,Alexa Maximushkin,1950,,110.5,Russia,320,200,295,815,SBD,Single-ply
4,125,M,Masters 1,Jean-Luc Collart,1959,,118.5,Belgium,330,200,275,805,SBD,Single-ply
5,125,M,Masters 1,Peter Smith,1958,,120.1,Australia,290,170,322.5,782.5,SBD,Single-ply
6,125,M,Masters 1,Reiji Hänninen,1958,,119.5,Finland,310,185,285,780,SBD,Single-ply
7,125,M,Masters 1,Ján Šiska,1955,,115.3,Slovakia,287.5,170,300,757.5,SBD,Single-ply
8,125,M,Masters 1,Tom Weeks,1953,,123.4,USA,250,192.5,312.5,755,SBD,Single-ply
9,125,M,Masters 1,John Blackburn,1955,,123.1,UK,280,150,300,730,SBD,Single-ply
10,125,M,Masters 1,Milan Mrázek,1958,,123.8,Czechia,245,167.5,260,672.5,SBD,Single-ply
11,125,M,Masters 1,Hans Werne Riedel,1952,,112.5,Germany,240,147.5,262.5,650,SBD,Single-ply
12,125,M,Masters 1,Viktor Mahút,1960,,111.2,Slovakia,230,125,280,635,SBD,Single-ply
DQ,125,M,Masters 1,Moham El Hamdouny,1952,,119.9,Netherlands,350,230,292.5,,SBD,Single-ply
1,125+,M,Masters 1,Frank Jørgensen,1960,,132.5,Denmark,320,220,347.5,887.5,SBD,Single-ply
2,125+,M,Masters 1,Miroslav Patro,1957,,155.6,Slovakia,365,192.5,330,887.5,SBD,Single-ply
3,125+,M,Masters 1,Yuriy Bespalov,1956,,133.3,Russia,350,205,302.5,857.5,SBD,Single-ply
4,125+,M,Masters 1,Ichiro Ujiie,1957,,154.6,Japan,315,245,240,800,SBD,Single-ply
5,125+,M,Masters 1,John Kleveland,1957,,136.8,Norway,300,200,290,790,SBD,Single-ply
6,125+,M,Masters 1,Raimo Avila,1955,,125.4,Finland,280,190,300,770,SBD,Single-ply
7,125+,M,Masters 1,Frank Girrulat,1959,,128.7,Germany,255,220,295,770,SBD,Single-ply
8,125+,M,Masters 1,Roy Simon,1956,,177.1,UK,282.5,200,277.5,760,SBD,Single-ply
9,125+,M,Masters 1,Bohumil Váňa,1951,,125.9,Czechia,270,235,250,755,SBD,Single-ply
10,125+,M,Masters 1,Jiří Ondráček,1955,,126.6,Czechia,265,180,300,745,SBD,Single-ply
DQ,125+,M,Masters 1,Yuri Zhabolothniy,1958,,158.2,Ukraine,,,,,SBD,Single-ply
1,52,M,Masters 2,Shinjun Oshiro,1943,,51.8,Japan,140,105,165,410,SBD,Single-ply
DQ,52,M,Masters 2,Yoshio Hirano,1939,,51.4,Japan,120,,,,SBD,Single-ply
1,56,M,Masters 2,Hideaki Inaba,1944,,53.2,Japan,235,95,227.5,557.5,SBD,Single-ply
2,56,M,Masters 2,Hiraku Fushimi,1937,,55.6,Japan,140,120,170,430,SBD,Single-ply
1,60,M,Masters 2,Kastuji Okiura,1945,,59.5,Japan,190,105,235,530,SBD,Single-ply
2,60,M,Masters 2,Ira Rosen,1950,,59.9,USA,175,95,190,460,SBD,Single-ply
3,60,M,Masters 2,Milan Gombár,1948,,59.3,Slovakia,160,95,192.5,447.5,SBD,Single-ply
4,60,M,Masters 2,Roger Powell,1936,,59.6,UK,140,85,200,425,SBD,Single-ply
5,60,M,Masters 2,Iain Burgess,1944,,59,USA,140,85,150,375,SBD,Single-ply
6,60,M,Masters 2,Bent Hansen,1941,,59,Denmark,125,82.5,165,372.5,SBD,Single-ply
1,67.5,M,Masters 2,John Hibbert,1946,,67.2,UK,200,140,237.5,577.5,SBD,Single-ply
2,67.5,M,Masters 2,Ray Fraser,1948,,67.2,UK,190,127.5,240,557.5,SBD,Single-ply
3,67.5,M,Masters 2,Timo Manninen,1948,,66.7,Finland,182.5,127.5,222.5,532.5,SBD,Single-ply
4,67.5,M,Masters 2,Michel Ledroit,1938,,67.2,France,205,100,220,525,SBD,Single-ply
5,67.5,M,Masters 2,Gerard Dufour,1949,,65.3,France,180,110,222.5,512.5,SBD,Single-ply
6,67.5,M,Masters 2,Robert Cortes,1930,1930-07-16,66.9,USA,172.5,117.5,215,505,SBD,Single-ply
7,67.5,M,Masters 2,Jules Pellegrino,1943,,66.9,USA,177.5,127.5,182.5,487.5,SBD,Single-ply
8,67.5,M,Masters 2,Burkhard Steffen,1950,,67.3,Germany,187.5,110,170,467.5,SBD,Single-ply
9,67.5,M,Masters 2,Deszö Szloboda,1937,,66.8,Germany,167.5,65,190,422.5,SBD,Single-ply
10,67.5,M,Masters 2,Alfredo Urrutia,1931,,65.6,Spain,95,67.5,135,297.5,SBD,Single-ply
1,75,M,Masters 2,Leonid Lokhov,1948,,74.4,Russia,255,145,270,670,SBD,Single-ply
2,75,M,Masters 2,John Russel,1946,,74.6,UK,245,140,230,615,SBD,Single-ply
3,75,M,Masters 2,Janis Pavluks,1949,,73.5,Latvia,207.5,137.5,245,590,SBD,Single-ply
4,75,M,Masters 2,René Doubel,1945,,74.9,France,192.5,147.5,237.5,577.5,SBD,Single-ply
5,75,M,Masters 2,Sam Alduenda,1942,,73,USA,210,145,205,560,SBD,Single-ply
6,75,M,Masters 2,Kjell Andersson,1945,,74.2,Sweden,195,115,247.5,557.5,SBD,Single-ply
7,75,M,Masters 2,Stan Macrow,1949,,72.3,UK,202.5,135,212.5,550,SBD,Single-ply
8,75,M,Masters 2,Satoru Takita,1947,,74.1,Japan,210,120,212.5,542.5,SBD,Single-ply
9,75,M,Masters 2,Wilfried Häusler,1942,,74,Germany,200,120,215,535,SBD,Single-ply
10,75,M,Masters 2,Sergio Zanetti,1945,,73.8,Italy,200,110,200,510,SBD,Single-ply
11,75,M,Masters 2,Ernst Güntert,1948,,74.7,Germany,185,80,237.5,502.5,SBD,Single-ply
12,75,M,Masters 2,G.S. Tewari,1944,,74.9,India,180,95,180,455,SBD,Single-ply
13,75,M,Masters 2,Alexander Loginov,1938,,74.1,Ukraine,175,70,200,445,SBD,Single-ply
14,75,M,Masters 2,Arlindo Silva,1940,,73.3,Brazil,152.5,87.5,185,425,SBD,Single-ply
1,82.5,M,Masters 2,William Lincoln,1950,,81.2,UK,262.5,165,260,687.5,SBD,Single-ply
2,82.5,M,Masters 2,Valeriy Glazunov,1948,,81.7,Russia,275,172.5,240,687.5,SBD,Single-ply
3,82.5,M,Masters 2,Francis Bottemer,1946,,81.5,France,217.5,122.5,292.5,632.5,SBD,Single-ply
4,82.5,M,Masters 2,Ali Bouchakour,1945,,81.2,France,225,150,255,630,SBD,Single-ply
5,82.5,M,Masters 2,Olicio Santos,1940,,82.4,Brazil,215,135,270,620,SBD,Single-ply
6,82.5,M,Masters 2,Oscar Espinello,1939,,81.9,Argentina,210,135,262.5,607.5,SBD,Single-ply
7,82.5,M,Masters 2,Rudi Maier,1949,,80.2,Germany,225,145,200,570,SBD,Single-ply
8,82.5,M,Masters 2,Günther Lüdecke,1948,,82,Germany,212.5,115,230,557.5,SBD,Single-ply
9,82.5,M,Masters 2,Karl Sourek,1943,,78.5,Czechia,200,110,220,530,SBD,Single-ply
10,82.5,M,Masters 2,Ketil Hodne,1947,,80.7,Norway,170,120,200,490,SBD,Single-ply
11,82.5,M,Masters 2,Jorge Zapata,1948,,75.4,Argentina,195,85,207.5,487.5,SBD,Single-ply
DQ,82.5,M,Masters 2,Anatoliy Volkov,1938,,81.1,Kazakhstan,180,,,,SBD,Single-ply
1,90,M,Masters 2,Mikha Vereschagin,1950,,88.6,Russia,280,167.5,275,722.5,SBD,Single-ply
2,90,M,Masters 2,Stefan Sochański,1948,,89.7,Poland,275,157.5,287.5,720,SBD,Single-ply
3,90,M,Masters 2,Piero Andreatta,1950,,86.5,Italy,275,155,275,705,SBD,Single-ply
4,90,M,Masters 2,Anatoliy Bolyuku,1950,,89.2,Ukraine,260,165,250,675,SBD,Single-ply
5,90,M,Masters 2,Kenji Sasaki,1949,,89.6,Japan,245,170,255,670,SBD,Single-ply
6,90,M,Masters 2,Christian Buchs,1947,,89.4,France,270,152.5,245,667.5,SBD,Single-ply
7,90,M,Masters 2,Victor Surov,1950,,87.2,Russia,240,135,260,635,SBD,Single-ply
8,90,M,Masters 2,Jan Luka,1949,,89.5,Poland,250,100,280,630,SBD,Single-ply
9,90,M,Masters 2,Jean-Paul Belmas,1949,,89.6,France,237.5,132.5,250,620,SBD,Single-ply
10,90,M,Masters 2,Helmut Schaller,1949,,84.8,Germany,220,140,240,600,SBD,Single-ply
11,90,M,Masters 2,Dave Battison,1948,,88.9,UK,205,140,255,600,SBD,Single-ply
12,90,M,Masters 2,Wolfga Zimmermann,1941,,89.1,Czechia,205,140,252.5,597.5,SBD,Single-ply
13,90,M,Masters 2,Andy Christo,1947,,88.3,USA,217.5,142.5,235,595,SBD,Single-ply
14,90,M,Masters 2,Joachim Lehmann,1949,,84.2,Germany,177.5,112.5,210,500,SBD,Single-ply
15,90,M,Masters 2,Bjarne Palm,1937,,89.9,Denmark,140,95,157.5,392.5,SBD,Single-ply
16,90,M,Masters 2,Jose-Lui Martinez,1939,,82.6,Spain,100,150,135,385,SBD,Single-ply
DQ,90,M,Masters 2,Kari Mattila,1945,,86.8,Sweden,215,,,,SBD,Single-ply
DQ,90,M,Masters 2,Charles Crawford,1944,,86.8,UK,,,,,SBD,Single-ply
DQ,90,M,Masters 2,Tadashi Tachibana,1949,,88.8,Japan,272.5,,,,SBD,Single-ply
DQ,90,M,Masters 2,Bud Bower,1942,,89.6,USA,,,,,SBD,Single-ply
1,100,M,Masters 2,Vladimir Korolev,1949,,96.4,Russia,310,160,300,770,SBD,Single-ply
2,100,M,Masters 2,Vsevolod Babenko,1937,,99.2,Ukraine,270,175,280,725,SBD,Single-ply
3,100,M,Masters 2,Josef Mička,1949,,98.6,Czechia,267.5,180,262.5,710,SBD,Single-ply
4,100,M,Masters 2,Michel Lefevre,1949,,98.9,France,240,177.5,280,697.5,SBD,Single-ply
5,100,M,Masters 2,Ray Moore,1944,,98.1,South Africa,250,157.5,260,667.5,SBD,Single-ply
6,100,M,Masters 2,Roberto Cialdini,1944,,94.6,Italy,220,155,290,665,SBD,Single-ply
7,100,M,Masters 2,Jozef Teslar,1947,,99.1,Slovakia,235,190,240,665,SBD,Single-ply
8,100,M,Masters 2,Siegfri Schindler,1948,,98.4,Germany,250,150,250,650,SBD,Single-ply
9,100,M,Masters 2,Reijo Jaakola,1948,,98.1,Finland,210,172.5,245,627.5,SBD,Single-ply
10,100,M,Masters 2,Václav Primus,1948,,98.9,Czechia,210,135,235,580,SBD,Single-ply
1,110,M,Masters 2,György Lovasz,1947,,108.7,Hungary,322.5,197.5,320,840,SBD,Single-ply
2,110,M,Masters 2,Vasiliy Mazhuta,1947,,102.6,Russia,262.5,170,282.5,715,SBD,Single-ply
3,110,M,Masters 2,Henk Keizer,1946,,108.6,Netherlands,280,165,270,715,SBD,Single-ply
4,110,M,Masters 2,Truls Kristensaen,1939,,108.4,Norway,265,180,265,710,SBD,Single-ply
5,110,M,Masters 2,Ron Burnett,1947,,107,USA,240,140,255,635,SBD,Single-ply
6,110,M,Masters 2,Jiří Zeman,1944,,100.6,Czechia,230,155,230,615,SBD,Single-ply
7,110,M,Masters 2,Xaver Kennerknecht,1946,,103.3,Germany,225,112.5,250,587.5,SBD,Single-ply
8,110,M,Masters 2,Leif Waldeck,1939,,101.1,Sweden,200,135,250,585,SBD,Single-ply
9,110,M,Masters 2,Serafim Rocha,1948,,106.5,Brazil,200,145,240,585,SBD,Single-ply
DQ,110,M,Masters 2,Noberto Carrizo,1948,,108.6,Argentina,240,,,,SBD,Single-ply
1,125,M,Masters 2,Rafael Romashkin,1948,,114.3,Russia,270,185,290,745,SBD,Single-ply
2,125,M,Masters 2,Alfons Mietz,1947,,120.8,Germany,260,160,287.5,707.5,SBD,Single-ply
3,125,M,Masters 2,Imre Musztafa,1949,,116.9,Hungary,265,190,250,705,SBD,Single-ply
4,125,M,Masters 2,Dan Lindström,1941,,120,Sweden,260,190,230,680,SBD,Single-ply
5,125,M,Masters 2,Charles Clonc,1943,,121.5,USA,257.5,145,237.5,640,SBD,Single-ply
6,125,M,Masters 2,Stefan Schlatter,1948,,122.1,Switzerland,240,140,260,640,SBD,Single-ply
7,125,M,Masters 2,Helge Laursen,1949,,110.9,Denmark,230,155,215,600,SBD,Single-ply
DQ,125,M,Masters 2,Tibor Tekulics,1946,,111.4,Hungary,220,,,,SBD,Single-ply
DQ,125,M,Masters 2,Mick King,1950,,114.2,UK,,,,,SBD,Single-ply
DQ,125,M,Masters 2,Valdis Alksnītis,1946,,118.6,Latvia,,,,,SBD,Single-ply
1,125+,M,Masters 2,Oscar Soria,1948,,166.6,Argentina,310,185,292.5,787.5,SBD,Single-ply
2,125+,M,Masters 2,Petr Kochetov,1940,,132.7,Russia,300,195,275,770,SBD,Single-ply
3,125+,M,Masters 2,Daniel Smague,1947,,127.1,France,275,170,255,700,SBD,Single-ply
4,125+,M,Masters 2,Georg Boström,1947,,125.2,Sweden,190,135,175,500,SBD,Single-ply
