Division,WeightClassKg,Place,Name,Team,BodyweightKg,Best3SquatKg,Best3BenchKg,Best3DeadliftKg,TotalKg,Equipment,Event,Sex
Boys,51.71,1,Darrian Clark,Lorena,46.63,122.47,68.04,131.54,322.05,Single-ply,SBD,M
Boys,51.71,2,Weslee Duke,Groesbeck,50.8,113.4,63.5,131.54,308.44,Single-ply,SBD,M
Boys,51.71,3,Demetrius Parker,Waco La Vega,48.63,95.25,61.23,113.4,269.89,Single-ply,SBD,M
Boys,51.71,4,Robert Llewellyn,Chilton,47.17,92.99,61.23,102.06,256.28,Single-ply,SBD,M
Boys,51.71,5,Elijah Lewis,Bosqueville,51.71,83.91,58.97,113.4,256.28,Single-ply,SBD,M
Boys,51.71,6,Garrett Kwast,West,44,97.52,45.36,90.72,233.6,Single-ply,SBD,M
Boys,55.79,1,Jay King,Bosqueville,52.53,124.74,70.31,115.67,310.71,Single-ply,SBD,M
Boys,55.79,2,Alex Vargas,Rogers,53.25,120.2,54.43,106.59,281.23,Single-ply,SBD,M
Boys,59.87,1,Joel Santillan,Clifton,59.42,156.49,95.25,172.37,424.11,Single-ply,SBD,M
Boys,59.87,2,Trevor Uptmor,West,58.97,167.83,97.52,156.49,421.84,Single-ply,SBD,M
Boys,59.87,3,Khyran Jones,McGregor,59.87,154.22,90.72,172.37,417.3,Single-ply,SBD,M
Boys,59.87,4,Ethan Rodriguez,Lorena,59.42,156.49,81.65,158.76,396.89,Single-ply,SBD,M
Boys,59.87,5,Ruben Salazar,West,58.06,145.15,92.99,131.54,369.68,Single-ply,SBD,M
Boys,59.87,6,Jacob Caldwell,Lorena,59.42,129.27,77.11,145.15,351.53,Single-ply,SBD,M
Boys,59.87,7,Christopher Vinet,McGregor,59.42,122.47,63.5,151.95,337.93,Single-ply,SBD,M
Boys,59.87,8,Joseph Vargas,Rogers,57.97,136.08,58.97,131.54,326.59,Single-ply,SBD,M
Boys,59.87,9,Memphis Waddle,Groesbeck,58.51,111.13,70.31,106.59,288.03,Single-ply,SBD,M
Boys,59.87,10,Hayden Stanford,Bosqueville,59.51,102.06,52.16,129.27,283.5,Single-ply,SBD,M
Boys,59.87,11,Colson DeBold,Bosqueville,59.87,95.25,61.23,104.33,260.82,Single-ply,SBD,M
Boys,67.13,1,Sergio Watkins,China Spring,65.32,210.92,124.74,192.78,528.44,Single-ply,SBD,M
Boys,67.13,2,Fausto Rodriguez,West,62.14,197.31,129.27,192.78,519.36,Single-ply,SBD,M
Boys,67.13,3,Colby Skarpa,West,67.13,190.51,122.47,181.44,494.42,Single-ply,SBD,M
Boys,67.13,4,Devin Jackson,Waco La Vega,67.13,188.24,111.13,192.78,492.15,Single-ply,SBD,M
Boys,67.13,5,Thomas Powers,Lorena,67.13,158.76,102.06,170.1,430.91,Single-ply,SBD,M
Boys,67.13,6,Coker Holloway,Groesbeck,66.68,154.22,102.06,154.22,410.5,Single-ply,SBD,M
Boys,67.13,7,Westson Schasteen,Clifton,60.78,149.69,86.18,172.37,408.23,Single-ply,SBD,M
Boys,67.13,8,Dauvo McDonald,Bosqueville,65.32,163.29,79.38,154.22,396.89,Single-ply,SBD,M
Boys,67.13,9,Lane Francis,Bosqueville,65.32,154.22,86.18,154.22,394.63,Single-ply,SBD,M
Boys,67.13,10,Holden Rogers,Clifton,65.32,147.42,88.45,154.22,390.09,Single-ply,SBD,M
Boys,67.13,11,Jacob Rogers,Clifton,66.68,147.42,83.91,147.42,378.75,Single-ply,SBD,M
Boys,67.13,12,Karson Green,Crawford,60.78,133.81,81.65,140.61,356.07,Single-ply,SBD,M
Boys,67.13,13,Luke Finnell,Bosqueville,66.22,136.08,68.04,127.01,331.12,Single-ply,SBD,M
Boys,67.13,14,Israel Gutierrez,Bosqueville,62.14,102.06,77.11,145.15,324.32,Single-ply,SBD,M
Boys,67.13,15,Isaiah Williams,China Spring,63.5,104.33,74.84,136.08,315.25,Single-ply,SBD,M
Boys,67.13,16,Devon Tucker,Crawford,61.69,115.67,61.23,108.86,285.76,Single-ply,SBD,M
Boys,67.13,17,Anthony Goodwin,Crawford,62.6,102.06,54.43,92.99,249.48,Single-ply,SBD,M
Boys,67.13,DQ,Michael Truelove,Moody,63.87,147.42,90.72,,,Single-ply,SBD,M
Boys,74.84,1,Kj Peoples,China Spring,71.67,190.51,127.01,181.44,498.95,Single-ply,SBD,M
Boys,74.84,2,Larson Hoffmeyer,Bosqueville,70.76,181.44,106.59,197.31,485.34,Single-ply,SBD,M
Boys,74.84,3,Gilbert Smith,West,74.84,179.17,115.67,190.51,485.34,Single-ply,SBD,M
Boys,74.84,4,Ian Hankhouse,Bosqueville,73.03,156.49,111.13,174.63,442.25,Single-ply,SBD,M
Boys,74.84,5,Hayden Clark,McGregor,70.31,151.95,113.4,170.1,435.45,Single-ply,SBD,M
Boys,74.84,6,Rj Cromier,Hubbard,74.57,170.1,106.59,158.76,435.45,Single-ply,SBD,M
Boys,74.84,7,Toby Cook,West,73.03,174.63,99.79,158.76,433.18,Single-ply,SBD,M
Boys,74.84,8,Trey Lacina,Crawford,69.85,158.76,95.25,163.29,417.3,Single-ply,SBD,M
Boys,74.84,9,Victor Aguilar,China Spring,72.12,165.56,102.06,149.69,417.3,Single-ply,SBD,M
Boys,74.84,10,Dylan Slade,Hubbard,70.76,115.67,111.13,181.44,408.23,Single-ply,SBD,M
Boys,74.84,11,Trey Watson,Rosebud-Lott,69.22,154.22,92.99,156.49,403.7,Single-ply,SBD,M
Boys,74.84,12,Hunter Henderson,Rogers,74.84,149.69,77.11,158.76,385.55,Single-ply,SBD,M
Boys,74.84,13,Jacob Mitchell,Crawford,73.48,131.54,74.84,142.88,349.27,Single-ply,SBD,M
Boys,74.84,14,Preston Shields,Groesbeck,69.85,129.27,88.45,129.27,347,Single-ply,SBD,M
Boys,74.84,15,Luis Fernandez,Chilton,68.95,102.06,79.38,120.2,301.64,Single-ply,SBD,M
Boys,74.84,16,Riley High,Hubbard,72.57,79.38,56.7,106.59,242.67,Single-ply,SBD,M
Boys,74.84,17,Williams Lyndecker,Hubbard,73.48,77.11,63.5,90.72,231.33,Single-ply,SBD,M
Boys,82.1,1,Carsen Ford,Lorena,79.2,213.19,127.01,217.72,557.92,Single-ply,SBD,M
Boys,82.1,2,Emmanuel Abdallah,China Spring,78.93,192.78,127.01,219.99,539.77,Single-ply,SBD,M
Boys,82.1,3,Lawson Kendrick,West,80.2,199.58,131.54,195.04,526.17,Single-ply,SBD,M
Boys,82.1,4,Jordan Morgan,Waco La Vega,80.38,208.65,113.4,204.12,526.17,Single-ply,SBD,M
Boys,82.1,5,Damon Harp,Groesbeck,81.1,197.31,113.4,195.04,505.76,Single-ply,SBD,M
Boys,82.1,6,Teel Mesmer,Moody,79.74,181.44,108.86,204.12,494.42,Single-ply,SBD,M
Boys,82.1,7,David Lopez,West,82.01,167.83,104.33,156.49,428.64,Single-ply,SBD,M
Boys,82.1,8,Colby Franks,McGregor,78.02,158.76,92.99,170.1,421.84,Single-ply,SBD,M
Boys,82.1,9,Davion Carr,Waco La Vega,77.02,151.95,92.99,170.1,415.04,Single-ply,SBD,M
Boys,82.1,10,Sam Taggart,Rosebud-Lott,77.66,140.61,92.99,149.69,383.29,Single-ply,SBD,M
Boys,82.1,11,Matthew Hobbs,Clifton,80.65,136.08,79.38,154.22,369.68,Single-ply,SBD,M
Boys,82.1,12,Ivan Lopez,Rogers,77.66,154.22,74.84,138.35,367.41,Single-ply,SBD,M
Boys,82.1,13,Justin German,China Spring,78.83,113.4,90.72,149.69,353.8,Single-ply,SBD,M
Boys,82.1,14,Riley Dolgener,Rogers,79.2,140.61,70.31,142.88,353.8,Single-ply,SBD,M
Boys,82.1,15,Peyton Goebel,Crawford,76.02,117.93,81.65,127.01,326.59,Single-ply,SBD,M
Boys,82.1,16,Caleb Sampson,Waco La Vega,76.29,102.06,65.77,147.42,315.25,Single-ply,SBD,M
Boys,82.1,17,Gibson Coleman,Hubbard,79.38,113.4,79.38,117.93,310.71,Single-ply,SBD,M
Boys,82.1,18,Daniel Torres,Hubbard,77.66,106.59,74.84,127.01,308.44,Single-ply,SBD,M
Boys,82.1,DQ,Trashawn Hill,Moody,79.38,204.12,,,,Single-ply,SBD,M
Boys,89.81,1,Nate Gerik,West,85.73,249.48,149.69,249.48,648.64,Single-ply,SBD,M
Boys,89.81,2,Bodee Humphreys,Clifton,82.83,204.12,127.01,208.65,539.77,Single-ply,SBD,M
Boys,89.81,3,Noah Jenkins,McGregor,87.72,192.78,115.67,206.38,514.83,Single-ply,SBD,M
Boys,89.81,4,Mason Davis,Rogers,83.46,192.78,95.25,190.51,478.54,Single-ply,SBD,M
Boys,89.81,5,Logan Portillo,Rosebud-Lott,88.18,156.49,113.4,163.29,433.18,Single-ply,SBD,M
Boys,89.81,6,Matthew Hale,Crawford,87.63,145.15,90.72,158.76,394.63,Single-ply,SBD,M
Boys,89.81,7,Willie Burns,Bosqueville,85.37,147.42,108.86,136.08,392.36,Single-ply,SBD,M
Boys,89.81,8,Marco Cano,Clifton,87.45,136.08,81.65,163.29,381.02,Single-ply,SBD,M
Boys,89.81,9,Renee Contreras,Moody,82.92,136.08,88.45,138.35,362.87,Single-ply,SBD,M
Boys,89.81,10,Hunter Mach,Moody,88.81,136.08,92.99,133.81,362.87,Single-ply,SBD,M
Boys,89.81,11,Christian Edwards,Rosebud-Lott,86.36,90.72,70.31,136.08,297.1,Single-ply,SBD,M
Boys,89.81,DQ,Silas Prickett,West,86.36,,106.59,181.44,,Single-ply,SBD,M
Boys,89.81,DQ,Dawson Exline,China Spring,89.36,183.7,,192.78,,Single-ply,SBD,M
Boys,99.79,1,Dylan Froelich,Moody,92.8,206.38,127.01,231.33,564.72,Single-ply,SBD,M
Boys,99.79,2,Colton Tucker,Lorena,92.08,208.65,136.08,195.04,539.77,Single-ply,SBD,M
Boys,99.79,3,Ryan Lloyd,Clifton,98.88,199.58,145.15,165.56,510.29,Single-ply,SBD,M
Boys,99.79,4,Aaron Tyus,Groesbeck,94.89,188.24,111.13,181.44,480.81,Single-ply,SBD,M
Boys,99.79,5,Blake Barrett,China Spring,93.53,176.9,97.52,147.42,421.84,Single-ply,SBD,M
Boys,99.79,6,Oliver Jenkins,McGregor,94.26,158.76,92.99,161.03,412.77,Single-ply,SBD,M
Boys,99.79,7,Waylon Martin,McGregor,90.63,158.76,86.18,136.08,381.02,Single-ply,SBD,M
Boys,99.79,8,Dalton Light,Bosqueville,92.44,140.61,86.18,129.27,356.07,Single-ply,SBD,M
Boys,99.79,9,Macen Robinson,McGregor,95.25,124.74,102.06,129.27,356.07,Single-ply,SBD,M
Boys,99.79,10,Fred Cruz,McGregor,97.34,124.74,65.77,158.76,349.27,Single-ply,SBD,M
Boys,99.79,11,Ethan Glenn,Rogers,97.43,117.93,63.5,102.06,283.5,Single-ply,SBD,M
Boys,109.77,1,Sterling Harris,Lorena,101.24,226.8,163.29,226.8,616.89,Single-ply,SBD,M
Boys,109.77,2,Ruben Vera,West,108.05,229.06,113.4,226.8,569.26,Single-ply,SBD,M
Boys,109.77,3,Joseph Brotherton,Groesbeck,108.32,210.92,138.35,201.85,551.11,Single-ply,SBD,M
Boys,109.77,4,Vernon Walker,Waco La Vega,106.96,217.72,117.93,204.12,539.77,Single-ply,SBD,M
Boys,109.77,5,Jesus Garcia,Waco La Vega,102.24,183.7,115.67,181.44,480.81,Single-ply,SBD,M
Boys,109.77,6,Ivan Martinez,Waco La Vega,108.05,195.04,102.06,158.76,455.86,Single-ply,SBD,M
Boys,109.77,7,Zion Barnes,Hubbard,108.05,176.9,122.47,147.42,446.79,Single-ply,SBD,M
Boys,109.77,8,John Hernandez,McGregor,105.96,158.76,102.06,176.9,437.72,Single-ply,SBD,M
Boys,109.77,9,Michael Hare,Bosqueville,108.32,165.56,104.33,158.76,428.64,Single-ply,SBD,M
Boys,109.77,10,Mark Doyle,Lorena,109.23,158.76,97.52,154.22,410.5,Single-ply,SBD,M
Boys,109.77,11,Taylor Jaiden,China Spring,100.79,136.08,95.25,154.22,385.55,Single-ply,SBD,M
Boys,109.77,12,David Boozer,Lorena,103.51,149.69,70.31,154.22,374.21,Single-ply,SBD,M
Boys,109.77,13,Tyler Shelton,Rogers,101.51,149.69,65.77,129.27,344.73,Single-ply,SBD,M
Boys,124.74,1,Crispin Salanas,Chilton,120.66,251.74,149.69,215.46,616.89,Single-ply,SBD,M
Boys,124.74,2,Clayton Herridge,Groesbeck,123.92,226.8,170.1,204.12,601.01,Single-ply,SBD,M
Boys,124.74,3,Tyler Sparks,Lorena,117.21,226.8,149.69,204.12,580.6,Single-ply,SBD,M
Boys,124.74,4,Jorde Del Rio,Groesbeck,118.12,226.8,136.08,204.12,566.99,Single-ply,SBD,M
Boys,124.74,5,Jose Gonzalez,Chilton,122.92,215.46,122.47,206.38,544.31,Single-ply,SBD,M
Boys,124.74,6,Gabriel Gongora,Waco La Vega,118.02,226.8,122.47,183.7,532.97,Single-ply,SBD,M
Boys,124.74,7,Julian Landeros,Chilton,118.21,192.78,124.74,195.04,512.56,Single-ply,SBD,M
Boys,124.74,8,Jackson Orr,Moody,115.94,215.46,136.08,136.08,487.61,Single-ply,SBD,M
Boys,124.74,9,Camden Garner,Lorena,122.38,199.58,127.01,142.88,469.47,Single-ply,SBD,M
Boys,124.74,10,Oscar Gaona,Valley Mills,114.58,190.51,92.99,183.7,467.2,Single-ply,SBD,M
Boys,124.74,11,Davis Orr,Moody,121.38,163.29,129.27,165.56,458.13,Single-ply,SBD,M
Boys,124.74,12,Hayden Hopkins,China Spring,119.66,154.22,111.13,179.17,444.52,Single-ply,SBD,M
Boys,124.74,13,Wyatt Adams,Rogers,124.65,156.49,79.38,124.74,360.61,Single-ply,SBD,M
Boys,124.74,DQ,James Baggett,Waco La Vega,119.48,233.6,,,,Single-ply,SBD,M
Boys,124.74+,1,Seth Kohlscheen,Crawford,145.42,326.59,192.78,272.16,791.52,Single-ply,SBD,M
Boys,124.74+,2,Chase Sharp,China Spring,127.1,242.67,147.42,190.51,580.6,Single-ply,SBD,M
Boys,124.74+,3,Troy Glaser,Rogers,126.64,231.33,117.93,204.12,553.38,Single-ply,SBD,M
Boys,124.74+,4,Devin Smith,Waco La Vega,127.91,219.99,127.01,190.51,537.51,Single-ply,SBD,M
Boys,124.74+,5,Jake Knuppel,Crawford,135.35,226.8,106.59,195.04,528.44,Single-ply,SBD,M
Boys,124.74+,6,Chris Vazquez,Chilton,127.55,176.9,83.91,190.51,451.32,Single-ply,SBD,M
Boys,124.74+,7,Jacob Nutt,Rosebud-Lott,133.36,149.69,88.45,165.56,403.7,Single-ply,SBD,M
Boys,124.74+,8,Colton Ward,Rosebud-Lott,134.99,129.27,83.91,136.08,349.27,Single-ply,SBD,M
