Division,WeightClassKg,Place,Name,Team,BodyweightKg,Best3SquatKg,Best3BenchKg,Best3DeadliftKg,TotalKg,Equipment,Event,Sex
Girls,44.23,1,Jailin Munoz,Lago Vista,41.28,102.06,38.56,99.79,240.4,Single-ply,SBD,F
Girls,44.23,2,Hannah Zurovetz,Lago Vista,43.54,95.25,38.56,90.72,224.53,Single-ply,SBD,F
Girls,44.23,3,Haley Howton,Salado,39.01,77.11,34.02,83.91,195.04,Single-ply,SBD,F
Girls,44.23,4,Lily Buckley,Lago Vista,42.18,72.57,36.29,77.11,185.97,Single-ply,SBD,F
Girls,44.23,5,Gabby Gamboa-Vasquez,Bryan Rudder,44,61.23,31.75,61.23,154.22,Single-ply,SBD,F
Girls,44.23,DQ,Faith Hooker,Jarrell,43.54,52.16,,,,Single-ply,SBD,F
Girls,47.85,1,Madeline McCulloch,Salado,46.72,99.79,45.36,111.13,256.28,Single-ply,SBD,F
Girls,47.85,2,Serina Saucedo,Lago Vista,47.17,106.59,43.09,90.72,240.4,Single-ply,SBD,F
Girls,47.85,3,Emma Garcia,Lago Vista,47.17,92.99,34.02,77.11,204.12,Single-ply,SBD,F
Girls,51.94,1,Maddie Graham,Salado,51.71,111.13,63.5,129.27,303.91,Single-ply,SBD,F
Girls,51.94,2,Hailey Lentz,Taylor,50.35,115.67,54.43,111.13,281.23,Single-ply,SBD,F
Girls,51.94,3,Ashley Howard,Bryan Rudder,51.71,102.06,34.02,90.72,226.8,Single-ply,SBD,F
Girls,56.02,1,Cameron Tuggle,Lago Vista,55.79,113.4,45.36,111.13,269.89,Single-ply,SBD,F
Girls,56.02,2,Hannah Dean,Liberty Hill,54.43,83.91,36.29,95.25,215.46,Single-ply,SBD,F
Girls,56.02,3,Lyndsey Johnson,Taylor,54.88,79.38,34.02,97.52,210.92,Single-ply,SBD,F
Girls,56.02,4,Xena Hernandez,Jarrell,52.62,70.31,40.82,83.91,195.04,Single-ply,SBD,F
Girls,56.02,5,Ana Raspbury,Liberty Hill,54.43,56.7,29.48,81.65,167.83,Single-ply,SBD,F
Girls,56.02,6,Esmeralda Flores,Jarrell,55.34,58.97,27.22,58.97,145.15,Single-ply,SBD,F
Girls,60.1,1,Cassy Carlton,Lago Vista,59.42,140.61,61.23,120.2,322.05,Single-ply,SBD,F
Girls,60.1,2,Taylor Jones,Little River Academy,58.51,120.2,52.16,127.01,299.37,Single-ply,SBD,F
Girls,60.1,3,Crystal Williams,Little River Academy,59.87,124.74,56.7,117.93,299.37,Single-ply,SBD,F
Girls,60.1,4,Megan Maxwell,Little River Academy,59.87,113.4,45.36,127.01,285.76,Single-ply,SBD,F
Girls,60.1,5,Adele Chaffer,Little River Academy,58.51,104.33,43.09,99.79,247.21,Single-ply,SBD,F
Girls,60.1,6,Katelyn Edmonds,Little River Academy,59.42,97.52,47.63,99.79,244.94,Single-ply,SBD,F
Girls,60.1,7,Caroline Birnbaum,Salado,59.87,65.77,47.63,92.99,206.38,Single-ply,SBD,F
Girls,60.1,8,Jessica Emola,Bryan Rudder,59.87,70.31,31.75,70.31,172.37,Single-ply,SBD,F
Girls,60.1,9,Katie Champion,Salado,58.51,54.43,31.75,58.97,145.15,Single-ply,SBD,F
Girls,60.1,DQ,Tanja Rojas,Salado,58.97,74.84,,,,Single-ply,SBD,F
Girls,67.36,1,Alissa Womack,Jarrell,64.86,124.74,68.04,129.27,322.05,Single-ply,SBD,F
Girls,67.36,2,Dreanna McAdams,Troy,64.41,120.2,54.43,142.88,317.51,Single-ply,SBD,F
Girls,67.36,3,Morgan Lang,Little River Academy,67.13,115.67,54.43,129.27,299.37,Single-ply,SBD,F
Girls,67.36,4,Sarah Cowan,Little River Academy,67.13,120.2,52.16,115.67,288.03,Single-ply,SBD,F
Girls,67.36,5,Eva Beebe,Lago Vista,67.13,102.06,49.9,117.93,269.89,Single-ply,SBD,F
Girls,67.36,6,Elizabeth Montes,Liberty Hill,63.05,113.4,45.36,104.33,263.08,Single-ply,SBD,F
Girls,67.36,7,Alexandria Ancira,Taylor,64.41,104.33,52.16,97.52,254.01,Single-ply,SBD,F
Girls,67.36,8,Courtney Fielseler,Lago Vista,66.68,97.52,49.9,102.06,249.48,Single-ply,SBD,F
Girls,67.36,9,Alex Vieira,Jarrell,67.13,86.18,47.63,106.59,240.4,Single-ply,SBD,F
Girls,67.36,10,Danyelle Montemayor,Jarrell,60.78,99.79,40.82,90.72,231.33,Single-ply,SBD,F
Girls,67.36,11,Jessica Leal,Bryan Rudder,64.41,77.11,38.56,92.99,208.65,Single-ply,SBD,F
Girls,67.36,12,Nora Garza,Jarrell,64.41,79.38,36.29,83.91,199.58,Single-ply,SBD,F
Girls,67.36,13,Kirsten Draper,Liberty Hill,61.23,74.84,36.29,77.11,188.24,Single-ply,SBD,F
Girls,75.07,1,Lana Waddle,Lago Vista,74.39,163.29,70.31,140.61,374.21,Single-ply,SBD,F
Girls,75.07,2,Crystal Montes,Lago Vista,72.57,108.86,45.36,115.67,269.89,Single-ply,SBD,F
Girls,75.07,3,Shuttera Jones,Little River Academy,71.67,88.45,34.02,113.4,235.87,Single-ply,SBD,F
Girls,75.07,4,Kaylie Davidson,Salado,70.31,81.65,31.75,83.91,197.31,Single-ply,SBD,F
Girls,82.33,1,Kristin Cox,Liberty Hill,81.65,120.2,52.16,113.4,285.76,Single-ply,SBD,F
Girls,90.04,1,Peyton Martin,Taylor,87.54,133.81,77.11,136.08,347,Single-ply,SBD,F
Girls,90.04,2,Jordan Bush,Little River Academy,89.81,145.15,61.23,131.54,337.93,Single-ply,SBD,F
Girls,90.04,3,Amanda Mena,Liberty Hill,88.45,120.2,54.43,131.54,306.17,Single-ply,SBD,F
Girls,90.04,4,Chesney Kuper,Little River Academy,87.09,113.4,61.23,127.01,301.64,Single-ply,SBD,F
Girls,90.04,5,Alicia Mendoza,Lago Vista,88,117.93,47.63,124.74,290.3,Single-ply,SBD,F
Girls,90.04,6,Rachel Wilk,Salado,88.45,102.06,54.43,129.27,285.76,Single-ply,SBD,F
Girls,90.04,7,Emily Sumpter,Taylor,88,95.25,36.29,106.59,238.14,Single-ply,SBD,F
Girls,90.04,8,Sabrina Spakes,Salado,89.81,72.57,40.82,72.57,185.97,Single-ply,SBD,F
Girls,100.02,1,Savannah Powers,Lago Vista,99.34,190.51,83.91,115.67,390.09,Single-ply,SBD,F
Girls,100.02,2,Allie Child,Liberty Hill,94.35,124.74,63.5,129.27,317.51,Single-ply,SBD,F
Girls,100.02,3,Elsa Romero,Liberty Hill,96.16,129.27,61.23,120.2,310.71,Single-ply,SBD,F
Girls,100.02,4,Alexyss Herzog,Little River Academy,95.25,113.4,56.7,129.27,299.37,Single-ply,SBD,F
Girls,100.02,5,Stella Sievers,Salado,98.88,120.2,52.16,120.2,292.57,Single-ply,SBD,F
Girls,100.02+,1,Keshlei Bridges,Salado,130.63,147.42,65.77,136.08,349.27,Single-ply,SBD,F
Girls,100.02+,2,Brittany Carrasco,Cameron Yoe,111.13,136.08,63.5,133.81,333.39,Single-ply,SBD,F
Girls,100.02+,3,Mary Jane Narro,Bryan Rudder,142.43,111.13,45.36,97.52,254.01,Single-ply,SBD,F
Girls,,NS,Emma Taylor,Liberty Hill,,,,,,Single-ply,SBD,F
Girls,,NS,Jordan Myers,Cameron Yoe,,,,,,Single-ply,SBD,F
Girls,,NS,Brittney Moorer,Cameron Yoe,,,,,,Single-ply,SBD,F
Girls,,NS,Jazmine Jones,Cameron Yoe,,,,,,Single-ply,SBD,F
Girls,,NS,Mariah Murray,Taylor,,,,,,Single-ply,SBD,F
