Division,WeightClassKg,Place,Name,Team,BodyweightKg,Best3SquatKg,Best3BenchKg,Best3DeadliftKg,TotalKg,Equipment,Event,Sex
Boys,51.71,1,Gabriel Williams,Cedar Hill,51.71,122.47,70.31,142.88,335.66,Single-ply,SBD,M
Boys,51.71,2,Tyler Lacy,South Garland,51.17,106.59,61.23,142.88,310.71,Single-ply,SBD,M
Boys,51.71,3,Junior Chavez,Waxahachie,50.62,113.4,65.77,129.27,308.44,Single-ply,SBD,M
Boys,51.71,4,Jose Lopez,Kaufman,45.09,106.59,61.23,113.4,281.23,Single-ply,SBD,M
Boys,51.71,5,Bob Hernandez,Malakoff Cross Roads,50.71,102.06,61.23,102.06,265.35,Single-ply,SBD,M
Boys,51.71,6,Zion Jenkins,Tyler,51.35,90.72,61.23,90.72,242.67,Single-ply,SBD,M
Boys,51.71,7,Toney Illickal,Sunnyvale,49.08,88.45,43.09,95.25,226.8,Single-ply,SBD,M
Boys,55.79,1,Kevin Cottrell,South Garland,54.25,127.01,77.11,161.03,365.14,Single-ply,SBD,M
Boys,55.79,2,AJ Starks,Cedar Hill,53.98,145.15,70.31,142.88,358.34,Single-ply,SBD,M
Boys,55.79,3,Ivan Shepherd,Cedar Hill,54.25,124.74,72.57,145.15,342.46,Single-ply,SBD,M
Boys,55.79,4,Morgan Rhew,Sunnyvale,55.61,117.93,70.31,136.08,324.32,Single-ply,SBD,M
Boys,55.79,5,Dakotah McGowen,North Forney,52.44,117.93,58.97,127.01,303.91,Single-ply,SBD,M
Boys,55.79,6,Robert Solorzano,Greenville,54.88,127.01,58.97,113.4,299.37,Single-ply,SBD,M
Boys,59.87,1,Isaiah Payne,Crandall,59.69,192.78,92.99,215.46,501.22,Single-ply,SBD,M
Boys,59.87,2,Cristian Contreras,Greenville,58.97,170.1,104.33,149.69,424.11,Single-ply,SBD,M
Boys,59.87,3,Edgar Carerra,Ennis,58.33,161.03,90.72,161.03,412.77,Single-ply,SBD,M
Boys,59.87,4,Jemetric Allen,Greenville,58.42,161.03,92.99,158.76,412.77,Single-ply,SBD,M
Boys,59.87,5,Nick Henderson,Waxahachie,58.88,156.49,79.38,167.83,403.7,Single-ply,SBD,M
Boys,59.87,6,Romandrey Manning,South Garland,59.87,147.42,90.72,165.56,403.7,Single-ply,SBD,M
Boys,59.87,7,Tristian Castillo,Eustace,57.24,151.95,83.91,149.69,385.55,Single-ply,SBD,M
Boys,59.87,8,Josh Gorospe,Sunnyvale,57.61,140.61,74.84,167.83,383.29,Single-ply,SBD,M
Boys,59.87,9,Bailey Holden,North Forney,57.7,129.27,61.23,156.49,347,Single-ply,SBD,M
Boys,59.87,10,Larry Hampton,Winona,58.33,142.88,61.23,117.93,322.05,Single-ply,SBD,M
Boys,59.87,DQ,Austin Hunt,Royse City,58.6,113.4,,,,Single-ply,SBD,M
Boys,67.13,1,DyTaveion Hill,Ennis,66.59,179.17,106.59,210.92,496.68,Single-ply,SBD,M
Boys,67.13,2,Luke Elkins,Corsicana,63.96,201.85,111.13,181.44,494.42,Single-ply,SBD,M
Boys,67.13,3,Cody Bargerhuff,Greenville,66.41,201.85,95.25,197.31,494.42,Single-ply,SBD,M
Boys,67.13,4,Clay Conway,Mabank,65.68,190.51,97.52,170.1,458.13,Single-ply,SBD,M
Boys,67.13,5,E'Darion Williams,Cedar Hill,65.23,176.9,90.72,188.24,455.86,Single-ply,SBD,M
Boys,67.13,6,Carter Brigman,Waxahachie,65.41,154.22,120.2,174.63,449.06,Single-ply,SBD,M
Boys,67.13,7,Donovan Smith,Greenville,64.05,181.44,99.79,149.69,430.91,Single-ply,SBD,M
Boys,67.13,8,Michael Broyles,Canton,67.13,170.1,79.38,170.1,419.57,Single-ply,SBD,M
Boys,67.13,9,Brock Martin,Argyle,66.68,167.83,79.38,167.83,415.04,Single-ply,SBD,M
Boys,67.13,10,Tyler Johnson,Malakoff Cross Roads,66.95,147.42,92.99,174.63,415.04,Single-ply,SBD,M
Boys,67.13,11,Kelton Davis,South Garland,65.86,142.88,90.72,172.37,405.97,Single-ply,SBD,M
Boys,67.13,12,Joshua Hughes,Eustace,66.22,138.35,106.59,156.49,401.43,Single-ply,SBD,M
Boys,67.13,13,Dakota Gilley,Garland Rowlett,61.33,158.76,90.72,142.88,392.36,Single-ply,SBD,M
Boys,67.13,14,Jalen James,North Mesquite,67.13,124.74,77.11,183.7,385.55,Single-ply,SBD,M
Boys,67.13,15,Jason Hernandez,Malakoff Cross Roads,66.32,124.74,83.91,151.95,360.61,Single-ply,SBD,M
Boys,74.84,1,Justin Griffin,Eustace,73.12,219.99,133.81,213.19,566.99,Single-ply,SBD,M
Boys,74.84,2,Garrett David,Waxahachie,72.03,206.38,111.13,240.4,557.92,Single-ply,SBD,M
Boys,74.84,3,Brandon Jackson,Cedar Hill,67.86,204.12,138.35,210.92,553.38,Single-ply,SBD,M
Boys,74.84,4,Jacori Chandler,Corsicana,74.84,195.04,102.06,233.6,530.7,Single-ply,SBD,M
Boys,74.84,5,Kyle Oldham,Royse City,74.57,190.51,124.74,208.65,523.9,Single-ply,SBD,M
Boys,74.84,6,Matt Hargis,Rockwall-Heath,73.48,192.78,122.47,201.85,517.1,Single-ply,SBD,M
Boys,74.84,7,Austin Molina,Royse City,74.12,192.78,131.54,183.7,508.02,Single-ply,SBD,M
Boys,74.84,8,Quentin Parks,Eustace,74.12,188.24,117.93,192.78,498.95,Single-ply,SBD,M
Boys,74.84,9,Parker Taylor,Argyle,73.3,192.78,92.99,192.78,478.54,Single-ply,SBD,M
Boys,74.84,10,Nick Golden,Argyle,74.3,181.44,83.91,210.92,476.27,Single-ply,SBD,M
Boys,74.84,11,Ja'Rod Bedford,Cedar Hill,68.76,210.92,83.91,167.83,462.66,Single-ply,SBD,M
Boys,74.84,12,Clay Hinkle,Eustace,72.48,172.37,102.06,176.9,451.32,Single-ply,SBD,M
Boys,74.84,13,Tristen Martin,Rockwall-Heath,69.04,172.37,92.99,161.03,426.38,Single-ply,SBD,M
Boys,74.84,14,Jamil Wade,South Garland,68.95,147.42,95.25,179.17,421.84,Single-ply,SBD,M
Boys,74.84,15,Chris Robertson,North Mesquite,69.67,149.69,88.45,183.7,421.84,Single-ply,SBD,M
Boys,74.84,16,Hunter Grant,Ennis,72.94,163.29,68.04,149.69,381.02,Single-ply,SBD,M
Boys,74.84,17,Terry Richardson,Eustace,72.12,133.81,74.84,161.03,369.68,Single-ply,SBD,M
Boys,74.84,18,Ricky Deville,Canton,74.75,136.08,83.91,149.69,369.68,Single-ply,SBD,M
Boys,74.84,19,Cody Baker,Malakoff Cross Roads,72.39,106.59,79.38,156.49,342.46,Single-ply,SBD,M
Boys,74.84,20,Cody Hawkins,Canton,71.67,136.08,61.23,127.01,324.32,Single-ply,SBD,M
Boys,74.84,DQ,Bradley Shanks,Canton,73.66,204.12,,,,Single-ply,SBD,M
Boys,74.84,DQ,Hennon Cooper,Cedar Hill,68.86,,,,,Single-ply,SBD,M
Boys,74.84,DQ,Jagger Johnson,Forney,71.03,,,,,Single-ply,SBD,M
Boys,74.84,DQ,Dylan Worsham,Maypearl,74.75,136.08,,,,Single-ply,SBD,M
Boys,74.84,DQ,Hunter McNutt,Winona,69.58,117.93,,,,Single-ply,SBD,M
Boys,82.1,1,Keenan Hargest,Eustace,79.38,215.46,129.27,235.87,580.6,Single-ply,SBD,M
Boys,82.1,2,Gavin Pringle,Waxahachie,78.47,224.53,127.01,226.8,578.33,Single-ply,SBD,M
Boys,82.1,3,Calvin Ribera,North Forney,77.75,208.65,99.79,226.8,535.24,Single-ply,SBD,M
Boys,82.1,4,Garret Pringle,Waxahachie,75.75,201.85,122.47,208.65,532.97,Single-ply,SBD,M
Boys,82.1,5,Cody Coldwell,Sunnyvale,77.29,226.8,124.74,181.44,532.97,Single-ply,SBD,M
Boys,82.1,6,Caleb Scott,Cedar Hill,81.65,210.92,108.86,195.04,514.83,Single-ply,SBD,M
Boys,82.1,7,Kam Petterson,Duncanville,81.47,183.7,117.93,210.92,512.56,Single-ply,SBD,M
Boys,82.1,8,Jalan Mclin,Duncanville,78.2,188.24,95.25,204.12,487.61,Single-ply,SBD,M
Boys,82.1,9,Azaveshe Daniyan,North Mesquite,78.74,183.7,99.79,204.12,487.61,Single-ply,SBD,M
Boys,82.1,10,Avery Lewis,Mesquite Poteet,79.83,185.97,106.59,190.51,483.08,Single-ply,SBD,M
Boys,82.1,11,Darian Hartman,Waxahachie,76.84,161.03,115.67,204.12,480.81,Single-ply,SBD,M
Boys,82.1,13,Jacob Profitt,Mabank,81.37,183.7,83.91,190.51,458.13,Single-ply,SBD,M
Boys,82.1,14,Angel Hernandez,Greenville,79.02,174.63,102.06,172.37,449.06,Single-ply,SBD,M
Boys,82.1,15,Bradlly Brown,Canton,81.01,158.76,88.45,192.78,439.98,Single-ply,SBD,M
Boys,82.1,16,Kenny Frechette,Garland Rowlett,77.2,167.83,86.18,181.44,435.45,Single-ply,SBD,M
Boys,82.1,17,Mabe Jonathan,Garland Rowlett,77.56,158.76,86.18,190.51,435.45,Single-ply,SBD,M
Boys,82.1,18,Isaac Baldivia,Eustace,80.65,154.22,83.91,158.76,396.89,Single-ply,SBD,M
Boys,82.1,19,Carlos Rivera,South Garland,81.01,142.88,65.77,183.7,392.36,Single-ply,SBD,M
Boys,82.1,20,Brendan Norwood,Royse City,81.83,124.74,77.11,149.69,351.53,Single-ply,SBD,M
Boys,82.1,DQ,Jose Pena,Greenville,79.74,199.58,97.52,,,Single-ply,SBD,M
Boys,82.1,DQ,Joel Ennin,Sunnyvale,79.38,190.51,102.06,,,Single-ply,SBD,M
Boys,82.1,DQ,Tyler Ribera,North Forney,75.75,,,,,Single-ply,SBD,M
Boys,89.81,1,Stacy Sublett,North Mesquite,86.45,263.08,122.47,249.48,635.03,Single-ply,SBD,M
Boys,89.81,2,Dakota Carpenter,Argyle,88.18,224.53,138.35,240.4,603.28,Single-ply,SBD,M
Boys,89.81,3,Cory Wilkerson,Rockwall-Heath,88.99,226.8,149.69,195.04,571.53,Single-ply,SBD,M
Boys,89.81,4,Xavier Hughey,Crandall,85.18,229.06,122.47,208.65,560.19,Single-ply,SBD,M
Boys,89.81,5,Matt Siggers,Duncanville,85.55,204.12,124.74,229.06,557.92,Single-ply,SBD,M
Boys,89.81,6,Guillermo Vasquez,Greenville,84.19,244.94,113.4,192.78,551.11,Single-ply,SBD,M
Boys,89.81,7,Cisneros Cvaleb,Garland Rowlett,88.99,208.65,131.54,204.12,544.31,Single-ply,SBD,M
Boys,89.81,8,Daiston Keeton,Tyler,88.81,213.19,120.2,204.12,537.51,Single-ply,SBD,M
Boys,89.81,10,D Elder,Duncanville,89.36,195.04,113.4,215.46,523.9,Single-ply,SBD,M
Boys,89.81,11,Michael Schultz,Eustace,88.9,188.24,115.67,192.78,496.68,Single-ply,SBD,M
Boys,89.81,12,Cole Anthony,Forney,82.19,172.37,120.2,181.44,474,Single-ply,SBD,M
Boys,89.81,12,Jhovvany SanJuan,Kaufman,83.64,185.97,106.59,190.51,483.08,Single-ply,SBD,M
Boys,89.81,13,Tre Jordan,Mesquite Poteet,83.55,183.7,95.25,195.04,474,Single-ply,SBD,M
Boys,89.81,14,Kenneth Whitfield,North Mesquite,85.91,179.17,104.33,183.7,467.2,Single-ply,SBD,M
Boys,89.81,15,Jordan Patterson,North Mesquite,87,170.1,102.06,183.7,455.86,Single-ply,SBD,M
Boys,89.81,16,MarQualeon Ruth,Mesquite Poteet,89.45,174.63,102.06,179.17,455.86,Single-ply,SBD,M
Boys,89.81,17,Kenneth Randall,Kaufman,86.18,163.29,79.38,195.04,437.72,Single-ply,SBD,M
Boys,89.81,18,Xavier Robertson,Eustace,86.36,147.42,106.59,165.56,419.57,Single-ply,SBD,M
Boys,89.81,19,Byron Law,Mesquite Poteet,84.82,147.42,95.25,174.63,417.3,Single-ply,SBD,M
Boys,89.81,20,Kadon Farmer,Eustace,87.27,138.35,92.99,142.88,374.21,Single-ply,SBD,M
Boys,89.81,21,Tyler Hudson,North Forney,83.73,133.81,79.38,149.69,362.87,Single-ply,SBD,M
Boys,89.81,22,Garrett Griffin,Eustace,86.91,151.95,79.38,131.54,362.87,Single-ply,SBD,M
Boys,89.81,23,Nathan Shirley,Royse City,83.82,115.67,70.31,113.4,299.37,Single-ply,SBD,M
Boys,89.81,DQ,Christian Hoover,Forney,89.54,,,,,Single-ply,SBD,M
Boys,99.79,1,Caranedal Hale,Greenville,90.26,290.3,156.49,260.82,707.6,Single-ply,SBD,M
Boys,99.79,2,Nick Stewart,Waxahachie,95.8,265.35,163.29,244.94,673.58,Single-ply,SBD,M
Boys,99.79,3,Caleb High,Waxahachie,96.8,272.16,156.49,242.67,671.32,Single-ply,SBD,M
Boys,99.79,4,Wilfredo Valladares,Tyler,99.61,272.16,156.49,226.8,655.44,Single-ply,SBD,M
Boys,99.79,5,TJ Williams,South Garland,98.25,183.7,138.35,215.46,537.51,Single-ply,SBD,M
Boys,99.79,6,David Partida,Rockwall-Heath,99.61,197.31,129.27,204.12,530.7,Single-ply,SBD,M
Boys,99.79,7,Drew Coleman,Forney,99.79,195.04,108.86,195.04,498.95,Single-ply,SBD,M
Boys,99.79,8,Aron Magallanez,Garland Rowlett,96.89,199.58,99.79,183.7,483.08,Single-ply,SBD,M
Boys,99.79,9,Justin Disotell,Malakoff Cross Roads,97.07,183.7,106.59,192.78,483.08,Single-ply,SBD,M
Boys,99.79,9,Matt Castle,Argyle,89.99,206.38,120.2,199.58,526.17,Single-ply,SBD,M
Boys,99.79,10,Jamarion Brightmon,North Mesquite,95.44,195.04,108.86,174.63,478.54,Single-ply,SBD,M
Boys,99.79,11,Devon Lamp,Cedar Hill,96.62,195.04,102.06,181.44,478.54,Single-ply,SBD,M
Boys,99.79,12,Rico Simon,Greenville,93.98,199.58,95.25,181.44,476.27,Single-ply,SBD,M
Boys,99.79,13,Blake Thomas,Duncanville,91.53,147.42,95.25,195.04,437.72,Single-ply,SBD,M
Boys,99.79,14,Bryan Sifers,Malakoff Cross Roads,90.99,142.88,102.06,170.1,415.04,Single-ply,SBD,M
Boys,99.79,15,Gabriel Suniga,Forney,99.79,138.35,72.57,149.69,360.61,Single-ply,SBD,M
Boys,99.79,16,Alex Harder,Canton,92.26,138.35,88.45,124.74,351.53,Single-ply,SBD,M
Boys,99.79,DQ,Caleb Johnson,Corsicana,92.53,,,,,Single-ply,SBD,M
Boys,99.79,DQ,Brendan Barker,Garland Rowlett,97.61,,,,,Single-ply,SBD,M
Boys,99.79,DQ,Brendyn Hodges,Duncanville,92.44,199.58,,,,Single-ply,SBD,M
Boys,99.79,DQ,Lagene Brooks,North Mesquite,97.89,165.56,95.25,,,Single-ply,SBD,M
Boys,99.79,DQ,Tim Vickery,Royse City,92.9,124.74,,,,Single-ply,SBD,M
Boys,99.79,DQ,Mitchell Henderson,South Garland,94.8,176.9,,,,Single-ply,SBD,M
Boys,109.77,1,Anthoney Perez,Waxahachie,102.51,229.06,163.29,235.87,628.23,Single-ply,SBD,M
Boys,109.77,2,Amir Sa'id,Cedar Hill,106.96,240.4,131.54,240.4,612.35,Single-ply,SBD,M
Boys,109.77,3,JJ McWilliams,Duncanville,106.87,210.92,117.93,238.14,566.99,Single-ply,SBD,M
Boys,109.77,4,JP Sales,Sunnyvale,106.59,229.06,106.59,226.8,562.45,Single-ply,SBD,M
Boys,109.77,5,Stephen Turner,North Mesquite,104.51,195.04,115.67,235.87,546.58,Single-ply,SBD,M
Boys,109.77,6,Samuel Menese,Tyler,108.23,226.8,115.67,199.58,542.04,Single-ply,SBD,M
Boys,109.77,7,Marcus Mosley,Duncanville,100.88,195.04,117.93,226.8,539.77,Single-ply,SBD,M
Boys,109.77,8,Corey Mullican,Kaufman,108.59,226.8,97.52,210.92,535.24,Single-ply,SBD,M
Boys,109.77,9,Noah Ingram,Mesquite Poteet,102.97,190.51,117.93,210.92,519.36,Single-ply,SBD,M
Boys,109.77,10,Chad Gardner,Rockwall-Heath,108.5,197.31,117.93,199.58,514.83,Single-ply,SBD,M
Boys,109.77,11,Brent Walker,Mesquite Poteet,108.95,176.9,124.74,210.92,512.56,Single-ply,SBD,M
Boys,109.77,12,Seth White,Corsicana,101.97,215.46,113.4,179.17,508.02,Single-ply,SBD,M
Boys,109.77,13,Errin Davis,North Mesquite,107.68,174.63,102.06,208.65,485.34,Single-ply,SBD,M
Boys,109.77,14,Willie Thomas,North Forney,107.68,181.44,113.4,174.63,469.47,Single-ply,SBD,M
Boys,109.77,15,Adam Friesen,North Forney,103.6,163.29,92.99,204.12,460.4,Single-ply,SBD,M
Boys,109.77,16,Chris Adams,Ennis,108.59,167.83,108.86,147.42,424.11,Single-ply,SBD,M
Boys,109.77,17,Brandon Villalpando,Kaufman,108.05,165.56,81.65,165.56,412.77,Single-ply,SBD,M
Boys,109.77,18,Dalton Pope,Canton,104.6,122.47,77.11,113.4,312.98,Single-ply,SBD,M
Boys,124.74,1,Adam Dyer,Argyle,121.2,260.82,129.27,251.74,641.83,Single-ply,SBD,M
Boys,124.74,2,Glen Waters,Cedar Hill,116.21,235.87,140.61,240.4,616.89,Single-ply,SBD,M
Boys,124.74,3,Dillon Hunsaker,Eustace,109.95,229.06,151.95,210.92,591.94,Single-ply,SBD,M
Boys,124.74,4,Ernesto Lopez,Greenville,121.93,247.21,131.54,206.38,585.13,Single-ply,SBD,M
Boys,124.74,5,Devin Beamon,North Forney,124.74,244.94,124.74,208.65,578.33,Single-ply,SBD,M
Boys,124.74,6,Noel Rojo,Mabank,117.3,238.14,124.74,208.65,571.53,Single-ply,SBD,M
Boys,124.74,7,Blake Culver,Garland Rowlett,122.11,238.14,142.88,183.7,564.72,Single-ply,SBD,M
Boys,124.74,8,Justin Smith #8,Duncanville,121.29,204.12,127.01,229.06,560.19,Single-ply,SBD,M
Boys,124.74,9,DeAunte Thomas,Corsicana,112.13,226.8,124.74,199.58,551.11,Single-ply,SBD,M
Boys,124.74,10,Marcus Staggs,Eustace,118.48,213.19,111.13,206.38,530.7,Single-ply,SBD,M
Boys,124.74,11,Bryce Hege,Argyle,114.21,204.12,108.86,199.58,512.56,Single-ply,SBD,M
Boys,124.74,12,Alex Cash,Winona,124.47,204.12,127.01,181.44,512.56,Single-ply,SBD,M
Boys,124.74,13,Jaden Webb,Royse City,113.58,183.7,108.86,204.12,496.68,Single-ply,SBD,M
Boys,124.74,14,John Deville,Mesquite Poteet,115.39,188.24,104.33,197.31,489.88,Single-ply,SBD,M
Boys,124.74,15,Drew Nunn,Canton,113.04,170.1,70.31,170.1,410.5,Single-ply,SBD,M
Boys,124.74,16,Dillon Jurcik,Ennis,119.57,154.22,104.33,149.69,408.23,Single-ply,SBD,M
Boys,124.74,17,John Taylor,North Forney,111.77,158.76,83.91,156.49,399.16,Single-ply,SBD,M
Boys,124.74,DQ,TreJon Blake,Tyler,118.75,251.74,124.74,,,Single-ply,SBD,M
Boys,124.74,DQ,Cody Lambert,Forney,121.93,,,,,Single-ply,SBD,M
Boys,124.74,DQ,Dakota Smith,Canton,122.56,195.04,,,,Single-ply,SBD,M
Boys,124.74,DQ,Jaylon Hutchins,Forney,111.13,,,,,Single-ply,SBD,M
Boys,124.74+,1,Wade Cookston,Sunnyvale,140.52,317.51,204.12,274.42,796.05,Single-ply,SBD,M
Boys,124.74+,2,Dre Alex,Greenville,150.14,290.3,197.31,199.58,687.19,Single-ply,SBD,M
Boys,124.74+,3,Alfredo Cervantes,Royse City,145.51,254.01,165.56,242.67,662.24,Single-ply,SBD,M
Boys,124.74+,4,Devin Collins,Ennis,143.79,258.55,133.81,247.21,639.57,Single-ply,SBD,M
Boys,124.74+,5,Laz Garcia,South Garland,136.98,242.67,138.35,260.82,641.83,Single-ply,SBD,M
Boys,124.74+,6,Jiovanny Rubio,Sunnyvale,137.44,238.14,136.08,231.33,605.55,Single-ply,SBD,M
Boys,124.74+,7,Parker Cupp,Cedar Hill,127.28,249.48,138.35,213.19,601.01,Single-ply,SBD,M
Boys,124.74+,8,Michael Marshall,Eustace,136.08,229.06,127.01,238.14,594.21,Single-ply,SBD,M
Boys,124.74+,9,Terrance Newman,Duncanville,129.09,222.26,129.27,219.99,571.53,Single-ply,SBD,M
Boys,124.74+,10,Manuel Saavedra,Greenville,149.96,249.48,124.74,188.24,562.45,Single-ply,SBD,M
Boys,124.74+,11,Deonta Martin,Corsicana,135.99,217.72,131.54,210.92,560.19,Single-ply,SBD,M
Boys,124.74+,12,Caleb Carlile,Waxahachie,135.71,215.46,131.54,195.04,542.04,Single-ply,SBD,M
Boys,124.74+,13,Dwight Taylor,Duncanville,128.55,204.12,142.88,192.78,539.77,Single-ply,SBD,M
Boys,124.74+,14,Jacob Vasquez,Mesquite Poteet,158.21,199.58,117.93,222.26,539.77,Single-ply,SBD,M
Boys,124.74+,15,Vicotr Buenrostro,Mesquite Poteet,132,206.38,113.4,210.92,530.7,Single-ply,SBD,M
Boys,124.74+,16,Preston Burke,Sunnyvale,133.08,199.58,122.47,204.12,526.17,Single-ply,SBD,M
Boys,124.74+,17,Ray Yates,North Forney,131.36,226.8,106.59,190.51,523.9,Single-ply,SBD,M
Boys,124.74+,18,Logan DeGarso,Greenville,132.09,204.12,129.27,185.97,519.36,Single-ply,SBD,M
Boys,124.74+,19,Cameron Rogers,North Forney,146.15,192.78,106.59,195.04,494.42,Single-ply,SBD,M
Boys,124.74+,20,Kage Hendrix,Ennis,135.71,192.78,115.67,181.44,489.88,Single-ply,SBD,M
Boys,124.74+,21,Daniel Farris,South Garland,129.91,158.76,92.99,170.1,421.84,Single-ply,SBD,M
Boys,124.74+,DQ,Austin Frye,Royse City,146.24,208.65,147.42,,,Single-ply,SBD,M
Boys,124.74+,DQ,Trendon Rolen,Ennis,159.3,,,,,Single-ply,SBD,M
Boys,124.74+,DQ,Kolby Harris,Tyler,153.95,276.69,,,,Single-ply,SBD,M
Boys,124.74+,DQ,Ty Nick,Winona,127.46,,,,,Single-ply,SBD,M
