Division,WeightClassKg,Place,Name,Team,BodyweightKg,Best3SquatKg,Best3BenchKg,Best3DeadliftKg,TotalKg,Equipment,Event,Sex
Varsity,51.71,1,Kevin Angus,Port Neches-Groves,50.12,124.74,72.57,131.54,328.85,Single-ply,SBD,M
Varsity,55.79,1,Hunter Stout,Bridge City,54.88,124.74,74.84,111.13,310.71,Single-ply,SBD,M
Varsity,55.79,2,Michael Miller,Deweyville,53.52,88.45,68.04,104.33,260.82,Single-ply,SBD,M
Varsity,55.79,3,Blake Smith,Nederland,53.07,92.99,45.36,115.67,254.01,Single-ply,SBD,M
Varsity,55.79,DQ,David Bolinger,Vidor,52.16,133.81,,,,Single-ply,SBD,M
Varsity,59.87,1,Jerry Nguyen,Bridge City,59.87,158.76,88.45,170.1,417.3,Single-ply,SBD,M
Varsity,59.87,2,Kingsley Harris,Beaumont Monsignor Kelly,58.74,136.08,106.59,158.76,401.43,Single-ply,SBD,M
Varsity,59.87,3,Troy Soileau,Lumberton,59.19,147.42,83.91,151.95,383.29,Single-ply,SBD,M
Varsity,59.87,4,Delis Chalambaga,Deweyville,57.61,122.47,79.38,102.06,303.91,Single-ply,SBD,M
Varsity,59.87,5,Kevin Robinson,Beaumont Central,57.61,90.72,65.77,142.88,299.37,Single-ply,SBD,M
Varsity,59.87,DQ,Micheaux,Beaumont Ozen,56.47,,,,,Single-ply,SBD,M
Varsity,67.13,1,Austin Powell,Vidor,65.77,158.76,90.72,167.83,417.3,Single-ply,SBD,M
Varsity,67.13,2,Bret Chamblee,Nederland,64.86,149.69,92.99,170.1,412.77,Single-ply,SBD,M
Varsity,67.13,3,Matt Thomas,Vidor,66.22,154.22,104.33,136.08,394.63,Single-ply,SBD,M
Varsity,67.13,4,Matt Gerald,Port Neches-Groves,66.9,145.15,92.99,138.35,376.48,Single-ply,SBD,M
Varsity,67.13,5,D Colone,Beaumont Ozen,61.92,117.93,81.65,170.1,369.68,Single-ply,SBD,M
Varsity,67.13,6,Micheal Godeaux,Vidor,67.13,156.49,92.99,113.4,362.87,Single-ply,SBD,M
Varsity,67.13,7,Stephen Balsano,Bridge City,65.77,129.27,74.84,142.88,347,Single-ply,SBD,M
Varsity,67.13,8,Quincy Honeycutt,Lumberton,63.5,99.79,92.99,136.08,328.85,Single-ply,SBD,M
Varsity,67.13,9,J. Collins,Beaumont Ozen,64.64,122.47,74.84,127.01,324.32,Single-ply,SBD,M
Varsity,67.13,DQ,Brock Belanger,Deweyville,67.13,,,,,Single-ply,SBD,M
Varsity,67.13,DQ,Nick Grossman,Lumberton,64.64,113.4,77.11,,,Single-ply,SBD,M
Varsity,67.13,DQ,Brandon Taylor,Sour Lake Hardin-Jefferson,67.13,142.88,,,,Single-ply,SBD,M
Varsity,74.84,1,Robert Johnson,Nederland,74.84,260.82,136.08,256.28,653.17,Single-ply,SBD,M
Varsity,74.84,2,Austin Simmons,Hamshire-Fannett,67.81,188.24,127.01,181.44,496.68,Single-ply,SBD,M
Varsity,74.84,3,Kody Powell,Vidor,72.57,174.63,113.4,190.51,478.54,Single-ply,SBD,M
Varsity,74.84,4,Dylan Harvey,Beaumont West Brook,73.48,188.24,111.13,158.76,458.13,Single-ply,SBD,M
Varsity,74.84,5,Nicholas Green,Bridge City,73.48,165.56,106.59,142.88,415.04,Single-ply,SBD,M
Varsity,74.84,6,Christian Andrews,Beaumont Ozen,74.16,142.88,113.4,158.76,415.04,Single-ply,SBD,M
Varsity,74.84,7,Hugo Ceja,Port Neches-Groves,67.59,151.95,90.72,158.76,401.43,Single-ply,SBD,M
Varsity,74.84,8,Cameron Ainsworth,Sour Lake Hardin-Jefferson,72.12,165.56,88.45,147.42,401.43,Single-ply,SBD,M
Varsity,74.84,DQ,Dalton Horn,Sour Lake Hardin-Jefferson,73.48,147.42,,,,Single-ply,SBD,M
Varsity,74.84,DQ,Trey Perrett,Sour Lake Hardin-Jefferson,68.04,149.69,74.84,,,Single-ply,SBD,M
Varsity,74.84,DQ,Antonio Arvie,Port Neches-Groves,71.21,,,,,Single-ply,SBD,M
Varsity,74.84,DQ,Wise,Port Arthur Memorial,69.63,,,,,Single-ply,SBD,M
Varsity,74.84,DQ,Lemell,Beaumont Ozen,73.48,,,,,Single-ply,SBD,M
Varsity,74.84,DQ,Jaylan Guillory,Beaumont Central,70.76,77.11,,,,Single-ply,SBD,M
Varsity,74.84,DQ,Jacob Ashworth,Deweyville,72.12,129.27,,,,Single-ply,SBD,M
Varsity,74.84,DQ,James,Port Arthur Memorial,71.67,,,,,Single-ply,SBD,M
Varsity,82.1,1,Colton Carter,Nederland,80.74,222.26,124.74,213.19,560.19,Single-ply,SBD,M
Varsity,82.1,2,Ryan Asher,Lumberton,79.83,195.04,136.08,226.8,557.92,Single-ply,SBD,M
Varsity,82.1,3,Josh Wilson,Beaumont West Brook,79.83,231.33,117.93,206.38,555.65,Single-ply,SBD,M
Varsity,82.1,4,Bruce Reyes,Beaumont West Brook,79.83,215.46,108.86,195.04,519.36,Single-ply,SBD,M
Varsity,82.1,5,Hunter Woolls,Bridge City,81.65,195.04,117.93,181.44,494.42,Single-ply,SBD,M
Varsity,82.1,6,Tim Mitchell,Sour Lake Hardin-Jefferson,82.1,165.56,95.25,163.29,424.11,Single-ply,SBD,M
Varsity,82.1,7,Ryan St Clair,Port Neches-Groves,78.02,176.9,92.99,151.95,421.84,Single-ply,SBD,M
Varsity,82.1,8,D J Schexnider,Port Neches-Groves,82.1,158.76,102.06,158.76,419.57,Single-ply,SBD,M
Varsity,89.81,9,Jeremiah Johnson,Vidor,82.33,127.01,74.84,124.74,326.59,Single-ply,SBD,M
Varsity,82.1,DQ,Jon Smith,Vidor,75.75,,,,,Single-ply,SBD,M
Varsity,82.1,DQ,Jerry Dinh,Beaumont Central,81.65,,,,,Single-ply,SBD,M
Varsity,82.1,DQ,Michael Lazara,Beaumont Central,78.7,,,,,Single-ply,SBD,M
Varsity,89.81,1,Trevin Sechler,Sour Lake Hardin-Jefferson,86.18,192.78,113.4,222.26,528.44,Single-ply,SBD,M
Varsity,89.81,2,Roy Allen,Beaumont West Brook,87.77,213.19,113.4,199.58,526.17,Single-ply,SBD,M
Varsity,89.81,3,Adam Prosperie,Bridge City,89.36,174.63,124.74,188.24,487.61,Single-ply,SBD,M
Varsity,89.81,4,Farron Beard,Vidor,82.78,192.78,117.93,151.95,462.66,Single-ply,SBD,M
Varsity,89.81,5,Anthony Breed,Beaumont Ozen,84.59,167.83,104.33,185.97,458.13,Single-ply,SBD,M
Varsity,89.81,6,Ryan Smith,Vidor,88.68,174.63,124.74,158.76,458.13,Single-ply,SBD,M
Varsity,89.81,7,Lancy Louviere,Port Neches-Groves,84.82,179.17,106.59,167.83,453.59,Single-ply,SBD,M
Varsity,89.81,8,T. Murray,Beaumont Ozen,85.28,142.88,117.93,172.37,433.18,Single-ply,SBD,M
Varsity,89.81,9,Kennerson,Port Arthur Memorial,85.73,158.76,95.25,167.83,421.84,Single-ply,SBD,M
Varsity,99.79,10,Richard Pastorella,Nederland,90.04,151.95,95.25,158.76,405.97,Single-ply,SBD,M
Varsity,89.81,11,Jared Guidry,Deweyville,82.55,136.08,95.25,158.76,390.09,Single-ply,SBD,M
Varsity,89.81,DQ,Oshea Kenebrew,Beaumont Central,89.81,165.56,,,,Single-ply,SBD,M
Varsity,89.81,DQ,Ryan Runnels,Vidor,88,219.99,,,,Single-ply,SBD,M
Varsity,99.79,1,Dequane Bennett,Beaumont West Brook,97.52,281.23,145.15,272.16,698.53,Single-ply,SBD,M
Varsity,99.79,2,Shane Stankus,Bridge City,94.35,247.21,147.42,247.21,641.83,Single-ply,SBD,M
Varsity,99.79,3,Melvin Andderton,Beaumont Monsignor Kelly,92.99,208.65,115.67,215.46,539.77,Single-ply,SBD,M
Varsity,99.79,4,Jonny Gay,Port Neches-Groves,90.49,233.6,102.06,165.56,501.22,Single-ply,SBD,M
Varsity,99.79,5,Lorence Richard,Hamshire-Fannett,94.8,199.58,111.13,179.17,489.88,Single-ply,SBD,M
Varsity,99.79,6,Terchan Newman,Beaumont West Brook,92.31,185.97,111.13,174.63,471.74,Single-ply,SBD,M
Varsity,99.79,7,Shane Wilson,Bridge City,97.07,181.44,111.13,170.1,462.66,Single-ply,SBD,M
Varsity,99.79,8,Cody Robinson,Lumberton,97.07,158.76,97.52,181.44,437.72,Single-ply,SBD,M
Varsity,99.79,9,Dean Whitfield,Deweyville,90.72,158.76,90.72,158.76,408.23,Single-ply,SBD,M
Varsity,99.79,10,Brent Crooks,Bridge City,90.26,142.88,97.52,156.49,396.89,Single-ply,SBD,M
Varsity,99.79,11,Lane,Sour Lake Hardin-Jefferson,92.08,161.03,74.84,142.88,378.75,Single-ply,SBD,M
Varsity,99.79,12,William Coffman,Lumberton,96.16,102.06,72.57,142.88,317.51,Single-ply,SBD,M
Varsity,99.79,13,Lassaint,Beaumont Ozen,95.03,117.93,79.38,117.93,315.25,Single-ply,SBD,M
Varsity,99.79,DQ,Alan Harris,Beaumont Central,97.75,192.78,,,,Single-ply,SBD,M
Varsity,99.79,DQ,Mike Holm,Hamshire-Fannett,96.84,174.63,106.59,,,Single-ply,SBD,M
Varsity,99.79,DQ,T. Lewis,Port Arthur Memorial,93.89,,,,,Single-ply,SBD,M
Varsity,99.79,DQ,A. Wilson #2,Port Arthur Memorial,97.07,,,,,Single-ply,SBD,M
Varsity,99.79,DQ,Chris Brown,Sour Lake Hardin-Jefferson,99.11,165.56,,,,Single-ply,SBD,M
Varsity,109.77,1,Thomas Luce,Bridge City,109.77,276.69,142.88,215.46,635.03,Single-ply,SBD,M
Varsity,109.77,2,Isaac Anderson,Beaumont Monsignor Kelly,102.51,233.6,151.95,226.8,612.35,Single-ply,SBD,M
Varsity,109.77,3,Matt Douglas,Beaumont West Brook,101.6,226.8,156.49,188.24,571.53,Single-ply,SBD,M
Varsity,109.77,4,Cody Hill,Vidor,100.24,219.99,136.08,192.78,548.85,Single-ply,SBD,M
Varsity,109.77,5,Ryan Fontenot,Beaumont West Brook,107.05,183.7,113.4,174.63,471.74,Single-ply,SBD,M
Varsity,109.77,6,Kyle Holmes,Beaumont Central,101.15,161.03,102.06,195.04,458.13,Single-ply,SBD,M
Varsity,109.77,7,Colby Castillo,Lumberton,102.97,145.15,106.59,136.08,387.82,Single-ply,SBD,M
Varsity,109.77,DQ,Sean Sparks,Lumberton,102.97,199.58,,,,Single-ply,SBD,M
Varsity,109.77,DQ,Vincent Whittington,Beaumont West Brook,103.42,226.8,,,,Single-ply,SBD,M
Varsity,109.77,DQ,Davis,Port Arthur Memorial,101.6,149.69,,,,Single-ply,SBD,M
Varsity,124.74,1,Taylor Thompson,Port Neches-Groves,114.31,283.5,165.56,229.06,678.12,Single-ply,SBD,M
Varsity,124.74,2,Aaron Easley,Port Neches-Groves,111.13,249.48,124.74,213.19,587.4,Single-ply,SBD,M
Varsity,124.74,3,Austin Dial,Nederland,124.74,192.78,156.49,195.04,544.31,Single-ply,SBD,M
Varsity,124.74,4,Patrick Braud,Port Neches-Groves,117.03,217.72,120.2,183.7,521.63,Single-ply,SBD,M
Varsity,124.74,5,Josh Byrd,Nederland,120.66,188.24,131.54,174.63,494.42,Single-ply,SBD,M
Varsity,124.74,6,Griffin,Port Arthur Memorial,118.39,151.95,111.13,179.17,442.25,Single-ply,SBD,M
Varsity,124.74,7,Andy Beaumont,Bridge City,119.75,142.88,115.67,142.88,401.43,Single-ply,SBD,M
Varsity,124.74,DQ,Aaron Taylor,Nederland,113.4,,,,,Single-ply,SBD,M
Varsity,124.74+,1,Kenneth White,Beaumont Ozen,134.26,226.8,154.22,201.85,582.87,Single-ply,SBD,M
Varsity,124.74+,2,Justin Lummus,Deweyville,138.8,192.78,154.22,199.58,546.58,Single-ply,SBD,M
Varsity,124.74+,3,Daniel Jones,Beaumont Central,125.65,181.44,113.4,204.12,498.95,Single-ply,SBD,M
Varsity,124.74+,4,N. Edwards,Beaumont Ozen,162.84,190.51,104.33,199.58,494.42,Single-ply,SBD,M
Varsity,124.74+,5,Trey Walker,Beaumont Ozen,171.91,185.97,99.79,204.12,489.88,Single-ply,SBD,M
Varsity,124.74+,6,Lucas Mackan,Beaumont West Brook,136.98,185.97,104.33,192.78,483.08,Single-ply,SBD,M
Varsity,124.74+,7,Josh Balka,Beaumont West Brook,136.08,185.97,102.06,163.29,451.32,Single-ply,SBD,M
Varsity,124.74+,8,B Dennis,Port Arthur Memorial,132.45,151.95,124.74,167.83,444.52,Single-ply,SBD,M
Junior Varsity,51.71,1,Adel Jebakji,Port Neches-Groves,50.12,95.25,65.77,131.54,292.57,Single-ply,SBD,M
Junior Varsity,51.71,2,Austin Leger,Lumberton,50.58,102.06,56.7,113.4,272.16,Single-ply,SBD,M
Junior Varsity,51.71,3,Bryant Carruth,Lumberton,48.99,72.57,56.7,111.13,240.4,Single-ply,SBD,M
Junior Varsity,51.71,4,Gary Metts,Nederland,50.58,61.23,45.36,95.25,201.85,Single-ply,SBD,M
Junior Varsity,51.71,5,Cameron Uresti,Nederland,46.27,63.5,31.75,72.57,167.83,Single-ply,SBD,M
Junior Varsity,55.79,1,Travis Mccoy,Port Neches-Groves,52.62,92.99,65.77,115.67,274.42,Single-ply,SBD,M
Junior Varsity,55.79,2,Keaton Baker,Lumberton,53.98,81.65,54.43,102.06,238.14,Single-ply,SBD,M
Junior Varsity,55.79,3,Steven Reddea,Lumberton,55.34,74.84,52.16,79.38,206.38,Single-ply,SBD,M
Junior Varsity,59.87,1,Sean Longmire,Bridge City,58.97,106.59,65.77,127.01,299.37,Single-ply,SBD,M
Junior Varsity,67.13,2,James Pierce,Nederland,60.1,90.72,61.23,127.01,278.96,Single-ply,SBD,M
Junior Varsity,59.87,3,Tyler Spell,Nederland,58.74,83.91,63.5,90.72,238.14,Single-ply,SBD,M
Junior Varsity,59.87,DQ,Daniel Sparrow,Port Neches-Groves,58.97,124.74,,,,Single-ply,SBD,M
Junior Varsity,67.13,1,Justin Sperl,Port Neches-Groves,66.22,147.42,77.11,136.08,360.61,Single-ply,SBD,M
Junior Varsity,67.13,2,Parker Hammond,Port Neches-Groves,67.13,138.35,83.91,138.35,360.61,Single-ply,SBD,M
Junior Varsity,67.13,3,Matt Swain,Nederland,64.86,120.2,68.04,115.67,303.91,Single-ply,SBD,M
Junior Varsity,67.13,4,Somner Ogrydziak,Nederland,63.5,90.72,72.57,117.93,281.23,Single-ply,SBD,M
Junior Varsity,74.84,5,Dimitri Stamatis,Nederland,67.36,104.33,68.04,108.86,281.23,Single-ply,SBD,M
Junior Varsity,74.84,6,Levi Hayes,Nederland,67.36,102.06,70.31,102.06,274.42,Single-ply,SBD,M
Junior Varsity,67.13,7,Noah Ogrydziak,Nederland,65.32,90.72,72.57,104.33,267.62,Single-ply,SBD,M
Junior Varsity,67.13,8,Chris Hagner,Nederland,62.6,90.72,49.9,90.72,231.33,Single-ply,SBD,M
Junior Varsity,67.13,DQ,K. Mitchell,Port Arthur Memorial,66,,,,,Single-ply,SBD,M
Junior Varsity,74.84,DQ,Xavier Mitchell,Beaumont Central,67.36,79.38,,,,Single-ply,SBD,M
Junior Varsity,67.13,DQ,Delmariyo Whitfield,Beaumont Central,65.09,,,,,Single-ply,SBD,M
Junior Varsity,67.13,DQ,Kenyon Vallier,Beaumont Central,66.9,106.59,,,,Single-ply,SBD,M
Junior Varsity,74.84,1,Blake Markland,Hamshire-Fannett,74.84,151.95,102.06,138.35,392.36,Single-ply,SBD,M
Junior Varsity,74.84,2,Blake Thibodeaux,Lumberton,71.21,124.74,83.91,117.93,326.59,Single-ply,SBD,M
Junior Varsity,74.84,3,Emanuel Carter,Beaumont Central,70.31,95.25,74.84,136.08,306.17,Single-ply,SBD,M
Junior Varsity,74.84,4,Easton Scott,Lumberton,70.08,108.86,63.5,111.13,283.5,Single-ply,SBD,M
Junior Varsity,74.84,5,Justin Rice,Nederland,72.57,117.93,49.9,108.86,276.69,Single-ply,SBD,M
Junior Varsity,74.84,6,Landen Malbrough,Beaumont Central,70.99,83.91,63.5,108.86,256.28,Single-ply,SBD,M
Junior Varsity,74.84,7,Trevor Willliams,Nederland,69.85,95.25,58.97,97.52,251.74,Single-ply,SBD,M
Junior Varsity,74.84,8,Connor Smith,Nederland,68.95,90.72,47.63,111.13,249.48,Single-ply,SBD,M
Junior Varsity,74.84,DQ,Earl Moneve,Beaumont Central,70.08,99.79,,,,Single-ply,SBD,M
Junior Varsity,74.84,DQ,Jenio Williams,Beaumont Central,67.59,,,,,Single-ply,SBD,M
Junior Varsity,74.84,DQ,Grant,Beaumont Ozen,73.26,102.06,,,,Single-ply,SBD,M
Junior Varsity,74.84,DQ,J. Hines,Port Arthur Memorial,70.08,,,,,Single-ply,SBD,M
Junior Varsity,82.1,1,David Grantham,Port Neches-Groves,75.75,183.7,102.06,183.7,469.47,Single-ply,SBD,M
Junior Varsity,82.1,2,Matt Desmond,Port Neches-Groves,78.02,165.56,99.79,163.29,428.64,Single-ply,SBD,M
Junior Varsity,82.1,3,Zach Cole,Bridge City,80.29,147.42,79.38,142.88,369.68,Single-ply,SBD,M
Junior Varsity,82.1,4,Chase Lisenby,Nederland,80.74,95.25,65.77,97.52,258.55,Single-ply,SBD,M
Junior Varsity,82.1,DQ,F Roberts,Port Arthur Memorial,81.65,142.88,79.38,,,Single-ply,SBD,M
Junior Varsity,82.1,DQ,D. Martin,Port Arthur Memorial,82.1,138.35,102.06,,,Single-ply,SBD,M
Junior Varsity,89.81,1,Austin Broussard,Bridge City,83.23,156.49,106.59,158.76,421.84,Single-ply,SBD,M
Junior Varsity,89.81,2,Edmund Horn,Lumberton,87.09,161.03,106.59,140.61,408.23,Single-ply,SBD,M
Junior Varsity,89.81,3,J Tyler,Port Arthur Memorial,88.45,136.08,83.91,174.63,394.63,Single-ply,SBD,M
Junior Varsity,99.79,4,Blake Trejo,Nederland,90.04,122.47,72.57,127.01,322.05,Single-ply,SBD,M
Junior Varsity,89.81,5,Jacob Frost,Nederland,88.45,117.93,56.7,142.88,317.51,Single-ply,SBD,M
Junior Varsity,89.81,DQ,T. Martin,Beaumont Ozen,84.59,,,,,Single-ply,SBD,M
Junior Varsity,99.79,1,Tyler Ballard,Bridge City,92.76,149.69,95.25,181.44,426.38,Single-ply,SBD,M
Junior Varsity,99.79,2,Christian Shetley,Port Neches-Groves,97.52,158.76,111.13,136.08,405.97,Single-ply,SBD,M
Junior Varsity,99.79,3,Kyle Fountain,Hamshire-Fannett,97.3,151.95,90.72,149.69,392.36,Single-ply,SBD,M
Junior Varsity,99.79,4,James McCowan,Beaumont Central,94.57,136.08,74.84,158.76,369.68,Single-ply,SBD,M
Junior Varsity,109.77,1,Troy Boudreaux,Port Neches-Groves,103.87,197.31,111.13,170.1,478.54,Single-ply,SBD,M
Junior Varsity,109.77,2,Taylor Coward,Lumberton,104.78,111.13,77.11,131.54,319.78,Single-ply,SBD,M
Junior Varsity,109.77,DQ,Zach Burkhalter,Lumberton,103.87,,,,,Single-ply,SBD,M
Junior Varsity,109.77,DQ,K Bill,Port Arthur Memorial,102.06,161.03,92.99,,,Single-ply,SBD,M
Junior Varsity,109.77,DQ,S. Brown,Port Arthur Memorial,102.51,,,,,Single-ply,SBD,M
Junior Varsity,124.74,1,Nick Bishop,Port Neches-Groves,113.85,215.46,124.74,192.78,532.97,Single-ply,SBD,M
Junior Varsity,124.74,2,Milo,Port Arthur Memorial,124.28,151.95,97.52,213.19,462.66,Single-ply,SBD,M
Junior Varsity,124.74,3,G. Smith,Port Arthur Memorial,120.66,179.17,97.52,183.7,460.4,Single-ply,SBD,M
Junior Varsity,124.74,4,Cj Brownlow,Lumberton,114.76,127.01,74.84,158.76,360.61,Single-ply,SBD,M
