Division,WeightClassKg,Place,Name,Team,BodyweightKg,Best3SquatKg,Best3BenchKg,Best3DeadliftKg,TotalKg,Equipment,Event,Sex
Girls,44.23,1,Alexis Herrera,Alice,42.18,140.61,63.5,113.4,317.51,Single-ply,SBD,F
Girls,44.23,2,Melissa Ocasio,Little Elm,43.27,108.86,61.23,122.47,292.57,Single-ply,SBD,F
Girls,44.23,3,Elizabeth Lazo,PSJA Southwest,43.54,117.93,49.9,122.47,290.3,Single-ply,SBD,F
Girls,44.23,4,Erika Diaz,La Joya Palmview,42.41,111.13,63.5,111.13,285.76,Single-ply,SBD,F
Girls,44.23,5,Leanne Le,Alvin Shadow Creek,44.23,106.59,45.36,131.54,283.5,Single-ply,SBD,F
Girls,44.23,6,Michelle Hernandez,Edcouch-Elsa,44,111.13,43.09,127.01,281.23,Single-ply,SBD,F
Girls,44.23,7,Courtney Edmonds,Wichita Falls Rider,43.05,106.59,49.9,122.47,278.96,Single-ply,SBD,F
Girls,44.23,8,Chloie Devillier,Jacksonville,44.04,115.67,49.9,108.86,274.42,Single-ply,SBD,F
Girls,44.23,9,Alex Villegas,Wylie East,42.68,99.79,52.16,120.2,272.16,Single-ply,SBD,F
Girls,44.23,10,Thay Blute,Port Lavaca Calhoun,43.86,113.4,54.43,104.33,272.16,Single-ply,SBD,F
Girls,44.23,11,Say Paw,Port Lavaca Calhoun,44.18,106.59,56.7,106.59,269.89,Single-ply,SBD,F
Girls,44.23,12,Alexia Zapata,PSJA Southwest,43.73,102.06,56.7,106.59,265.35,Single-ply,SBD,F
Girls,44.23,13,Dulce De La Cruz,Floresville,42.32,102.06,49.9,102.06,254.01,Single-ply,SBD,F
Girls,44.23,14,Roxanne Cantu,Donna,43.77,99.79,47.63,106.59,254.01,Single-ply,SBD,F
Girls,44.23,15,Elida Manriquez,Brownsville Lopez,42.73,97.52,52.16,102.06,251.74,Single-ply,SBD,F
Girls,44.23,16,Lilly Serrano,Edcouch-Elsa,44.23,92.99,40.82,108.86,242.67,Single-ply,SBD,F
Girls,44.23,17,Madelaine Brown,Burleson,44.23,90.72,40.82,92.99,224.53,Single-ply,SBD,F
Girls,44.23,18,Claudia Ramirez,Plainview,41,79.38,34.02,92.99,206.38,Single-ply,SBD,F
Girls,44.23,19,Ashley Warren,Lindale,44.23,72.57,31.75,102.06,206.38,Single-ply,SBD,F
Girls,44.23,20,Evelyn Garcia,Plainview,39.92,68.04,31.75,90.72,190.51,Single-ply,SBD,F
Girls,44.23,21,Kaleia Rowland,Manor,37.65,68.04,31.75,83.91,183.7,Single-ply,SBD,F
Girls,44.23,DQ,Alysse Hernandez,La Joya Palmview,43.14,,,,,Single-ply,SBD,F
Girls,44.23,DQ,Yitzel Sosa,New Caney Porter,42.68,,,,,Single-ply,SBD,F
Girls,44.23,DQ,Alexis Iglesias,Port Lavaca Calhoun,43.05,,,,,Single-ply,SBD,F
Girls,47.85,1,Mia Macias,Alice,46.36,136.08,58.97,111.13,306.17,Single-ply,SBD,F
Girls,47.85,2,Carolina Sanchez,Brownsville Lopez,46.49,120.2,61.23,124.74,306.17,Single-ply,SBD,F
Girls,47.85,3,Genesis Nava,Edcouch-Elsa,46.63,133.81,56.7,115.67,306.17,Single-ply,SBD,F
Girls,47.85,4,Salma Anaya-Martinez,Port Lavaca Calhoun,47.36,120.2,56.7,129.27,306.17,Single-ply,SBD,F
Girls,47.85,5,Lexi Davila,Brownsville Lopez,47.04,111.13,65.77,124.74,301.64,Single-ply,SBD,F
Girls,47.85,6,Jennifer Venegas,Dripping Springs,47.26,124.74,54.43,113.4,292.57,Single-ply,SBD,F
Girls,47.85,7,Crystal Borrego,PSJA Memorial,47.31,120.2,47.63,108.86,276.69,Single-ply,SBD,F
Girls,47.85,8,Lilly Rodriguez,Princeton,46.58,102.06,45.36,111.13,258.55,Single-ply,SBD,F
Girls,47.85,9,Karleigh Stewart,Jacksonville,47.36,104.33,47.63,106.59,258.55,Single-ply,SBD,F
Girls,47.85,10,Angel Ramos,Plainview,45.4,88.45,56.7,111.13,256.28,Single-ply,SBD,F
Girls,47.85,11,Alondra Ortiz,Saginaw,47.13,92.99,40.82,113.4,247.21,Single-ply,SBD,F
Girls,47.85,DQ,Keira Rodriguez,Santa Fe,46.58,,,,,Single-ply,SBD,F
Girls,47.85,DQ,Brittney Salcido,PSJA Memorial,47.31,133.81,,,,Single-ply,SBD,F
Girls,47.85,DQ,Calie Treadaway,Kaufman,46.81,,,,,Single-ply,SBD,F
Girls,47.85,DQ,Miracle Gray,Dripping Springs,46.99,120.2,54.43,,,Single-ply,SBD,F
Girls,47.85,DQ,Ezmerelda Guzman,Cleveland,47.72,,,,,Single-ply,SBD,F
Girls,47.85,DQ,Emily Grover,Abilene Cooper,47.13,,,,,Single-ply,SBD,F
Girls,51.94,1,Hayley Kinard,Vidor,51.35,170.1,74.84,151.95,396.89,Single-ply,SBD,F
Girls,51.94,2,Ashley Tijerina,Mission Sharyland,51.17,161.03,72.57,145.15,378.75,Single-ply,SBD,F
Girls,51.94,3,Jade Ross,Seguin,50.67,122.47,77.11,147.42,347,Single-ply,SBD,F
Girls,51.94,4,Mia Reyes,Corpus Christi Tuloso-Midway,51.39,154.22,61.23,129.27,344.73,Single-ply,SBD,F
Girls,51.94,5,Alexa Vega,Brownsville Lopez,50.94,145.15,70.31,127.01,342.46,Single-ply,SBD,F
Girls,51.94,6,Lacey Littles,Victoria West,51.94,131.54,63.5,136.08,331.12,Single-ply,SBD,F
Girls,51.94,7,Raelin Luna,Port Lavaca Calhoun,50.08,124.74,65.77,127.01,317.51,Single-ply,SBD,F
Girls,51.94,8,Juliana Vasquez,Corpus Christi Tuloso-Midway,50.98,129.27,61.23,124.74,315.25,Single-ply,SBD,F
Girls,51.94,9,Reese Roberts,Whitehouse,51.71,122.47,72.57,113.4,308.44,Single-ply,SBD,F
Girls,51.94,10,Rose Bustos,Gregory-Portland,50.39,131.54,47.63,117.93,297.1,Single-ply,SBD,F
Girls,51.94,11,Gia Ross,Seguin,51.48,117.93,63.5,113.4,294.84,Single-ply,SBD,F
Girls,51.94,12,Karli Reeves,Montgomery,51.57,115.67,52.16,124.74,292.57,Single-ply,SBD,F
Girls,51.94,13,Anna Scarborough,College Station,51.94,120.2,70.31,102.06,292.57,Single-ply,SBD,F
Girls,51.94,14,Isabel Sanchez,Mercedes,49.9,133.81,43.09,111.13,288.03,Single-ply,SBD,F
Girls,51.94,15,MaKayla Moulton,Burleson,51.12,108.86,56.7,122.47,288.03,Single-ply,SBD,F
Girls,51.94,16,Brittany Westbrook,Jacksonville,51.39,111.13,58.97,117.93,288.03,Single-ply,SBD,F
Girls,51.94,17,Haley Bell,Princeton,51.66,120.2,49.9,117.93,288.03,Single-ply,SBD,F
Girls,51.94,18,Asia Medlin,Denison,50.12,95.25,63.5,99.79,258.55,Single-ply,SBD,F
Girls,51.94,19,Jennifer Munoz,Plainview,50.21,83.91,40.82,122.47,247.21,Single-ply,SBD,F
Girls,51.94,DQ,Present May,Port Lavaca Calhoun,49.31,165.56,,,,Single-ply,SBD,F
Girls,51.94,DQ,Mel Ry,Port Lavaca Calhoun,51.89,,,,,Single-ply,SBD,F
Girls,56.02,1,Skyleigh Sears,Port Lavaca Calhoun,54.43,176.9,81.65,172.37,430.91,Single-ply,SBD,F
Girls,56.02,2,Norma Vega,Brownsville Lopez,54.16,181.44,92.99,154.22,428.64,Single-ply,SBD,F
Girls,56.02,3,Donna Mondragon,La Joya Palmview,55.52,161.03,83.91,142.88,387.82,Single-ply,SBD,F
Girls,56.02,4,Ashlee Hernandez,Seguin,55.52,158.76,83.91,136.08,378.75,Single-ply,SBD,F
Girls,56.02,5,Nora Cortez,PSJA Southwest,54.61,158.76,74.84,142.88,376.48,Single-ply,SBD,F
Girls,56.02,6,Lucia Creeden,Burleson Centennial,54.25,151.95,68.04,138.35,358.34,Single-ply,SBD,F
Girls,56.02,7,Haley Svadlenak,Gregory-Portland,55.29,156.49,72.57,129.27,358.34,Single-ply,SBD,F
Girls,56.02,8,Isabelle Fielder,Little Elm,53.25,129.27,65.77,142.88,337.93,Single-ply,SBD,F
Girls,56.02,9,Layla Newton,Greenville,54.39,142.88,70.31,117.93,331.12,Single-ply,SBD,F
Girls,56.02,10,Kalani Hayden,Montgomery,55.25,122.47,54.43,133.81,310.71,Single-ply,SBD,F
Girls,56.02,11,Meadow Housman,New Caney Porter,55.2,122.47,61.23,124.74,308.44,Single-ply,SBD,F
Girls,56.02,12,Ashlee Taylor,Whitehouse,55.93,90.72,58.97,115.67,265.35,Single-ply,SBD,F
Girls,56.02,13,Arianna Garcia,Plainview,55.97,104.33,47.63,106.59,258.55,Single-ply,SBD,F
Girls,56.02,14,Deysi Garcia,Plainview,55.47,104.33,40.82,106.59,251.74,Single-ply,SBD,F
Girls,56.02,DQ,Brayli Edwards,College Station,54.52,127.01,68.04,,,Single-ply,SBD,F
Girls,56.02,DQ,Violet Mejia,Mansfield Timberview,54.93,120.2,,,,Single-ply,SBD,F
Girls,60.1,1,Brianda Resendez,Mission Sharyland,56.06,190.51,106.59,161.03,458.13,Single-ply,SBD,F
Girls,60.1,2,Laura Gomez,PSJA Memorial,57.92,170.1,97.52,156.49,424.11,Single-ply,SBD,F
Girls,60.1,3,Payton Davison,Frisco Heritage,58.56,167.83,83.91,158.76,410.5,Single-ply,SBD,F
Girls,60.1,4,America Fernandez,Somerset,57.52,161.03,111.13,136.08,408.23,Single-ply,SBD,F
Girls,60.1,5,Julianna Perez,Corpus Christi Tuloso-Midway,59.06,170.1,88.45,147.42,405.97,Single-ply,SBD,F
Girls,60.1,6,Amme Alcorchas,PSJA Memorial,57.83,149.69,83.91,138.35,371.95,Single-ply,SBD,F
Girls,60.1,7,Jadyn Govea,Cleburne,59.1,151.95,72.57,147.42,371.95,Single-ply,SBD,F
Girls,60.1,8,Morgan Candela,Corpus Christi Tuloso-Midway,59.51,149.69,74.84,147.42,371.95,Single-ply,SBD,F
Girls,60.1,9,Selena Goodman,Manvel,58.01,133.81,61.23,142.88,337.93,Single-ply,SBD,F
Girls,60.1,10,Genesis Luna,San Antonio Southwest,59.87,129.27,77.11,131.54,337.93,Single-ply,SBD,F
Girls,60.1,11,Hannah Lopez,College Station,59.96,138.35,77.11,122.47,337.93,Single-ply,SBD,F
Girls,60.1,12,Isabella Barragan,Nederland,59.51,138.35,58.97,131.54,328.85,Single-ply,SBD,F
Girls,60.1,13,Kallie Sanchez,Plainview,59.96,142.88,54.43,117.93,315.25,Single-ply,SBD,F
Girls,60.1,14,Khristian Davis,Abilene Cooper,60.1,111.13,74.84,122.47,308.44,Single-ply,SBD,F
Girls,60.1,15,Meredith Williams,Greenville,57.92,127.01,43.09,122.47,292.57,Single-ply,SBD,F
Girls,60.1,DQ,Ennette Diaz,La Joya Palmview,58.74,133.81,81.65,,,Single-ply,SBD,F
Girls,60.1,DQ,Alyssa Allison,Greenville,57.92,170.1,86.18,,,Single-ply,SBD,F
Girls,67.36,1,Brianna Flores,Mission Veterans Memorial,66.54,185.97,88.45,183.7,458.13,Single-ply,SBD,F
Girls,67.36,2,Ally Carraway,Lucas Lovejoy,65.18,165.56,102.06,161.03,428.64,Single-ply,SBD,F
Girls,67.36,3,Jennifer Cisneros,Brownsville Lopez,66.13,165.56,81.65,165.56,412.77,Single-ply,SBD,F
Girls,67.36,4,Alejandra Roman,Sharyland Pioneer,64.55,165.56,90.72,151.95,408.23,Single-ply,SBD,F
Girls,67.36,5,Noemi Gallardo,Brownsville Lopez,64.5,172.37,97.52,124.74,394.63,Single-ply,SBD,F
Girls,67.36,6,Hope Pridgen,Vidor,65.23,156.49,77.11,156.49,390.09,Single-ply,SBD,F
Girls,67.36,7,Lilly Jones,College Station,66,172.37,79.38,136.08,387.82,Single-ply,SBD,F
Girls,67.36,8,Courtney Lamontange,Corpus Christi Tuloso-Midway,64.68,154.22,74.84,154.22,383.29,Single-ply,SBD,F
Girls,67.36,9,Fayth Ham,College Station,65.68,158.76,81.65,142.88,383.29,Single-ply,SBD,F
Girls,67.36,10,MaKaela Wyles,Lockhart,64.91,142.88,95.25,140.61,378.75,Single-ply,SBD,F
Girls,67.36,11,Kelsey Green,Burleson,67.18,151.95,70.31,151.95,374.21,Single-ply,SBD,F
Girls,67.36,12,Natalie Maldonado,PSJA Memorial,65.18,149.69,83.91,136.08,369.68,Single-ply,SBD,F
Girls,67.36,13,Madisyn Kile,Princeton,67.27,133.81,90.72,145.15,369.68,Single-ply,SBD,F
Girls,67.36,14,Raquel Mariscal,Plainview,65.86,149.69,70.31,140.61,360.61,Single-ply,SBD,F
Girls,67.36,15,Marlen Estrada,Plainview,65.63,145.15,70.31,140.61,356.07,Single-ply,SBD,F
Girls,67.36,16,Amanda Carden,Dayton,66.72,142.88,56.7,154.22,353.8,Single-ply,SBD,F
Girls,67.36,17,Abbie Etzler,Port Lavaca Calhoun,66.32,133.81,72.57,138.35,344.73,Single-ply,SBD,F
Girls,67.36,18,Taitum Barry,Longview Pine Tree,61.64,145.15,54.43,142.88,342.46,Single-ply,SBD,F
Girls,67.36,19,Kelly Casel,Whitehouse,67.18,138.35,70.31,129.27,337.93,Single-ply,SBD,F
Girls,67.36,DQ,Rheagan Schmidt,Seguin,64.77,151.95,99.79,,,Single-ply,SBD,F
Girls,67.36,DQ,Nancy Yousif,Frisco Heritage,66.5,190.51,95.25,,,Single-ply,SBD,F
Girls,75.07,1,Victoria Trevino,PSJA Memorial,72.17,201.85,108.86,165.56,476.27,Single-ply,SBD,F
Girls,75.07,2,Mackenzie Contreras,Edcouch-Elsa,73.07,188.24,92.99,165.56,446.79,Single-ply,SBD,F
Girls,75.07,3,Madison Calderon,Corpus Christi Tuloso-Midway,72.26,163.29,81.65,151.95,396.89,Single-ply,SBD,F
Girls,75.07,4,Avery Contreras,Uvalde,73.94,156.49,86.18,154.22,396.89,Single-ply,SBD,F
Girls,75.07,5,Araylie Garza,Edcouch-Elsa,73.35,158.76,86.18,129.27,374.21,Single-ply,SBD,F
Girls,75.07,6,Samantha Lopez,Waller,73.39,142.88,61.23,170.1,374.21,Single-ply,SBD,F
Girls,75.07,7,MyKiyah Whitfield,Little Elm,68.67,151.95,70.31,149.69,371.95,Single-ply,SBD,F
Girls,75.07,8,Gabriela Mercado,Mission Sharyland,73.84,149.69,81.65,140.61,371.95,Single-ply,SBD,F
Girls,75.07,9,Athena Polymenis,College Station,74.12,149.69,74.84,147.42,371.95,Single-ply,SBD,F
Girls,75.07,10,Savannah Petty,Lindale,71.62,149.69,70.31,145.15,365.14,Single-ply,SBD,F
Girls,75.07,11,Bianca Jijon,Castroville Medina Valley,72.35,138.35,65.77,161.03,365.14,Single-ply,SBD,F
Girls,75.07,12,Katiah Loredo,Plainview,70.13,145.15,70.31,136.08,351.53,Single-ply,SBD,F
Girls,75.07,13,Jemah Khalil,Lindale,73.53,145.15,58.97,138.35,342.46,Single-ply,SBD,F
Girls,75.07,14,Aiyana Holloman,New Caney Porter,73.3,124.74,72.57,142.88,340.19,Single-ply,SBD,F
Girls,75.07,DQ,Seriah Carrillo,Frisco Heritage,74.62,,,,,Single-ply,SBD,F
Girls,75.07,DQ,Kemble Cothran,Georgetown,73.57,,,,,Single-ply,SBD,F
Girls,75.07,DQ,Eylen Ruiz,Brownsville Pace,72.53,183.7,90.72,142.88,,Single-ply,SBD,F
Girls,75.07,DQ,Ashley Dominguez,Plainview,67.54,,,,,Single-ply,SBD,F
Girls,82.33,1,Jacqueline Guerra,Alice,77.84,195.04,104.33,192.78,492.15,Single-ply,SBD,F
Girls,82.33,2,Kassandra Luna,San Antonio Memorial,81.92,199.58,92.99,188.24,480.81,Single-ply,SBD,F
Girls,82.33,3,Abby Mitchel,Joshua,80.33,176.9,106.59,156.49,439.98,Single-ply,SBD,F
Girls,82.33,4,Jayla Quichocho,Manor,77.79,170.1,97.52,170.1,437.72,Single-ply,SBD,F
Girls,82.33,5,Ashlyn Raley,Frisco Heritage,78.24,185.97,102.06,149.69,437.72,Single-ply,SBD,F
Girls,82.33,6,Katrina Mendez,Mission Sharyland,81.37,183.7,99.79,145.15,428.64,Single-ply,SBD,F
Girls,82.33,7,Brittany Garza,Donna,81.74,181.44,90.72,154.22,426.38,Single-ply,SBD,F
Girls,82.33,8,Carolina Constantino,Mission Sharyland,79.92,195.04,74.84,142.88,412.77,Single-ply,SBD,F
Girls,82.33,9,Lorely Galvan,Brownsville Pace,77.61,170.1,68.04,163.29,401.43,Single-ply,SBD,F
Girls,82.33,10,Zoie Hartman,Corpus Christi Calallen,80.47,156.49,77.11,156.49,390.09,Single-ply,SBD,F
Girls,82.33,11,Hillary Briceno,Brownsville Lopez,76.34,158.76,88.45,138.35,385.55,Single-ply,SBD,F
Girls,82.33,12,Natalie Rivera,Brownsville Pace,77.25,165.56,79.38,138.35,383.29,Single-ply,SBD,F
Girls,82.33,13,Isabella Roberts,Burleson,79.7,151.95,83.91,147.42,383.29,Single-ply,SBD,F
Girls,82.33,14,Yanelly Barrera,Jacksonville,77.25,151.95,74.84,154.22,381.02,Single-ply,SBD,F
Girls,82.33,15,Natalie Marion,Burleson,79.65,158.76,79.38,142.88,381.02,Single-ply,SBD,F
Girls,82.33,16,Harley Howard,Nederland,80.83,167.83,81.65,131.54,381.02,Single-ply,SBD,F
Girls,82.33,17,Gabbie Daniels,Montgomery,80.42,140.61,79.38,158.76,378.75,Single-ply,SBD,F
Girls,82.33,18,Destiny McPherson,Whitehouse,77.97,140.61,79.38,142.88,362.87,Single-ply,SBD,F
Girls,82.33,19,Allexis Ponder,Plainview,79.92,142.88,63.5,149.69,356.07,Single-ply,SBD,F
Girls,82.33,DQ,Anna Saucedo,Plainview,76.88,158.76,63.5,,,Single-ply,SBD,F
Girls,82.33,DQ,Emma Dang,Frisco Heritage,77.16,172.37,95.25,,,Single-ply,SBD,F
Girls,90.04,1,Arianna Guerra,Donna,87.04,197.31,104.33,185.97,487.61,Single-ply,SBD,F
Girls,90.04,2,Illea Lugo,Somerset,88.72,217.72,113.4,156.49,487.61,Single-ply,SBD,F
Girls,90.04,3,Jia Lewis,Longview Pine Tree,89.99,190.51,86.18,172.37,449.06,Single-ply,SBD,F
Girls,90.04,4,Shanice Ross,Elgin,88.72,185.97,81.65,167.83,435.45,Single-ply,SBD,F
Girls,90.04,5,Arlyssa Ybarra,Donna,86.45,188.24,88.45,151.95,428.64,Single-ply,SBD,F
Girls,90.04,6,Kennedi Butcher,Port Lavaca Calhoun,84.37,158.76,106.59,158.76,424.11,Single-ply,SBD,F
Girls,90.04,7,Mykelti Altier,Lockhart,86.91,158.76,88.45,163.29,410.5,Single-ply,SBD,F
Girls,90.04,8,Amabella Gonzalez,Pharr Valley View,89.95,183.7,81.65,142.88,408.23,Single-ply,SBD,F
Girls,90.04,9,BreNasha Lewis,College Station,87.68,167.83,83.91,151.95,403.7,Single-ply,SBD,F
Girls,90.04,10,Zaria Bledsoe,Elgin,89.36,172.37,72.57,154.22,399.16,Single-ply,SBD,F
Girls,90.04,11,Dezarai Stewart,New Caney Porter,88.27,140.61,88.45,165.56,394.63,Single-ply,SBD,F
Girls,90.04,12,Brook Ragan,College Station,88.68,154.22,90.72,142.88,387.82,Single-ply,SBD,F
Girls,90.04,13,Carla Guerra,Princeton,88.68,154.22,88.45,142.88,385.55,Single-ply,SBD,F
Girls,90.04,14,Raelyn Peddy,Conroe Caney Creek,86.77,149.69,79.38,138.35,367.41,Single-ply,SBD,F
Girls,90.04,15,Peyton Chianese,Frisco Memorial,86.68,145.15,68.04,127.01,340.19,Single-ply,SBD,F
Girls,90.04,16,Madai Mendoza,Whitehouse,89.54,138.35,65.77,129.27,333.39,Single-ply,SBD,F
Girls,90.04,17,Sonja Anchondo,Abilene Cooper,85.05,83.91,43.09,90.72,217.72,Single-ply,SBD,F
Girls,90.04,DQ,Adiela DeLeon,Lockhart,85.55,176.9,83.91,,,Single-ply,SBD,F
Girls,100.02,1,Sadie Hewitt,Forney,95.8,219.99,92.99,185.97,498.95,Single-ply,SBD,F
Girls,100.02,2,Brenda Lopez,Pharr Valley View,99.38,199.58,111.13,183.7,494.42,Single-ply,SBD,F
Girls,100.02,3,Julie Sepulveda,Alice,94.12,210.92,106.59,165.56,483.08,Single-ply,SBD,F
Girls,100.02,4,Shania Kelly,College Station,99.02,185.97,83.91,181.44,451.32,Single-ply,SBD,F
Girls,100.02,5,Kaley Leal,Corpus Christi Tuloso-Midway,96.75,197.31,79.38,172.37,449.06,Single-ply,SBD,F
Girls,100.02,6,Jakiya Wade,Burleson,94.76,188.24,83.91,174.63,446.79,Single-ply,SBD,F
Girls,100.02,7,Miley Odell,Justin Northwest,95.48,183.7,92.99,167.83,444.52,Single-ply,SBD,F
Girls,100.02,8,Analydia Montes,Corpus Christi Tuloso-Midway,96.62,201.85,68.04,172.37,442.25,Single-ply,SBD,F
Girls,100.02,9,Mikayla Carroll,Castroville Medina Valley,95.07,181.44,97.52,158.76,437.72,Single-ply,SBD,F
Girls,100.02,10,Kimberly Elizarraras,Conroe Caney Creek,97.02,181.44,79.38,174.63,435.45,Single-ply,SBD,F
Girls,100.02,11,Adrianna Fuentes,Dayton,98.02,195.04,81.65,158.76,435.45,Single-ply,SBD,F
Girls,100.02,12,Kessiah Woodland,Georgetown East View,100.02,174.63,102.06,154.22,430.91,Single-ply,SBD,F
Girls,100.02,13,Carla Ledezma,Denison,96.93,181.44,102.06,145.15,428.64,Single-ply,SBD,F
Girls,100.02,14,Aaliyah Mathis,Denison,95.48,158.76,90.72,165.56,415.04,Single-ply,SBD,F
Girls,100.02,15,Alicia Gomez,PSJA Memorial,96.62,170.1,86.18,154.22,410.5,Single-ply,SBD,F
Girls,100.02,16,Evelyn Garza,Edcouch-Elsa,97.89,183.7,92.99,133.81,410.5,Single-ply,SBD,F
Girls,100.02,17,Mallory Rodriguez,Plainview,93.17,127.01,56.7,131.54,315.25,Single-ply,SBD,F
Girls,100.02,18,Kayla Anderson,Whitehouse,94.26,133.81,70.31,108.86,312.98,Single-ply,SBD,F
Girls,100.02,19,Ariana Garcia,Abilene Cooper,93.53,83.91,43.09,90.72,217.72,Single-ply,SBD,F
Girls,117.71,1,Julieann Delgado,Brownsville Lopez,112.04,224.53,154.22,192.78,571.53,Single-ply,SBD,F
Girls,117.71,2,Keirstyn Catron,Cleburne,110.9,231.33,108.86,183.7,523.9,Single-ply,SBD,F
Girls,117.71,3,Jazzmine Barrera,Edcouch-Elsa,113.76,226.8,97.52,185.97,510.29,Single-ply,SBD,F
Girls,117.71,4,Roxanne Martinez,Donna,109.91,247.21,104.33,151.95,503.49,Single-ply,SBD,F
Girls,117.71,5,Katy Grammer,Joshua,109.95,229.06,95.25,165.56,489.88,Single-ply,SBD,F
Girls,117.71,6,Maricela Compean,Royse City,106.1,210.92,83.91,183.7,478.54,Single-ply,SBD,F
Girls,117.71,7,Sophie Cox,College Station,114.76,199.58,108.86,154.22,462.66,Single-ply,SBD,F
Girls,117.71,8,Kelsy Medlin,Wylie East,104.05,190.51,108.86,161.03,460.4,Single-ply,SBD,F
Girls,117.71,9,Sydnee Hebert,Dayton,106.91,181.44,88.45,181.44,451.32,Single-ply,SBD,F
Girls,117.71,10,Katya Alfaro,Brownsville Porter,104.28,192.78,86.18,161.03,439.98,Single-ply,SBD,F
Girls,117.71,11,Kaylen Flores,PSJA Memorial,114.08,185.97,104.33,145.15,435.45,Single-ply,SBD,F
Girls,117.71,12,Marissa Garcia,Alice,111.22,190.51,74.84,167.83,433.18,Single-ply,SBD,F
Girls,117.71,13,Tabitha Wilson,Lubbock Cooper,103.28,181.44,81.65,163.29,426.38,Single-ply,SBD,F
Girls,117.71,14,LaNaysha Boudreaux,Nederland,109.54,163.29,97.52,142.88,403.7,Single-ply,SBD,F
Girls,117.71,15,Kaitlyn Perkins,Midlothian,112.13,154.22,70.31,142.88,367.41,Single-ply,SBD,F
Girls,117.71,16,Kirstin Millerd,Lindale,106.82,161.03,61.23,131.54,353.8,Single-ply,SBD,F
Girls,117.71,17,Perla Medina,Plainview,108.77,138.35,54.43,138.35,331.12,Single-ply,SBD,F
Girls,117.71,DQ,Peyton Holm,Royse City,109.13,158.76,83.91,,,Single-ply,SBD,F
Girls,117.71+,1,Kerrington Holliday,Elgin,135.67,204.12,92.99,185.97,483.08,Single-ply,SBD,F
Girls,117.71+,2,Alayna Searcy,Port Lavaca Calhoun,122.52,204.12,102.06,165.56,471.74,Single-ply,SBD,F
Girls,117.71+,3,Crystal Reyes,Lockhart,117.75,199.58,106.59,163.29,469.47,Single-ply,SBD,F
Girls,117.71+,4,Janal Robertson,Cleveland,135.17,183.7,138.35,147.42,469.47,Single-ply,SBD,F
Girls,117.71+,5,Jazmine Casas,Roma,122.61,197.31,95.25,172.37,464.93,Single-ply,SBD,F
Girls,117.71+,6,Nelly Garcia,Brownsville Lopez,133.76,210.92,108.86,145.15,464.93,Single-ply,SBD,F
Girls,117.71+,7,Ky'Iria Beasley,Mansfield Legacy,148.6,206.38,79.38,172.37,458.13,Single-ply,SBD,F
Girls,117.71+,8,Aisha Garcia,Edcouch-Elsa,138.3,199.58,86.18,158.76,444.52,Single-ply,SBD,F
Girls,117.71+,9,Chole Camacho,Nacogdoches,125.74,199.58,74.84,154.22,428.64,Single-ply,SBD,F
Girls,117.71+,10,Taryn Hooper,Nederland,119.16,170.1,83.91,142.88,396.89,Single-ply,SBD,F
Girls,117.71+,11,Lori Gutierrez,Corsicana,124.19,181.44,83.91,129.27,394.63,Single-ply,SBD,F
Girls,117.71+,12,Zoe Young,Frisco Heritage,123.2,140.61,86.18,154.22,381.02,Single-ply,SBD,F
Girls,,NS,Deena Flores,Edcouch-Elsa,,,,,,Single-ply,SBD,F
Girls,,NS,Tiarra Webb,Carrollton Creekview,,,,,,Single-ply,SBD,F
Girls,,NS,Angela Alcocer,Princeton,,,,,,Single-ply,SBD,F
Girls,,NS,Devany Morales,PSJA Memorial,,,,,,Single-ply,SBD,F
