Division,WeightClassKg,Place,Name,Team,BodyweightKg,Best3SquatKg,Best3BenchKg,Best3DeadliftKg,TotalKg,Equipment,Event,Sex
Junior Varsity,59.87,1,Hayden Brock,Kennedale,59.69,108.86,52.16,124.74,285.76,Single-ply,SBD,M
Junior Varsity,67.13,2,Abraham Cervantes,Castleberry,60.06,83.91,77.11,117.93,278.96,Single-ply,SBD,M
Junior Varsity,59.87,3,Kelton Cruz,Kennedale,59.15,99.79,47.63,120.2,267.62,Single-ply,SBD,M
Junior Varsity,67.13,1,Cody Bossaler,Kennedale,63.96,127.01,72.57,124.74,324.32,Single-ply,SBD,M
Junior Varsity,74.84,1,Collin Bundy,Kennedale,73.48,154.22,90.72,151.95,396.89,Single-ply,SBD,M
Junior Varsity,74.84,2,Cody Maiure,Kennedale,73.57,138.35,90.72,124.74,353.8,Single-ply,SBD,M
Junior Varsity,74.84,3,Tim Landers,Castleberry,72.48,90.72,56.7,124.74,272.16,Single-ply,SBD,M
Junior Varsity,82.1,1,Trey White,Kennedale,81.56,179.17,113.4,190.51,483.08,Single-ply,SBD,M
Junior Varsity,89.81,1,Malik Jamison,Kennedale,87.36,163.29,90.72,161.03,415.04,Single-ply,SBD,M
Junior Varsity,99.79,DQ,Matthew Naugle,Kennedale,99.52,170.1,102.06,,,Single-ply,SBD,M
Junior Varsity,109.77,1,Michael Pytel,Kennedale,107.41,172.37,106.59,170.1,449.06,Single-ply,SBD,M
Junior Varsity,109.77,2,Ricardo Martinez,Mineral Wells,106.14,138.35,86.18,136.08,360.61,Single-ply,SBD,M
Junior Varsity,124.74,1,Terik Rabb,Kennedale,123.38,197.31,129.27,197.31,523.9,Single-ply,SBD,M
Junior Varsity,124.74+,DQ,Michael Sottilotto,Kennedale,132,213.19,136.08,,,Single-ply,SBD,M
Junior Varsity,,NS,Stephen Linares,Kennedale,,,,,,Single-ply,SBD,M
Varsity,51.71,1,Derrick Williams,Kennedale,51.62,111.13,81.65,120.2,312.98,Single-ply,SBD,M
Varsity,51.71,2,Armando Alvarado,Castleberry,49.8,72.57,49.9,102.06,224.53,Single-ply,SBD,M
Varsity,51.71,3,Suliman Uddin,Springtown,51.71,88.45,36.29,95.25,219.99,Single-ply,SBD,M
Varsity,55.79,1,Kevin Huynh,Kennedale,54.88,154.22,90.72,181.44,426.38,Single-ply,SBD,M
Varsity,55.79,2,Roger Garcia,Mineral Wells,53.71,131.54,86.18,136.08,353.8,Single-ply,SBD,M
Varsity,67.13,1,Shafiq Asmaty,Kennedale,60.1,158.76,86.18,158.76,403.7,Single-ply,SBD,M
Varsity,59.87,DQ,Ethan Balthrop,Castleberry,59.87,,,,,Single-ply,SBD,M
Varsity,59.87,DQ,Tristan Zamarripa,Lake Worth,58.88,151.95,83.91,,,Single-ply,SBD,M
Varsity,67.13,1,Fouad Ali,Kennedale,66.41,167.83,120.2,199.58,487.61,Single-ply,SBD,M
Varsity,74.84,2,Clayton Walker,Springtown,67.31,158.76,70.31,174.63,403.7,Single-ply,SBD,M
Varsity,74.84,3,Brian San Miguel,Mineral Wells,67.36,165.56,88.45,145.15,399.16,Single-ply,SBD,M
Varsity,67.13,4,Bryan Ortiz,Castleberry,66.59,149.69,86.18,140.61,376.48,Single-ply,SBD,M
Varsity,67.13,5,Jackson Walker,Springtown,63.5,138.35,74.84,151.95,365.14,Single-ply,SBD,M
Varsity,74.84,6,Griffin Balthrop,Castleberry,67.36,127.01,77.11,142.88,347,Single-ply,SBD,M
Varsity,74.84,7,Victor Contreras,Mineral Wells,67.36,120.2,74.84,140.61,335.66,Single-ply,SBD,M
Varsity,67.13,8,Jeremy Pippin,Lake Worth,65.09,104.33,72.57,127.01,303.91,Single-ply,SBD,M
Varsity,67.13,9,Matt Merriman,Lake Worth,66.68,120.2,65.77,115.67,301.64,Single-ply,SBD,M
Varsity,67.13,DQ,Oscar Orozco,Castleberry,65.54,154.22,,,,Single-ply,SBD,M
Varsity,74.84,1,Alex Scallion,Castleberry,74.57,204.12,136.08,195.04,535.24,Single-ply,SBD,M
Varsity,74.84,2,Collin Rector,Springtown,71.58,167.83,99.79,170.1,437.72,Single-ply,SBD,M
Varsity,74.84,3,Ty Stewart,Lake Worth,74.62,181.44,88.45,156.49,426.38,Single-ply,SBD,M
Varsity,74.84,4,Dennis Ralon,Lake Worth,67.77,140.61,95.25,158.76,394.63,Single-ply,SBD,M
Varsity,74.84,5,Andrew Holguin,Lake Worth,74.84,147.42,90.72,133.81,371.95,Single-ply,SBD,M
Varsity,74.84,6,Jared Stone,Mineral Wells,71.44,92.99,63.5,127.01,283.5,Single-ply,SBD,M
Varsity,82.1,1,Travis Mallory,Mineral Wells,79.83,204.12,117.93,210.92,532.97,Single-ply,SBD,M
Varsity,82.1,2,Eric Maldonado,Castleberry,80.92,176.9,117.93,190.51,485.34,Single-ply,SBD,M
Varsity,82.1,3,Greg Roberts,Lake Worth,76.07,188.24,95.25,188.24,471.74,Single-ply,SBD,M
Varsity,82.1,4,Josh White,Springtown,79.92,176.9,88.45,181.44,446.79,Single-ply,SBD,M
Varsity,89.81,1,Hugo Giron,Kennedale,88.54,217.72,140.61,188.24,546.58,Single-ply,SBD,M
Varsity,99.79,2,Chris Reyes,Castleberry,89.9,156.49,81.65,129.27,367.41,Single-ply,SBD,M
Varsity,89.81,DQ,Leo Brooks,Kennedale,87.72,208.65,,,,Single-ply,SBD,M
Varsity,99.79,1,Trey McGahan,Kennedale,92.26,258.55,138.35,242.67,639.57,Single-ply,SBD,M
Varsity,99.79,2,Kaleb Keys,Springtown,98.43,204.12,136.08,190.51,530.7,Single-ply,SBD,M
Varsity,99.79,3,Cameron Bundy,Kennedale,90.45,188.24,124.74,210.92,523.9,Single-ply,SBD,M
Varsity,99.79,4,Aaron Ewing,Lake Worth,91.44,195.04,122.47,170.1,487.61,Single-ply,SBD,M
Varsity,99.79,5,Colton Hunt,Springtown,92.9,195.04,97.52,183.7,476.27,Single-ply,SBD,M
Varsity,99.79,6,Victor Reyes,Castleberry,92.53,158.76,127.01,165.56,451.32,Single-ply,SBD,M
Varsity,99.79,7,Raul Garcia,Lake Worth,91.35,142.88,102.06,158.76,403.7,Single-ply,SBD,M
Varsity,99.79,DQ,Chris Delk,Castleberry,97.61,167.83,97.52,,,Single-ply,SBD,M
Varsity,109.77,1,Matt Aguilar,Mineral Wells,102.6,260.82,142.88,238.14,641.83,Single-ply,SBD,M
Varsity,109.77,2,Nathan Ward,Kennedale,109.5,229.06,133.81,192.78,555.65,Single-ply,SBD,M
Varsity,109.77,3,Tyler Chappell,Springtown,101.06,199.58,99.79,208.65,508.02,Single-ply,SBD,M
Varsity,109.77,4,Ethan San Miguel,Mineral Wells,106.96,181.44,108.86,170.1,460.4,Single-ply,SBD,M
Varsity,109.77,5,Aaron Hite,Mineral Wells,108.5,140.61,88.45,145.15,374.21,Single-ply,SBD,M
Varsity,124.74,1,Gavin Edgecomb,Springtown,112.4,226.8,102.06,204.12,532.97,Single-ply,SBD,M
Varsity,124.74+,1,Nate Brown,Kennedale,146.96,276.69,165.56,265.35,707.6,Single-ply,SBD,M
Varsity,124.74+,2,Julio Martinez,Castleberry,134.9,249.48,120.2,192.78,562.45,Single-ply,SBD,M
Varsity,124.74+,3,Marshall Moody,Kennedale,133.08,195.04,124.74,226.8,546.58,Single-ply,SBD,M
Varsity,124.74+,4,Brandon Brooks,Springtown,163.75,213.19,124.74,181.44,519.36,Single-ply,SBD,M
