Division,WeightClassKg,Place,Name,Team,BodyweightKg,Best3SquatKg,Best3BenchKg,Best3DeadliftKg,TotalKg,Equipment,Event,Sex
Boys,51.71,1,Chris Rodriguez,Iraan,49.71,124.74,81.65,136.08,342.46,Single-ply,SBD,M
Boys,51.71,2,Daniel Valenzuela,Pecos,51.17,106.59,49.9,113.4,269.89,Single-ply,SBD,M
Boys,51.71,3,Van Phan,Alpine,45.36,81.65,52.16,106.59,240.4,Single-ply,SBD,M
Boys,51.71,4,Kelby Anderson,Seminole,51.53,83.91,45.36,104.33,233.6,Single-ply,SBD,M
Boys,51.71,5,Logan Cross,Alpine,46.9,72.57,40.82,95.25,208.65,Single-ply,SBD,M
Boys,51.71,6,Danny Nicar,Monahans,38.56,49.9,29.48,52.16,131.54,Single-ply,SBD,M
Boys,55.79,1,Tomas Vega,Alpine,54.34,113.4,74.84,145.15,333.39,Single-ply,SBD,M
Boys,55.79,2,Darian Vidana,Monahans,54.34,131.54,63.5,131.54,326.59,Single-ply,SBD,M
Boys,59.87,3,Israel Celaya,Fort Stockton,55.88,113.4,63.5,127.01,303.91,Single-ply,SBD,M
Boys,55.79,4,Mario Manquero,Garden City,54.7,108.86,70.31,120.2,299.37,Single-ply,SBD,M
Boys,55.79,5,Miguel Oyervides,Fort Stockton,53.61,102.06,54.43,131.54,288.03,Single-ply,SBD,M
Boys,59.87,6,Bj Avila,Big Lake Reagan County,55.88,102.06,49.9,113.4,265.35,Single-ply,SBD,M
Boys,59.87,7,Gian Cruz,Monahans,55.97,79.38,56.7,99.79,235.87,Single-ply,SBD,M
Boys,55.79,DQ,Mitchell Newcomer,Alpine,54.07,111.13,72.57,,,Single-ply,SBD,M
Boys,67.13,1,Coe Kubicek,Seminole,60.06,174.63,108.86,172.37,455.86,Single-ply,SBD,M
Boys,59.87,2,Luis Marquez,Big Lake Reagan County,57.88,124.74,74.84,106.59,306.17,Single-ply,SBD,M
Boys,59.87,3,Marc Cantu,Alpine,59.24,106.59,58.97,133.81,299.37,Single-ply,SBD,M
Boys,59.87,4,Avan Feyry,Fort Stockton,59.42,92.99,63.5,140.61,297.1,Single-ply,SBD,M
Boys,67.13,5,Logan Gersbach,Seminole,59.96,113.4,65.77,115.67,294.84,Single-ply,SBD,M
Boys,59.87,6,Christian Jimenez,McCamey,58.79,86.18,40.82,77.11,204.12,Single-ply,SBD,M
Boys,59.87,DQ,Coltin Neumann,McCamey,58.42,108.86,,102.06,,Single-ply,SBD,M
Boys,67.13,1,Daniel Perez,McCamey,66.86,165.56,86.18,179.17,430.91,Single-ply,SBD,M
Boys,67.13,2,Aaron Castillo,Pecos,65.91,163.29,92.99,172.37,428.64,Single-ply,SBD,M
Boys,67.13,3,Robert Clanton,Midland Greenwood,66.32,163.29,90.72,172.37,426.38,Single-ply,SBD,M
Boys,67.13,4,Matt Gonzales,Fort Stockton,66.68,156.49,90.72,165.56,412.77,Single-ply,SBD,M
Boys,67.13,5,Edward Lumbreras,Fort Stockton,63.05,136.08,88.45,156.49,381.02,Single-ply,SBD,M
Boys,67.13,6,Lance Luera,Fort Stockton,66.5,136.08,86.18,142.88,365.14,Single-ply,SBD,M
Boys,67.13,7,Albert Garcia,Fort Stockton,62.96,127.01,83.91,142.88,353.8,Single-ply,SBD,M
Boys,67.13,8,Juan Marquez,Big Lake Reagan County,62.41,129.27,63.5,145.15,337.93,Single-ply,SBD,M
Boys,67.13,9,Ernest Villanueva,Fort Stockton,61.42,124.74,70.31,127.01,322.05,Single-ply,SBD,M
Boys,67.13,10,Phillip Tinner,McCamey,63.78,115.67,56.7,111.13,283.5,Single-ply,SBD,M
Boys,67.13,11,Cisco Ramirez,Fort Stockton,66.77,97.52,65.77,120.2,283.5,Single-ply,SBD,M
Boys,67.13,12,David Bislar,Fort Stockton,66.32,97.52,61.23,120.2,278.96,Single-ply,SBD,M
Boys,67.13,13,Matthew Hartunian,Alpine,65.59,83.91,68.04,117.93,269.89,Single-ply,SBD,M
Boys,67.13,14,David Venegas,McCamey,63.5,102.06,52.16,102.06,256.28,Single-ply,SBD,M
Boys,67.13,15,Jordan Zuarte,McCamey,60.96,86.18,65.77,102.06,254.01,Single-ply,SBD,M
Boys,67.13,16,Jesse Ruiz,Monahans,61.23,90.72,65.77,90.72,247.21,Single-ply,SBD,M
Boys,74.84,1,Donavon Rodriguez,Pecos,74.48,185.97,117.93,185.97,489.88,Single-ply,SBD,M
Boys,82.1,2,Justin Thornton,Pecos,74.98,172.37,106.59,179.17,458.13,Single-ply,SBD,M
Boys,74.84,3,Bubba Boyett,Monahans,72.57,172.37,90.72,158.76,421.84,Single-ply,SBD,M
Boys,74.84,4,Nathan Montes,Monahans,73.48,161.03,92.99,163.29,417.3,Single-ply,SBD,M
Boys,74.84,5,Jj Casarez,McCamey,73.75,151.95,102.06,145.15,399.16,Single-ply,SBD,M
Boys,74.84,6,Robert Thomas,Alpine,72.39,129.27,104.33,149.69,383.29,Single-ply,SBD,M
Boys,74.84,7,Cody Huelsberg,Alpine,71.21,147.42,90.72,142.88,381.02,Single-ply,SBD,M
Boys,74.84,8,Ben Rodriguez,Fort Stockton,70.67,142.88,83.91,147.42,374.21,Single-ply,SBD,M
Boys,74.84,9,Anthony Montes,Monahans,73.57,136.08,83.91,154.22,374.21,Single-ply,SBD,M
Boys,74.84,10,Josh Molina,McCamey,69.22,133.81,72.57,136.08,342.46,Single-ply,SBD,M
Boys,74.84,11,Adrian Flores,Monahans,72.85,127.01,88.45,111.13,326.59,Single-ply,SBD,M
Boys,74.84,12,Tyler Davis,Pecos,70.44,117.93,77.11,127.01,322.05,Single-ply,SBD,M
Boys,74.84,13,Stephan Wells,Monahans,71.21,113.4,63.5,117.93,294.84,Single-ply,SBD,M
Boys,74.84,DQ,Trenton Gardner,Big Lake Reagan County,74.84,136.08,,,,Single-ply,SBD,M
Boys,82.1,1,Cole Barton,Midland Greenwood,80.92,226.8,154.22,215.46,596.47,Single-ply,SBD,M
Boys,82.1,2,Jesus Castillo,Fort Stockton,80.47,181.44,102.06,217.72,501.22,Single-ply,SBD,M
Boys,82.1,3,Christian Gonzales,Monahans,80.38,199.58,106.59,181.44,487.61,Single-ply,SBD,M
Boys,82.1,4,Stetson Hilger,Midland Greenwood,79.02,161.03,102.06,161.03,424.11,Single-ply,SBD,M
Boys,82.1,5,Carlos Gomez,Iraan,81.19,151.95,106.59,154.22,412.77,Single-ply,SBD,M
Boys,82.1,6,Dallas Escoveda,Alpine,75.57,136.08,122.47,147.42,405.97,Single-ply,SBD,M
Boys,89.81,7,Blake Smith,Midland Greenwood,82.28,151.95,81.65,170.1,403.7,Single-ply,SBD,M
Boys,82.1,8,Ruben Mier,Garden City,77.02,136.08,86.18,161.03,383.29,Single-ply,SBD,M
Boys,82.1,9,Jalen Falcon,Fort Stockton,81.37,136.08,68.04,136.08,340.19,Single-ply,SBD,M
Boys,89.81,10,Pedro Ybarra,McCamey,82.28,124.74,68.04,136.08,328.85,Single-ply,SBD,M
Boys,82.1,11,Daniel Self,Monahans,79.65,104.33,79.38,127.01,310.71,Single-ply,SBD,M
Boys,82.1,DQ,Justin Lopez,Monahans,77.47,,,,,Single-ply,SBD,M
Boys,89.81,1,Miguel López,Big Lake Reagan County,87.09,192.78,92.99,226.8,512.56,Single-ply,SBD,M
Boys,89.81,2,Tyler Claunch,Midland Greenwood,84.55,183.7,120.2,183.7,487.61,Single-ply,SBD,M
Boys,89.81,3,Joedward Gomez,Pecos,83.28,183.7,102.06,179.17,464.93,Single-ply,SBD,M
Boys,89.81,4,Jonathan Young,Garden City,88,167.83,90.72,181.44,439.98,Single-ply,SBD,M
Boys,89.81,5,Jesse Barrios,Fort Stockton,89.45,142.88,104.33,170.1,417.3,Single-ply,SBD,M
Boys,89.81,6,Vidal Cedillo,Big Lake Reagan County,84.64,151.95,97.52,145.15,394.63,Single-ply,SBD,M
Boys,89.81,7,Barry Clayton,Monahans,84.19,149.69,63.5,127.01,340.19,Single-ply,SBD,M
Boys,89.81,8,Parker May,Monahans,85.28,104.33,52.16,111.13,267.62,Single-ply,SBD,M
Boys,89.81,DQ,Derrick Fitzpatrick,Midland Greenwood,89.81,,,,,Single-ply,SBD,M
Boys,99.79,1,Brandon Sanchez,Fort Stockton,95.25,215.46,131.54,217.72,564.72,Single-ply,SBD,M
Boys,99.79,2,Matt McGuire,Fort Stockton,92.53,170.1,117.93,167.83,455.86,Single-ply,SBD,M
Boys,99.79,3,Evan Card,Fort Stockton,90.45,158.76,90.72,174.63,424.11,Single-ply,SBD,M
Boys,99.79,4,Garrett Ford,Monahans,91.81,158.76,99.79,149.69,408.23,Single-ply,SBD,M
Boys,99.79,5,Michael Powers,Fort Stockton,94.8,145.15,90.72,163.29,399.16,Single-ply,SBD,M
Boys,99.79,6,Jordan Dyck,Seminole,97.98,133.81,99.79,122.47,356.07,Single-ply,SBD,M
Boys,99.79,7,Chris Arroyo,Monahans,97.61,136.08,65.77,113.4,315.25,Single-ply,SBD,M
Boys,99.79,8,Andrew Johnson,Seminole,96.07,113.4,72.57,117.93,303.91,Single-ply,SBD,M
Boys,99.79,9,Franscio Lopez,Monahans,90.17,90.72,68.04,111.13,269.89,Single-ply,SBD,M
Boys,109.77,1,Shaquille Walters,Midland Greenwood,102.06,217.72,117.93,208.65,544.31,Single-ply,SBD,M
Boys,109.77,2,Richard Woods,Pecos,108.32,181.44,111.13,185.97,478.54,Single-ply,SBD,M
Boys,109.77,3,Angel Aguilera,Big Lake Reagan County,106.32,192.78,104.33,156.49,453.59,Single-ply,SBD,M
Boys,109.77,4,Jamie Melendez,Pecos,106.59,149.69,92.99,158.76,401.43,Single-ply,SBD,M
Boys,109.77,5,Chance Arriaga,Fort Stockton,109.41,147.42,90.72,156.49,394.63,Single-ply,SBD,M
Boys,109.77,6,Leslie James Belaire,Pecos,102.78,97.52,65.77,97.52,260.82,Single-ply,SBD,M
Boys,124.74,1,Anthony Ford,Monahans,114.4,213.19,113.4,199.58,526.17,Single-ply,SBD,M
Boys,124.74,2,Cagen Chaney,Iraan,116.94,183.7,113.4,181.44,478.54,Single-ply,SBD,M
Boys,124.74,3,Bubba Spencer,Monahans,115.03,149.69,95.25,154.22,399.16,Single-ply,SBD,M
Boys,124.74+,4,Damien Venegas,McCamey,124.92,149.69,74.84,165.56,390.09,Single-ply,SBD,M
Boys,124.74,5,Artemio Munoz,Pecos,122.15,138.35,83.91,122.47,344.73,Single-ply,SBD,M
Boys,124.74,DQ,Garrett Brandenburg,Monahans,122.56,154.22,,,,Single-ply,SBD,M
Boys,124.74,DQ,Frankie Mier,Garden City,122.65,117.93,,,,Single-ply,SBD,M
Boys,124.74+,1,Louis Rodriguez,Pecos,135.44,233.6,129.27,238.14,601.01,Single-ply,SBD,M
Boys,124.74+,2,Andrew Rawling,Monahans,127.1,254.01,127.01,208.65,589.67,Single-ply,SBD,M
Boys,124.74+,3,Dakota Gonzales,Fort Stockton,130.27,195.04,117.93,183.7,496.68,Single-ply,SBD,M
Boys,124.74+,4,Nicolas Franco,Pecos,136.8,181.44,106.59,158.76,446.79,Single-ply,SBD,M
Boys,124.74+,5,Ross Phipps,Monahans,144.42,131.54,58.97,131.54,322.05,Single-ply,SBD,M
