Division,WeightClassKg,Place,Name,Team,BodyweightKg,Best3SquatKg,Best3BenchKg,Best3DeadliftKg,TotalKg,Equipment,Event,Sex
Boys,51.71,1,Alex Berrones,Brownsville Lopez,50.8,117.93,79.38,167.83,365.14,Single-ply,SBD,M
Boys,55.79,2,Misael Marquez,Brownsville Veterans Memorial,51.85,133.81,92.99,120.2,347,Single-ply,SBD,M
Boys,51.71,3,Jose Quintero,Brownsville Lopez,50.8,120.2,77.11,145.15,342.46,Single-ply,SBD,M
Boys,51.71,4,Leo Alaniz,Brownsville Lopez,,111.13,77.11,136.08,324.32,Single-ply,SBD,M
Boys,51.71,5,Anthony Sorian,Brownsville Porter,50.8,102.06,54.43,117.93,274.42,Single-ply,SBD,M
Boys,51.71,6,Thomas Ochoa,Brownsville Pace,49.44,61.23,29.48,70.31,161.03,Single-ply,SBD,M
Boys,55.79,1,Ovideo Garza,Brownsville Lopez,54.43,154.22,83.91,151.95,390.09,Single-ply,SBD,M
Boys,55.79,2,Bradley Salinas,Brownsville Porter,54.7,122.47,83.91,154.22,360.61,Single-ply,SBD,M
Boys,55.79,3,Jonathan Rocha,Brownsville Porter,55.2,142.88,77.11,136.08,356.07,Single-ply,SBD,M
Boys,55.79,DQ,Edgar Hernandez,Brownsville Rivera,52.48,,,,,Single-ply,SBD,M
Boys,55.79,DQ,Joel Sanchez,Brownsville Veterans Memorial,55.75,,,,,Single-ply,SBD,M
Boys,59.87,1,Danny Diaz,Brownsville Lopez,58.97,190.51,131.54,201.85,523.9,Single-ply,SBD,M
Boys,59.87,2,Mario Garcia,Brownsville Pace,58.92,122.47,90.72,138.35,351.53,Single-ply,SBD,M
Boys,59.87,3,Jose Sanchez,Brownsville Lopez,58.06,142.88,70.31,129.27,342.46,Single-ply,SBD,M
Boys,67.13,1,Rogelio Pulido,Brownsville Lopez,66.68,213.19,111.13,242.67,566.99,Single-ply,SBD,M
Boys,67.13,2,Eric Tong,Brownsville Hanna,66.45,215.46,106.59,215.46,537.51,Single-ply,SBD,M
Boys,67.13,3,Hugo Salas,Brownsville Lopez,63.5,197.31,104.33,197.31,498.95,Single-ply,SBD,M
Boys,74.84,4,Yayo Segura,Brownsville Pace,67.18,188.24,106.59,199.58,494.42,Single-ply,SBD,M
Boys,67.13,5,Rick Gonzalez,Brownsville Hanna,67,201.85,106.59,183.7,492.15,Single-ply,SBD,M
Boys,67.13,6,Guillermo Estrada,Brownsville Porter,65.68,167.83,106.59,167.83,442.25,Single-ply,SBD,M
Boys,67.13,7,Daniel Rueda,Brownsville Rivera,66,161.03,104.33,172.37,437.72,Single-ply,SBD,M
Boys,67.13,8,Eric Grant,Brownsville Veterans Memorial,66.9,122.47,90.72,133.81,347,Single-ply,SBD,M
Boys,74.84,1,Zeke Cardenas,Brownsville Hanna,71.35,204.12,120.2,188.24,512.56,Single-ply,SBD,M
Boys,74.84,2,Luciano Ramos,Brownsville Porter,68.99,183.7,106.59,183.7,474,Single-ply,SBD,M
Boys,74.84,3,Mike Reyes,Brownsville Porter,68.99,156.49,99.79,174.63,430.91,Single-ply,SBD,M
Boys,74.84,DQ,Arturo Mancias,Brownsville Hanna,71.44,183.7,,,,Single-ply,SBD,M
Boys,74.84,DQ,Angel Loera,Brownsville Rivera,73.89,197.31,,,,Single-ply,SBD,M
Boys,74.84,DQ,Ricky Sauceda,Brownsville Lopez,74.39,,,,,Single-ply,SBD,M
Boys,82.1,1,Brandon Martinez,Brownsville Veterans Memorial,81.15,217.72,122.47,235.87,576.06,Single-ply,SBD,M
Boys,82.1,2,Alex Chairez,Brownsville Veterans Memorial,81.69,210.92,127.01,238.14,576.06,Single-ply,SBD,M
Boys,82.1,3,Sam Longoria,Brownsville Hanna,80.06,222.26,124.74,190.51,537.51,Single-ply,SBD,M
Boys,82.1,4,Bryan Gonzalez,Brownsville Rivera,78.7,151.95,136.08,183.7,471.74,Single-ply,SBD,M
Boys,82.1,5,Albert Zurita,Brownsville Pace,78.65,170.1,74.84,195.04,439.98,Single-ply,SBD,M
Boys,82.1,6,Jonathan Otero,Brownsville Rivera,78.83,181.44,92.99,147.42,421.84,Single-ply,SBD,M
Boys,82.1,DQ,Ramon Delgado,Brownsville Hanna,81.01,,,,,Single-ply,SBD,M
Boys,99.79,1,Erick Vazquez,Brownsville Veterans Memorial,89.99,242.67,147.42,233.6,623.69,Single-ply,SBD,M
Boys,89.81,2,Antonio Ruiz,Brownsville Porter,88.45,204.12,124.74,238.14,566.99,Single-ply,SBD,M
Boys,99.79,3,Omar Leal,Brownsville Hanna,89.95,229.06,129.27,208.65,566.99,Single-ply,SBD,M
Boys,89.81,4,Pablo Garza,Brownsville Pace,85.68,183.7,127.01,217.72,528.44,Single-ply,SBD,M
Boys,89.81,5,Robert Rivas,Brownsville Porter,88.9,201.85,122.47,199.58,523.9,Single-ply,SBD,M
Boys,99.79,6,Juan Rodriguez,Brownsville Pace,89.86,167.83,122.47,158.76,449.06,Single-ply,SBD,M
Boys,89.81,DQ,Daniel Ramos,Brownsville Lopez,87.09,,,,,Single-ply,SBD,M
Boys,99.79,1,Angel Espinosa,Brownsville Rivera,96.89,249.48,170.1,258.55,678.12,Single-ply,SBD,M
Boys,99.79,2,Alex Valdez,Brownsville Hanna,97.3,233.6,151.95,233.6,619.15,Single-ply,SBD,M
Boys,109.77,3,Roger Rios,Brownsville Rivera,99.97,181.44,127.01,192.78,501.22,Single-ply,SBD,M
Boys,109.77,DQ,Lee Lozano,Brownsville Porter,99.97,,,,,Single-ply,SBD,M
Boys,109.77,1,Diego Moreno,Brownsville Hanna,106.23,242.67,145.15,244.94,632.76,Single-ply,SBD,M
Boys,109.77,2,Mike Alvarez,Brownsville Pace,105.05,263.08,131.54,201.85,596.47,Single-ply,SBD,M
Boys,109.77,3,Bryan Lawrence,Brownsville Veterans Memorial,101.6,226.8,131.54,231.33,589.67,Single-ply,SBD,M
Boys,109.77,4,Rolando Villanueva,Brownsville Hanna,108.23,226.8,145.15,204.12,576.06,Single-ply,SBD,M
Boys,109.77,5,Danny Gonzalez,Brownsville Pace,107.23,235.87,120.2,176.9,532.97,Single-ply,SBD,M
Boys,109.77,6,Sammy DeLeon,Brownsville Veterans Memorial,109.32,199.58,131.54,176.9,508.02,Single-ply,SBD,M
Boys,124.74,1,Rodney Morales,Brownsville Hanna,111.31,249.48,140.61,217.72,607.81,Single-ply,SBD,M
Boys,124.74,2,Justin Slovak,Brownsville Rivera,119.48,226.8,142.88,226.8,596.47,Single-ply,SBD,M
Boys,124.74,3,Jesus Casas,Brownsville Pace,112.31,210.92,156.49,226.8,594.21,Single-ply,SBD,M
Boys,124.74,4,Juan Lopez,Brownsville Porter,117.03,215.46,127.01,226.8,569.26,Single-ply,SBD,M
Boys,124.74,DQ,Jesse Guzman,Brownsville Veterans Memorial,116.3,,,,,Single-ply,SBD,M
Boys,124.74+,1,Jimmy DeLeon,Brownsville Veterans Memorial,159.3,317.51,181.44,238.14,737.09,Single-ply,SBD,M
Boys,124.74+,2,Gage Rivas,Brownsville Veterans Memorial,163.75,294.84,183.7,183.7,662.24,Single-ply,SBD,M
Boys,124.74+,3,Josh Trevino,Brownsville Lopez,136.98,233.6,147.42,242.67,623.69,Single-ply,SBD,M
Boys,124.74+,4,Christian Castro,Brownsville Pace,128.64,249.48,124.74,219.99,594.21,Single-ply,SBD,M
Boys,124.74+,5,Kevin Garcia,Brownsville Porter,130.45,240.4,167.83,183.7,591.94,Single-ply,SBD,M
Boys,124.74+,6,José Saldaña,Brownsville Rivera,173.64,165.56,97.52,183.7,446.79,Single-ply,SBD,M
