Division,WeightClassKg,Place,Name,Team,BodyweightKg,Best3SquatKg,Best3BenchKg,Best3DeadliftKg,TotalKg,Equipment,Event,Sex
Boys,51.71,1,Rico Rodriguez,Sonora,46.08,70.31,49.9,102.06,222.26,Single-ply,SBD,M
Boys,51.71,2,Gus Barrera,Sonora,51.62,56.7,45.36,102.06,204.12,Single-ply,SBD,M
Boys,55.79,1,Gunnar McNeill,San Angelo Grape Creek,54.88,136.08,58.97,145.15,340.19,Single-ply,SBD,M
Boys,59.87,2,Taylor White,San Angelo Grape Creek,55.88,115.67,65.77,115.67,297.1,Single-ply,SBD,M
Boys,55.79,DQ,Kevin Buitron,Sonora,54.16,108.86,,136.08,,Single-ply,SBD,M
Boys,59.87,1,Ryan Hurst,San Angelo Grape Creek,59.42,188.24,79.38,199.58,467.2,Single-ply,SBD,M
Boys,59.87,2,Michael Vargas,Ozona,58.69,158.76,83.91,172.37,415.04,Single-ply,SBD,M
Boys,67.13,3,Chris Cantu,Ozona,60.06,147.42,72.57,158.76,378.75,Single-ply,SBD,M
Boys,59.87,4,Will Dutton,Sonora,58.33,120.2,70.31,136.08,326.59,Single-ply,SBD,M
Boys,59.87,5,Dub Latham,Sonora,58.42,92.99,70.31,113.4,276.69,Single-ply,SBD,M
Boys,59.87,6,Tanner Esparza,Sonora,59.42,83.91,45.36,104.33,233.6,Single-ply,SBD,M
Boys,59.87,7,Rowdy Carlson,Brady,56.97,72.57,52.16,83.91,208.65,Single-ply,SBD,M
Boys,67.13,1,Edward Garza,Sonora,62.41,204.12,122.47,185.97,512.56,Single-ply,SBD,M
Boys,67.13,2,Jesus Vasquez,Sonora,65.5,158.76,102.06,151.95,412.77,Single-ply,SBD,M
Boys,67.13,3,Rodrigo Saldania,San Angelo Grape Creek,62.6,136.08,72.57,185.97,394.63,Single-ply,SBD,M
Boys,74.84,4,Jose Armendariz,San Angelo Grape Creek,67.22,138.35,79.38,165.56,383.29,Single-ply,SBD,M
Boys,67.13,5,Ryan Kennedy,Ozona,63.68,156.49,77.11,147.42,381.02,Single-ply,SBD,M
Boys,67.13,6,Mason Shoemaker,San Angelo Grape Creek,64.59,111.13,61.23,156.49,328.85,Single-ply,SBD,M
Boys,67.13,7,Rhett Guerra,Sonora,65.23,111.13,70.31,136.08,317.51,Single-ply,SBD,M
Boys,67.13,8,Stephen Medrano,San Angelo Grape Creek,65.14,113.4,63.5,133.81,310.71,Single-ply,SBD,M
Boys,67.13,9,Andy Pozos,Brady,65.68,102.06,61.23,136.08,299.37,Single-ply,SBD,M
Boys,67.13,10,Jonathan Gutierrez,Sonora,65.05,90.72,77.11,129.27,297.1,Single-ply,SBD,M
Boys,74.84,1,Aaron Castillo,Rankin,73.84,161.03,113.4,185.97,460.4,Single-ply,SBD,M
Boys,74.84,2,Garrett Mindrup,Midland Classical Academy,73.75,167.83,83.91,174.63,426.38,Single-ply,SBD,M
Boys,74.84,3,Jerry Trejo,Brady,70.76,142.88,97.52,181.44,421.84,Single-ply,SBD,M
Boys,74.84,4,Richerd Rushenberg,San Angelo Grape Creek,72.85,176.9,83.91,158.76,419.57,Single-ply,SBD,M
Boys,74.84,5,Luis Sanchez,Eldorado,74.39,147.42,92.99,161.03,401.43,Single-ply,SBD,M
Boys,74.84,6,Daniel Gonzales,Sonora,72.85,138.35,79.38,149.69,367.41,Single-ply,SBD,M
Boys,82.1,7,Adrian Revell,San Angelo Grape Creek,74.93,138.35,86.18,138.35,362.87,Single-ply,SBD,M
Boys,74.84,8,Jose Longoria,Sonora,73.94,108.86,88.45,136.08,333.39,Single-ply,SBD,M
Boys,74.84,9,Isaac Fraire,Sonora,68.49,106.59,74.84,149.69,331.12,Single-ply,SBD,M
Boys,74.84,10,Joe Scott Pace,Brady,71.67,113.4,72.57,142.88,328.85,Single-ply,SBD,M
Boys,74.84,11,Kevin O'Dell,San Angelo Grape Creek,74.66,113.4,68.04,145.15,326.59,Single-ply,SBD,M
Boys,74.84,12,Jarron Sandoval,Brady,72.12,106.59,58.97,136.08,301.64,Single-ply,SBD,M
Boys,74.84,13,Spencer Frost,Midland Classical Academy,73.94,111.13,65.77,113.4,290.3,Single-ply,SBD,M
Boys,74.84,14,Corley Walsh,Sonora,73.39,45.36,38.56,49.9,133.81,Single-ply,SBD,M
Boys,74.84,DQ,Michael Bell,Sonora,71.03,104.33,,142.88,,Single-ply,SBD,M
Boys,74.84,DQ,Brett Castillo,Sonora,68.95,158.76,,142.88,,Single-ply,SBD,M
Boys,82.1,1,Jacob Hodges,Brady,80.74,208.65,124.74,199.58,532.97,Single-ply,SBD,M
Boys,82.1,2,Bradley Martin,Brady,77.38,179.17,95.25,192.78,467.2,Single-ply,SBD,M
Boys,82.1,3,Michael Chavez,Sonora,76.02,142.88,81.65,163.29,387.82,Single-ply,SBD,M
Boys,82.1,4,Cody Phillips,Rankin,76.11,104.33,61.23,127.01,292.57,Single-ply,SBD,M
Boys,82.1,5,Erasmo Esquivel,Sonora,76.29,102.06,68.04,117.93,288.03,Single-ply,SBD,M
Boys,82.1,6,Isaiah Regeon,Brady,81.19,102.06,68.04,113.4,283.5,Single-ply,SBD,M
Boys,82.1,DQ,Daniel Lombrano,Ozona,81.1,145.15,,147.42,,Single-ply,SBD,M
Boys,89.81,1,Ryan Thomas,Rankin,88.36,199.58,124.74,204.12,528.44,Single-ply,SBD,M
Boys,89.81,2,Marcos Rodarte,San Angelo Grape Creek,88.9,204.12,97.52,219.99,521.63,Single-ply,SBD,M
Boys,89.81,3,Hector Reyes,Eldorado,87.09,172.37,77.11,179.17,428.64,Single-ply,SBD,M
Boys,89.81,4,Brandon Dominguez,Ozona,82.83,167.83,88.45,170.1,426.38,Single-ply,SBD,M
Boys,89.81,5,Efren Rodriguez,San Angelo Grape Creek,83.55,154.22,102.06,154.22,410.5,Single-ply,SBD,M
Boys,89.81,6,Taylor Riffe,Sonora,85.18,158.76,77.11,165.56,401.43,Single-ply,SBD,M
Boys,89.81,7,Tyler Barron,Midland Classical Academy,82.64,145.15,83.91,161.03,390.09,Single-ply,SBD,M
Boys,89.81,8,Ben Webb,Midland Classical Academy,87.82,127.01,92.99,149.69,369.68,Single-ply,SBD,M
Boys,89.81,9,Daniel Fu,Midland Classical Academy,84.91,140.61,81.65,142.88,365.14,Single-ply,SBD,M
Boys,89.81,10,Cj Camarillo,Brady,85.37,131.54,81.65,133.81,347,Single-ply,SBD,M
Boys,99.79,11,Emilio Mendez,Ozona,89.99,111.13,72.57,115.67,299.37,Single-ply,SBD,M
Boys,89.81,DQ,Hagen Kenedy,Sonora,83.64,129.27,,170.1,,Single-ply,SBD,M
Boys,89.81,DQ,Andres Acevedo,Sonora,83.19,149.69,,176.9,,Single-ply,SBD,M
Boys,89.81,DQ,Tyler Covey,Brady,85.55,147.42,113.4,,,Single-ply,SBD,M
Boys,99.79,1,Kirkland Weaver,Brady,91.17,192.78,95.25,185.97,474,Single-ply,SBD,M
Boys,99.79,2,Sam Powers,Sonora,93.89,154.22,102.06,181.44,437.72,Single-ply,SBD,M
Boys,99.79,3,Hazael Damian,Ozona,95.35,165.56,92.99,176.9,435.45,Single-ply,SBD,M
Boys,99.79,4,Blake Esparza,Sonora,99.7,158.76,99.79,176.9,435.45,Single-ply,SBD,M
Boys,99.79,5,Elijah Cross,Sonora,94.08,151.95,102.06,174.63,428.64,Single-ply,SBD,M
Boys,99.79,6,Alejandro Dominguez,Eldorado,96.34,140.61,95.25,190.51,426.38,Single-ply,SBD,M
Boys,99.79,7,David Gilbert,San Angelo Grape Creek,95.25,151.95,79.38,161.03,392.36,Single-ply,SBD,M
Boys,99.79,8,Wesley Haman,San Angelo Grape Creek,95.48,136.08,106.59,138.35,381.02,Single-ply,SBD,M
Boys,99.79,9,Rigo Rodriguez,Ozona,95.8,138.35,86.18,154.22,378.75,Single-ply,SBD,M
Boys,99.79,10,Jonathon Paredes,Sonora,92.99,124.74,74.84,158.76,358.34,Single-ply,SBD,M
Boys,99.79,11,Nathan Hill,Rankin,93.98,115.67,77.11,131.54,324.32,Single-ply,SBD,M
Boys,99.79,12,Aj Ramos,Ozona,93.44,115.67,56.7,117.93,290.3,Single-ply,SBD,M
Boys,109.77,1,Stephen Dominguez,Sonora,108.5,151.95,124.74,172.37,449.06,Single-ply,SBD,M
Boys,109.77,2,Michael Ybarra,Ozona,105.41,147.42,102.06,147.42,396.89,Single-ply,SBD,M
Boys,109.77,DQ,Kade Wimberly,Sonora,106.59,142.88,,158.76,,Single-ply,SBD,M
Boys,124.74,DQ,Alonzo Hernandez,Sonora,116.39,136.08,95.25,,,Single-ply,SBD,M
Boys,124.74+,1,Caleb Wrinkle,Rankin,126.73,206.38,131.54,233.6,571.53,Single-ply,SBD,M
Boys,,NS,Jacob Sanchez,Eldorado,,,,,,Single-ply,SBD,M
Boys,,NS,Chris Rendon,Sonora,,,,,,Single-ply,SBD,M
Boys,,NS,Michael Gonzales,Sonora,,,,,,Single-ply,SBD,M
