Division,WeightClassKg,Place,Name,Team,BodyweightKg,Best3SquatKg,Best3BenchKg,Best3DeadliftKg,TotalKg,Equipment,Event,Sex
Boys,51.71,1,Matthew Cruz,Hull-Daisetta,51.71,70.31,56.7,111.13,238.14,Single-ply,SBD,M
Boys,51.71,2,Trent Garza,Deweyville,50.8,65.77,52.16,83.91,201.85,Single-ply,SBD,M
Boys,55.79,1,Colten Smith,Kountze,55.79,131.54,83.91,147.42,362.87,Single-ply,SBD,M
Boys,55.79,2,Gavin Robles,Kountze,54.88,102.06,70.31,106.59,278.96,Single-ply,SBD,M
Boys,55.79,3,Darin Lavergne,Deweyville,54.88,83.91,54.43,90.72,229.06,Single-ply,SBD,M
Boys,59.87,1,Hunter Smart,Kountze,56.7,120.2,81.65,131.54,333.39,Single-ply,SBD,M
Boys,59.87,2,Luke Martin,High Island,56.25,124.74,90.72,106.59,322.05,Single-ply,SBD,M
Boys,59.87,3,Sam Collier,Saratoga West Hardin,59.87,106.59,72.57,102.06,281.23,Single-ply,SBD,M
Boys,67.13,1,Triston Gordon,Deweyville,64.41,136.08,92.99,158.76,387.82,Single-ply,SBD,M
Boys,67.13,2,Martin Doucet,Hull-Daisetta,65.32,120.2,97.52,167.83,385.55,Single-ply,SBD,M
Boys,67.13,3,Joe Young,Saratoga West Hardin,62.14,102.06,65.77,167.83,335.66,Single-ply,SBD,M
Boys,67.13,4,Seth Mounts,Kountze,60.15,113.4,74.84,115.67,303.91,Single-ply,SBD,M
Boys,67.13,5,Caleb Deberge,Hull-Daisetta,63.28,113.4,52.16,136.08,301.64,Single-ply,SBD,M
Boys,67.13,6,Billy Rolig,Hull-Daisetta,62.14,102.06,56.7,127.01,285.76,Single-ply,SBD,M
Boys,67.13,DQ,Justice Howell,Chester,66.22,,,,,Single-ply,SBD,M
Boys,74.84,1,Shedric Deblanc,Hull-Daisetta,74.8,163.29,113.4,181.44,458.13,Single-ply,SBD,M
Boys,74.84,2,Trevor Knox,Deweyville,68.49,133.81,90.72,149.69,374.21,Single-ply,SBD,M
Boys,74.84,3,David Blake,Kountze,73.21,120.2,88.45,165.56,374.21,Single-ply,SBD,M
Boys,74.84,4,Austin Brewer,Hull-Daisetta,72.57,115.67,74.84,142.88,333.39,Single-ply,SBD,M
Boys,74.84,DQ,Marcus Hafford,Kountze,68.95,,,,,Single-ply,SBD,M
Boys,74.84,DQ,Tylor Schnarrs,Hull-Daisetta,73.48,,,,,Single-ply,SBD,M
Boys,82.1,1,Jordan Gary,Deweyville,79.38,133.81,104.33,158.76,396.89,Single-ply,SBD,M
Boys,82.1,2,Cj Schley,High Island,82.1,149.69,79.38,156.49,385.55,Single-ply,SBD,M
Boys,82.1,3,Rodney Richerson,Deweyville,80.74,124.74,92.99,158.76,376.48,Single-ply,SBD,M
Boys,89.81,1,Brian Adams,Saratoga West Hardin,84.82,136.08,102.06,165.56,403.7,Single-ply,SBD,M
Boys,89.81,DQ,Jesse Basham,Saratoga West Hardin,89.36,,,,,Single-ply,SBD,M
Boys,89.81,DQ,Cader Powell,Chester,89.36,,,,,Single-ply,SBD,M
Boys,99.79,1,Jonathan Walters,Kountze,96.34,140.61,83.91,170.1,394.63,Single-ply,SBD,M
Boys,109.77,1,John Erwin,Kountze,103.15,145.15,104.33,176.9,426.38,Single-ply,SBD,M
Boys,109.77,2,Jose Arriga,Deweyville,107.5,140.61,108.86,154.22,403.7,Single-ply,SBD,M
Boys,109.77,3,Trevor Budro,Hull-Daisetta,107.95,136.08,83.91,161.03,381.02,Single-ply,SBD,M
Boys,109.77,4,Gary Baker,Kountze,107.32,99.79,68.04,133.81,301.64,Single-ply,SBD,M
Boys,109.77,DQ,Caleb Bass,Deweyville,107.05,,,,,Single-ply,SBD,M
Boys,124.74,1,Collin Chesson,Saratoga West Hardin,119.29,226.8,136.08,222.26,585.13,Single-ply,SBD,M
Boys,124.74,2,Dalton Marsh,Deweyville,117.93,181.44,113.4,188.24,483.08,Single-ply,SBD,M
Boys,124.74,3,Caleb Atkins,Kountze,116.57,165.56,113.4,174.63,453.59,Single-ply,SBD,M
Boys,124.74,4,Chance Hickman,Saratoga West Hardin,116.57,163.29,102.06,165.56,430.91,Single-ply,SBD,M
Boys,124.74,5,Dakota Ford,Hull-Daisetta,112.49,147.42,97.52,161.03,405.97,Single-ply,SBD,M
Boys,124.74+,1,Ben Carpenter,Deweyville,130.18,181.44,102.06,181.44,464.93,Single-ply,SBD,M
Boys,124.74+,2,Joshua Trevino,Deweyville,128.37,158.76,97.52,161.03,417.3,Single-ply,SBD,M
