Division,Sex,WeightClassKg,BodyweightKg,Name,Country,Squat1Kg,Squat2Kg,Squat3Kg,Best3SquatKg,Bench1Kg,Bench2Kg,Bench3Kg,Bench4Kg,Best3BenchKg,Deadlift1Kg,Deadlift2Kg,Deadlift3Kg,Deadlift4Kg,Best3DeadliftKg,TotalKg,Place,Event,Equipment
Sub-Juniors,M,52,51.5,Batir Sultanov,Uzbekistan,120,-130,-130,120,60,-65,-65,,60,130,140,-145,,140,320,2,SBD,Single-ply
Sub-Juniors,M,52,50.75,Roman Mokshin,Kazakhstan,120,130,140,140,80,-87.5,87.5,,87.5,-150,150,-165,,150,377.5,1,SBD,Single-ply
Juniors,M,52,51.25,Rajinder Singh,India,180,187.5,195,195,80,85,87.5,,87.5,200,-210,210,,210,492.5,1,SBD,Single-ply
Juniors,M,52,51.1,Huan Chun Chou,Taiwan,160,170,185,185,75,80,85,,85,170,180,-190,,180,450,3,SBD,Single-ply
Juniors,M,52,51.25,Ilhom Buriev,Uzbekistan,160,170,-185,170,100,105,110,,110,160,170,180,,180,460,2,SBD,Single-ply
Open,M,52,51.25,Zufar Khodiev,Uzbekistan,150,160,170,170,87.5,92.5,97.5,,97.5,175,190,195,,195,462.5,1,SBD,Single-ply
Open,M,52,51.9,Taguibao Antonio,Philippines,165,172.5,177.5,177.5,80,85,87.5,,87.5,172.5,187.5,197.5,,197.5,462.5,2,SBD,Single-ply
Masters 1,M,52,51.9,Taguibao Antonio,Philippines,165,172.5,177.5,177.5,80,85,87.5,,87.5,172.5,187.5,197.5,,197.5,462.5,1,SBD,Single-ply
Masters 1,M,52,51.9,Behera Kirtan,India,130,140,147.5,147.5,70,72.5,75,,75,150,165,170,,170,392.5,2,SBD,Single-ply
Masters 2,M,52,51,Chatterjee Pijus,India,140,147.5,157.5,157.5,65,-70,70,,70,160,172.5,180,,180,407.5,1,SBD,Single-ply
Masters 3,M,52,50.25,Thomas Panattu Matai,India,90,100,107.5,107.5,45,-50,52.5,,52.5,115,125,130,,130,290,2,SBD,Single-ply
Masters 3,M,52,50.75,Kim-Won Pok,Hong Kong,95,-110,110,110,65,70,72.5,,72.5,110,120,132.5,,132.5,315,1,SBD,Single-ply
Sub-Juniors,M,56,54.6,Hadzibay Hadjibayev,Tajikistan,50,80,100,100,50,70,-77.5,,70,80,110,-127.5,,110,280,2,SBD,Single-ply
Sub-Juniors,M,56,54,Artem Nikitin,Kazakhstan,100,107.5,-110,107.5,55,60,62.5,,62.5,100,110,-127.5,,110,280,1,SBD,Single-ply
Juniors,M,56,56,Vara Prasad Naga,India,170,180,187.5,187.5,-95,95,97.5,,97.5,180,-195,-195,,180,465,4,SBD,Single-ply
Juniors,M,56,55.75,Yi-Hsin Kuan,Taiwan,170,180,185,185,97.5,105,-110,,105,197.5,207.5,-215,,207.5,497.5,2,SBD,Single-ply
Juniors,M,56,54.6,Kuat Sarbalayev,Kazakhstan,170,180,187.5,187.5,110,-117.5,117.5,,117.5,180,190,197.5,,197.5,502.5,1,SBD,Single-ply
Juniors,M,56,54.35,Andrey Mehmonhodjaev,Uzbekistan,-160,-170,170,170,75,80,-85,,80,160,170,-180,,170,420,5,SBD,Single-ply
Juniors,M,56,55.6,Oleg Butenko,Kazakhstan,165,175,-182.5,175,112.5,-117.5,117.5,,117.5,175,185,190,,190,482.5,3,SBD,Single-ply
Open,M,56,55.95,Francis Jentry,India,-185,-185,185,185,115,125,-130,,125,225,235,-242.5,,235,545,3,SBD,Single-ply
Open,M,56,55.65,Azat Rakhmankulov,Uzbekistan,180,205,215,215,105,-110,120,,120,220,240,-247.5,,240,575,2,SBD,Single-ply
Open,M,56,56,Vadamalai Loganathan,India,215,225,232.5,232.5,105,112.5,-117.5,,112.5,215,227.5,237.5,,237.5,582.5,1,SBD,Single-ply
Masters 2,M,56,55.25,Zhaksaluk Abdrahmanov,Kazakhstan,100,110,117.5,117.5,70,-77.5,-77.5,,70,105,115,122.5,,122.5,310,1,SBD,Single-ply
Sub-Juniors,M,60,59.4,Aleksey Shopen'ko,Uzbekistan,140,150,170,170,85,92.5,-97.5,,92.5,160,-175,-175,,160,422.5,2,SBD,Single-ply
Sub-Juniors,M,60,59.5,Elmir Tugushev,Kazakhstan,-170,-170,-170,,,,,,,,,,,,,DQ,SBD,Single-ply
Sub-Juniors,M,60,60,Timur Hakimdjanov,Uzbekistan,170,185,-200,185,90,100,105,,105,160,-172.5,172.5,,172.5,462.5,1,SBD,Single-ply
Sub-Juniors,M,60,59.8,Bekhmurad Gatiyev,Turkmenistan,130,135,-145,135,80,90,-95,,90,155,170,-172.5,,170,395,3,SBD,Single-ply
Juniors,M,60,60,Chih-Lun Su,Taiwan,210,-220,220,220,130,-137.5,137.5,,137.5,225,235,-242.5,,235,592.5,1,SBD,Single-ply
Juniors,M,60,58.7,Ravil Nasyrov,Uzbekistan,180,185,200,200,90,110,120,,120,160,202.5,210,,210,530,2,SBD,Single-ply
Open,M,60,58.6,Tsung-Ting Hsieh,Taiwan,-210,-210,210,210,-150,150,160,,160,250,257.5,-265,,257.5,627.5,1,SBD,Single-ply
Open,M,60,59.4,S.V.S. Kamath,India,185,195,-200,195,85,92.5,95,,95,185,200,210,,210,500,3,SBD,Single-ply
Open,M,60,59.7,Pandian Raja,India,210,220,227.5,227.5,120,127.5,130,,130,220,235,245,,245,602.5,2,SBD,Single-ply
Open,M,60,60,Merdan Nursahafov,Turkmenistan,120,,,120,-135,135,142.5,,142.5,150,,,,150,412.5,4,SBD,Single-ply
Masters 1,M,60,59.4,S.V.S. Kamath,India,185,195,-200,195,85,92.5,95,,95,185,200,210,,210,500,1,SBD,Single-ply
Masters 2,M,60,58.1,Viktor Ronzhin,Kazakhstan,100,120,-130,120,65,72.5,-75,,72.5,120,140,152.5,,152.5,345,1,SBD,Single-ply
Sub-Juniors,M,67.5,67.45,Konstantin Fairushin,Kazakhstan,190,200,-210,200,120,125,130,,130,230,240,245,,245,575,1,SBD,Single-ply
Sub-Juniors,M,67.5,66.65,Singh Harinderpal,India,160,170,-180,170,125,-132.5,132.5,,132.5,170,185,,,185,487.5,3,SBD,Single-ply
Sub-Juniors,M,67.5,66.3,Seyran Aliyev,Turkmenistan,170,190,195,195,100,-105.0,-105,,100,190,200,205,,205,500,2,SBD,Single-ply
Sub-Juniors,M,67.5,64.8,Chun Nien Hsieh,Taiwan,175,-182.5,190,190,75,85,95,,95,170,185,-202.5,,185,470,4,SBD,Single-ply
Juniors,M,67.5,61.35,Alexander Samsonov,Kazakhstan,190,200,210,210,100,110,-115,,110,190,210,-237.5,,210,530,3,SBD,Single-ply
Juniors,M,67.5,61.1,Rishat Safin,Uzbekistan,140,-155,-155,140,80,-82.5,82.5,,82.5,150,,,,150,372.5,6,SBD,Single-ply
Juniors,M,67.5,65.2,Rana Adeel,Pakistan,220,235,-240,235,145,-155,-155,,145,250,267.5,-270,,267.5,647.5,1,SBD,Single-ply
Juniors,M,67.5,65.3,Eldar Gadirmametov,Turkmenistan,155,160,-172.5,160,95,105,110,,110,202.5,212.5,-222.5,,212.5,482.5,5,SBD,Single-ply
Juniors,M,67.5,67.3,Furkat Abdullayev,Tajikistan,150,170,-180,170,100,120,-122.5,,120,150,205,-222.5,,205,495,4,SBD,Single-ply
Juniors,M,67.5,67.5,Heidar Musuev,Kazakhstan,180,190,202.5,202.5,110,-120,130,,130,200,210,225,,225,557.5,2,SBD,Single-ply
Open,M,67.5,65.2,Rana Adeel,Pakistan,220,235,-240,235,145,-155,-155,,145,250,267.5,-270,,267.5,647.5,3,SBD,Single-ply
Open,M,67.5,67.5,Alexey Sivokon,Kazakhstan,250,-260,,250,190,200,210,,210,250,270,300,,300,760,1,SBD,Single-ply
Open,M,67.5,67.2,Almabek Urazbayev,Kazakhstan,250,260,-270,260,-145,145,150,,150,260,270,280,,280,690,2,SBD,Single-ply
Open,M,67.5,67.5,Richie Rosales Enrique,Philippines,-160,160,-210,160,-160,160,-182.5,,160,75,,,,75,395,6,SBD,Single-ply
Open,M,67.5,64.35,Kun Wei Chang,Taiwan,205,220,230,230,-95,100,-110,,100,225,230,250,,250,580,4,SBD,Single-ply
Open,M,67.5,66.95,Akil Berdiarov,Uzbekistan,180,200,-207.5,200,115,125,132.5,,132.5,-180,180,200,,200,532.5,5,SBD,Single-ply
Masters 1,M,67.5,66,Igor Bezrukov,Kazakhstan,160,170,-175,170,115,120,125,,125,160,170,180,,180,475,1,SBD,Single-ply
Masters 2,M,67.5,67.15,Babu Mahto Shyam,India,-160,-160,160,160,92.5,100,105,,105,170,182.5,190,,190,455,1,SBD,Single-ply
Masters 2,M,67.5,66.8,Nikolay Kashevarov,Kazakhstan,100,-107.5,107.5,107.5,75,-80,-80,,75,145,155,165,,165,347.5,2,SBD,Single-ply
Masters 3,M,67.5,66.75,Rafail Abdurakhmanov,Kazakhstan,115,125,-130,125,70,75,-80,,75,160,170,180,,180,380,1,SBD,Single-ply
Sub-Juniors,M,75,74.65,Ivan Prokopenko,Kazakhstan,202.5,217.5,225,225,115,125.5,127.5,,127.5,222.5,-242.5,-242.5,,222.5,575,1,SBD,Single-ply
Sub-Juniors,M,75,68.8,Ghorge Kiran S,India,175,-190,-190,175,100,107.5,-112.5,,107.5,-180,180,182.5,,182.5,465,2,SBD,Single-ply
Juniors,M,75,74,Vladimir Klimov,Kazakhstan,250,270,280,280,145,155,160,,160,247.5,270,-280,,270,710,1,SBD,Single-ply
Juniors,M,75,74.3,Vadim Binko',Uzbekistan,220,230,240,240,150,-160,-160,,150,230,-235,-235,,230,620,3,SBD,Single-ply
Juniors,M,75,74.8,Pavel Brindin,Uzbekistan,-250,250,260,260,140,150,-155,,150,235,245,-247.5,,245,655,2,SBD,Single-ply
Juniors,M,75,72.1,Ching Lung Tsai,Taiwan,220,-235,235,235,125,135,-140,,135,240,-255,-265,,240,610,4,SBD,Single-ply
Masters 2,M,75,74,Juriy Tsoy,Kazakhstan,190,210,-220,210,115,125,130,,130,220,230,-245,,230,570,1,SBD,Single-ply
Masters 2,M,75,68.2,Yuiy Tsoyi,Uzbekistan,170,180,190,190,90,100,,,100,170,185,190,,190,480,2,SBD,Single-ply
Masters 3,M,75,73.05,Talipbek Alzhanov,Kazakhstan,135,145,150,150,90,95,100,,100,160,170,185,,185,435,1,SBD,Single-ply
Open,M,75,74.8,Davranbek Turakhanov,Kazakhstan,285,300,-310,300,160,170,-177.5,,170,285,300,-310,,300,770,1,SBD,Single-ply
Open,M,75,71.85,Lung-Hsin Huang,Taiwan,230,250,-255,250,165,180,190,,190,260,280,-300,,280,720,2,SBD,Single-ply
Open,M,75,73.8,Khosravi Mani,Iran,235,250,260,260,160,170,175,,175,250,265,270,,270,705,3,SBD,Single-ply
Masters 1,M,75,73.8,Khosravi Mani,Iran,235,250,260,260,160,170,175,,175,250,265,270,,270,705,1,SBD,Single-ply
Masters 1,M,75,73.5,Gasan Gadjiev,Kazakhstan,180,190,-195,190,115,122.5,-127.5,,122.5,205,215,-220,,215,527.5,3,SBD,Single-ply
Masters 1,M,75,73.95,Abdulbariya Fataliyev,Kazakhstan,180,192.5,197.5,197.5,135,145,-150,,145,190,200,205,,205,547.5,2,SBD,Single-ply
Masters 1,M,75,71.95,Habibillo Kadirov,Uzbekistan,150,170,185,185,110,125,130,,130,170,202.5,-220,,202.5,517.5,4,SBD,Single-ply
Sub-Juniors,M,82.5,80.1,Daniel Shimonyak,Kazakhstan,210,220,-230,220,115,-125,,,115,230,235,240,,240,575,1,SBD,Single-ply
Sub-Juniors,M,82.5,81.5,Nikolay Dizindorf,Kazakhstan,-200,200,-205,200,115,-120,,,115,190,200,210,,210,525,2,SBD,Single-ply
Sub-Juniors,M,82.5,76.45,Dattary Kudale Manoj,India,180,-190,-190,180,90,95,-97.5,,95,180,190,-195,,190,465,3,SBD,Single-ply
Masters 1,M,82.5,82.5,Maksut Eliseyev,Kazakhstan,220,-240,-250,220,-150,-160,160,,160,260,280,-300,,280,660,1,SBD,Single-ply
Masters 1,M,82.5,79.6,Thaikkattussery V K P,India,-200,200,-210,200,130,135,140,,140,220,235,-242.5,,235,575,2,SBD,Single-ply
Masters 1,M,82.5,77.55,Youg Soo Lee,South Korea,200,220,-232.5,220,-130,-130,130,,130,160,180,200,,200,550,3,SBD,Single-ply
Masters 1,M,82.5,77.5,Erejepbay Almagambetov,Uzbekistan,100,110,,110,70,-80.0,-80.0,,70,115,130,150,,150,330,4,SBD,Single-ply
Masters 2,M,82.5,82,Viktor Golovkin,Kazakhstan,220,235,245,245,120,125,130,,130,220,230,245,,245,620,1,SBD,Single-ply
Masters 2,M,82.5,75.9,Ramana Murthy V V,India,150,-165,165,165,60,70,77.5,,77.5,150,160,170,,170,412.5,2,SBD,Single-ply
Masters 2,M,82.5,76.1,Turgun Kujametov,Uzbekistan,-160,160,170,170,-75,75,-85,,75,120,150,-165,,150,395,3,SBD,Single-ply
Masters 3,M,82.5,80.25,Anatoliy Volkov,Kazakhstan,145,150,,150,70,-75,75,,75,145,160,175,,175,400,1,SBD,Single-ply
Masters 3,M,82.5,77.45,Aaya Konar Veluswami,India,100,110,-120,110,55,-65,65,,65,105,115,125,,125,300,2,SBD,Single-ply
Juniors,M,82.5,82,Chia-Hao Kuo,Taiwan,230,-252.5,-252.5,230,135,137.5,142.5,,142.5,240,270,-285,,270,642.5,3,SBD,Single-ply
Juniors,M,82.5,81.2,Hussain Qamar,Pakistan,250,262.5,270,270,120,130,-137.5,,130,275,292.5,297.5,,297.5,697.5,2,SBD,Single-ply
Juniors,M,82.5,82.5,Anatoliy Nikitin,Kazakhstan,272.5,285,295,295,160,170,175,,175,285,300,310,,310,780,1,SBD,Single-ply
Juniors,M,82.5,78.7,Rustam Nuraev,Uzbekistan,220,-235,-235,220,90,,,,90,260,-280,-285,,260,570,4,SBD,Single-ply
Juniors,M,82.5,75.5,Azam Kadeerov,Tajikistan,115,-130,-145,115,80,100,-110,,100,160,175,-185,,175,390,5,SBD,Single-ply
Juniors,M,82.5,80.5,R Mingaliev,Uzbekistan,-210,-220,-220,,,,,,,,,,,,,DQ,SBD,Single-ply
Open,M,82.5,81.2,Hussain Qamar,Pakistan,250,262.5,270,270,120,130,-137.5,,130,275,292.5,297.5,,297.5,697.5,5,SBD,Single-ply
Open,M,82.5,81.4,Singh Jeevan,India,270,-280,-280,270,155,162.5,-165,,162.5,270,280,-290,,280,712.5,4,SBD,Single-ply
Open,M,82.5,81.5,Konstantin Khardin,Uzbekistan,260,275,285,285,145,152.5,157.5,,157.5,270,290,295,,295,737.5,1,SBD,Single-ply
Open,M,82.5,82,Soltani Farshid,Iran,275,285,-292.5,285,180,-190,-190,,180,255,270,272.5,,272.5,737.5,2,SBD,Single-ply
Open,M,82.5,81.4,Ruslan Adjiosmanov,Uzbekistan,255,-270,270,270,165,172.5,177.5,,177.5,250,265,-275,,265,712.5,3,SBD,Single-ply
Open,M,82.5,82.05,Pawar R R,India,220,230,-240,230,130,140,142.5,,142.5,220,235,242.5,,242.5,615,6,SBD,Single-ply
Open,M,82.5,81.9,Erdene Davaatseren Munkh,Mongolia,200,-210,215,215,162.5,172.5,-177.5,,172.5,200,215,225,,225,612.5,7,SBD,Single-ply
Open,M,82.5,76.7,Davron Nabiyev,Tajikistan,130,145,160,160,100,120,-130,,120,140,160,180,,180,460,8,SBD,Single-ply
Sub-Juniors,M,90,82.7,Mikhail Kudryavtsev,Kazakhstan,220,230,235,235,120,125,127.5,,127.5,210,225,-250,,225,587.5,1,SBD,Single-ply
Sub-Juniors,M,90,85.5,Chiung-Te Wu,Taiwan,200,220,235,235,110,120,-122.5,,120,180,200,210,,210,565,2,SBD,Single-ply
Masters 1,M,90,89.6,Vyacheslav Buzuyev,Kazakhstan,270,280,,280,-185,185,190,,190,250,265,,,265,735,1,SBD,Single-ply
Masters 1,M,90,89.25,Buddha V Satyanarayana,India,-230,230,-275,230,120,127.5,135,,135,215,235,245,,245,610,2,SBD,Single-ply
Masters 1,M,90,88.85,Valeriy Tovshtein,Kazakhstan,-135,135,145,145,110,-120,,,110,140,150,170,,170,425,3,SBD,Single-ply
Masters 2,M,90,89,Sunrav Khukhuu,Mongolia,100,115,122.5,122.5,80,85,90,,90,110,130,150,,150,362.5,1,SBD,Single-ply
Juniors,M,90,89.65,Dmitriy Vorona,Kazakhstan,310,330,337.5,337.5,180,190,-195,,190,300,310,317.5,330.5,317.5,845,1,SBD,Single-ply
Juniors,M,90,87.3,Alash Mamabayev,Kazakhstan,270,285,-292.5,285,165,180,-185,,180,260,280,-290,,280,745,2,SBD,Single-ply
Juniors,M,90,86.7,Dinis Mel'nikov,Uzbekistan,240,250,252.5,252.5,145,155,160,,160,250,270,280,,280,692.5,3,SBD,Single-ply
Juniors,M,90,88.7,Tandon Pradeep,India,240,-247.5,-247.5,240,170,-175,-175,,170,210,-220,-220,,210,620,4,SBD,Single-ply
Open,M,90,89.65,Dmitriy Vorona,Kazakhstan,310,330,337.5,337.5,180,190,-195,,190,300,310,317.5,,317.5,845,1,SBD,Single-ply
Open,M,90,89.8,Alexander Beligov,Kazakhstan,310,-325,332.5,332.5,192.5,200,-207.5,,200,285,292.5,300,,300,832.5,2,SBD,Single-ply
Open,M,90,89.35,Bautista James,Philippines,160,,,160,185,-192.5,-192.5,,185,165,,,,165,510,6,SBD,Single-ply
Open,M,90,86.9,Gumathninayagam S,India,260,270,277.5,277.5,150,157.5,160,,160,250,260,267.5,,267.5,705,4,SBD,Single-ply
Open,M,90,83.1,Sergey Fatiev,Uzbekistan,250,270,-277.5,270,140,155,160,,160,240,-255,-255,,240,670,5,SBD,Single-ply
Open,M,90,88.6,Charan Singh Kharb,India,260,-270,-270,260,145,150,152.5,,152.5,285,292.5,295,,295,707.5,3,SBD,Single-ply
Sub-Juniors,M,100,93.95,Che-Jung Hsu,Taiwan,-210,210,240,240,110,120,125,,125,200,-220,-220.0,,200,565,1,SBD,Single-ply
Sub-Juniors,M,100,98.8,Aamir Hussain Syed,Pakistan,150,-170,170,170,85,95,-100,,95,170,180,,,180,445,2,SBD,Single-ply
Masters 1,M,100,95.9,Ilfat Araslanov,Kazakhstan,220,,,220,160,-175,180,,180,240,-260.0,-260,,240,640,2,SBD,Single-ply
Masters 1,M,100,93.75,Aleksandr Luzanov,Uzbekistan,260,275,285,285,180,195,205,,205,-280,280,310,,310,800,1,SBD,Single-ply
Masters 2,M,100,91.6,Nikolay Redkin,Kazakhstan,120,140,150,150,75,85,-90,,85,140,160,170,,170,405,2,SBD,Single-ply
Masters 2,M,100,93.05,R Tuaev,Uzbekistan,180,-200,210,210,110,115,-120,,115,200,230,255,,255,580,1,SBD,Single-ply
Masters 3,M,100,92.9,Valeriy Novik,Kazakhstan,-160,160,190,190,100,115,120,,120,180,205,215,,215,525,1,SBD,Single-ply
Juniors,M,100,97.7,Maxim Chernenko,Kazakhstan,290,302.5,-312.5,302.5,200,210,-215,,210,250,272.5,-282.5,,272.5,785,2,SBD,Single-ply
Juniors,M,100,95.9,Imran Khalid Muhammad,Pakistan,310,325,340.5,340.5,200,212.5,217.5,220.5,217.5,300,317.5,323,,323,881,1,SBD,Single-ply
Open,M,100,95.9,Imran Khalid Muhammad,Pakistan,310,325,340.5,340.5,200,212.5,217.5,220.5,217.5,300,317.5,323,,323,881,1,SBD,Single-ply
Open,M,100,99.8,Dmitriy Panfilov,Kazakhstan,300,,,300,-235,242.5,247.5,,247.5,310,-320,-325.0,,310,857.5,2,SBD,Single-ply
Open,M,100,93.7,Hitoshi Nakamura,Japan,-290,290,302.5,302.5,-200,-200,-200,,,302.5,,,,302.5,,DQ,SBD,Single-ply
Open,M,100,93.75,Aleksandr Luzanov,Uzbekistan,260,275,285,285,180,195,205,,205,-280,280,310,,310,800,3,SBD,Single-ply
Open,M,100,97.05,Byachim Amanmuradyev,Turkmenistan,220,-240,250,250,150,160,165,,165,215,-235,,,215,630,4,SBD,Single-ply
Sub-Juniors,M,110,100.5,Alexander Titayev,Kazakhstan,180,200,-215,200,110,125,-132.5,,125,180,200,220,,220,545,1,SBD,Single-ply
Masters 1,M,110,105.2,Singh Nirmaljit,India,265,275,280,280,155,162.5,167.5,,167.5,265,275,285,,285,732.5,1,SBD,Single-ply
Masters 1,M,110,100.05,Alexander Krovikov,Uzbekistan,230,250,260,260,150,165,170,,170,230,250,-260,,250,680,2,SBD,Single-ply
Masters 1,M,110,100.7,Valeriy Kim,Uzbekistan,140,-160,-180,140,120,-140,-150,,120,150,160,-170,,160,420,4,SBD,Single-ply
Masters 1,M,110,104.4,Kamath Laxman,India,-250,-250,250,250,140,150,155,,155,250,-270,-270,,250,655,3,SBD,Single-ply
Masters 2,M,110,107.2,Igor Bezruchenko,Kazakhstan,250,260,275,275,160,172.5,182.5,,182.5,250,-260,,,250,707.5,1,SBD,Single-ply
Masters 3,M,110,104.3,Nikolay Glushkov,Kazakhstan,180,182.5,-190,182.5,100,110,-115,,110,180,190,,,190,482.5,1,SBD,Single-ply
Masters 3,M,110,109.05,Ronald Bernvald,Kazakhstan,-150,-150,-150,,,,,,,,,,,,,DQ,SBD,Single-ply
Juniors,M,110,102.3,Dmitriy Fateyev,Kazakhstan,330,345,352.5,352.5,212.5,-225,227.5,,227.5,337.5,345,350,,350,930,1,SBD,Single-ply
Juniors,M,110,100.95,Sardor Tuychiev,Uzbekistan,220,240,-260,240,130,-140,,,130,250,270,-290,,270,640,2,SBD,Single-ply
Open,M,110,102.3,Dmitriy Fateyev,Kazakhstan,330,345,352.5,352.5,212.5,-225,227.5,,227.5,337.5,345,350,,350,930,1,SBD,Single-ply
Open,M,110,109.75,Kairat Aliev,Kazakhstan,340,-350,358,358,215,-220,220,,220,342.5,350,-355,,350,927.5,2,SBD,Single-ply
Open,M,110,104.9,Fatemi Mehdi,Iran,320,335,340,340,235,242.5,245,,245,310,330,-342.5,,330,915,3,SBD,Single-ply
Open,M,110,100.7,Edward Torres Peter,Philippines,290,320,-335,320,-160,160,-177.5,,160,285,310,-330,,310,790,4,SBD,Single-ply
Open,M,110,104.05,Ching-Chung Chen,Taiwan,260,280,-300,280,170,-190,190,,190,250,262.5,-272.5,,262.5,732.5,6,SBD,Single-ply
Open,M,110,102.7,Sergey Rahimgaraev,Uzbekistan,-280,280,-285,280,160,170,-175,,170,280,-290,290,,290,740,5,SBD,Single-ply
Open,M,110,101.6,Evgeniy Tolstov,Uzbekistan,-270,-270,-270,,,,,,,,,,,,,DQ,SBD,Single-ply
Open,M,110,104.45,Sardesai Sanjay,India,-260,-260,-260,,,,,,,,,,,,,DQ,SBD,Single-ply
Open,M,110,108.2,Altangerel Bujinlkham,Mongolia,-240,-245,250,250,-192.5,202.5,-207.5,,202.5,210,225,235,,235,687.5,7,SBD,Single-ply
Juniors,M,125,110.5,Anatoliy Sinyavskiy,Kazakhstan,240,270,280,280,150,170,180,,180,270,305,326,333,326,786,1,SBD,Single-ply
Juniors,M,125,111.4,Kumar Rajinder,India,200,220,250,250,120,-135,-142.5,,120,230,-250,250,,250,620,2,SBD,Single-ply
Open,M,125,124.6,Sergey Semenets,Kazakhstan,315,325,332.5,332.5,210,220,225,,225,325,-342.5,-347.5,,325,882.5,2,SBD,Single-ply
Open,M,125,110.1,Radik Gayanov,Kazakhstan,320,340,-355,340,220,230,240,,240,290,310,322.5,,322.5,902.5,1,SBD,Single-ply
Open,M,125,112.65,Xavier Vedamani,India,320,330,-337.5,330,172.5,180,185,,185,230,-270,,,230,745,4,SBD,Single-ply
Open,M,125,124.9,Sergey Trubitsin,Uzbekistan,280,300,310,310,190,-210,210,,210,-270,270,275,,275,795,3,SBD,Single-ply
Masters 1,M,125,111,Alkadiy Nikitin,Kazakhstan,260,290,320,320,180,200,210,,210,250,275,300,,300,830,1,SBD,Single-ply
Masters 1,M,125,119.3,Dhanan Naresh,India,160,220,-250,220,110,130,150,,150,150,,,,150,520,2,SBD,Single-ply
Masters 2,M,125,111.8,Lavrentiy Matinyan,Uzbekistan,230,250,280,280,150,165,175,,175,220,240,260,,260,715,1,SBD,Single-ply
Sub-Juniors,M,125+,149,Erlan Tursunov,Kazakhstan,120,130,150,150,80,85,90,,90,120,130,140,,140,380,1,SBD,Single-ply
Juniors,M,125+,138,Vitaliy Han,Kazakhstan,240,250,-260,250,120,130,-140,,130,200,215,220,,220,600,3,SBD,Single-ply
Juniors,M,125+,129,Dil'shot Abdurahimov,Uzbekistan,200,215,225,225,150,160,170,,170,190,210,220,,220,615,2,SBD,Single-ply
Juniors,M,125+,147.25,Jagwinder Singh Cheema,India,250,275,,275,190,205,,,205,200,220,230,,230,710,1,SBD,Single-ply
Open,M,125+,147.25,Jagwinder Singh Cheema,India,250,275,,275,190,205,,,205,200,220,230,,230,710,4,SBD,Single-ply
Open,M,125+,160.1,Sergey Yakovlev,Kazakhstan,320,340,350,350,-220,220,230,,230,320,338,347.5,,347.5,927.5,2,SBD,Single-ply
Open,M,125+,145,Chien-Hsiung Chao,Taiwan,350,362.5,-372.5,362.5,-220,220,-237.5,,220,300,320,-335,,320,902.5,3,SBD,Single-ply
Open,M,125+,130.4,Fatemi Mehrab,Iran,340,360,-372.5,360,240,255,-262.5,,255,320,335,-347,,335,950,1,SBD,Single-ply
Sub-Juniors,F,44,43.25,Yuan-Min Chen,Taiwan,-95,-95,95,95,35,42.5,-47.5,,42.5,110,120,128,,128,265,1,SBD,Single-ply
Juniors,F,44,43.5,Karnati Radha,India,100,-110.0,-110,100,40,45,-47.5,,45,110,120,127.5,,127.5,272.5,1,SBD,Single-ply
Juniors,F,44,42.75,Valentina Rashektaeva,Kazakhstan,50,-60,70,70,30,37.5,-45,,37.5,60,75,80,,80,187.5,2,SBD,Single-ply
Open,F,44,43.7,Ch.V.S.N.L. Renuka,India,90,-105,-105,90,45,50,55,,55,100,115,,,115,260,1,SBD,Single-ply
Sub-Juniors,F,48,47.75,Kseniya Uryupova,Kazakhstan,82.5,87.5,92.5,92.5,50,52.5,-55,,52.5,-95,100,-110,,100,245,3,SBD,Single-ply
Sub-Juniors,F,48,47.85,Aigul Ahmetova,Kazakhstan,-100,100,-110,100,-40,40,52.5,,52.5,100,110,120,,120,272.5,1,SBD,Single-ply
Sub-Juniors,F,48,47.05,Anna Vasina,Uzbekistan,-90,90,-95,90,40,45,47.5,,47.5,105,115,120,,120,257.5,2,SBD,Single-ply
Sub-Juniors,F,48,47,Oksans Palyanova,Uzbekistan,65,75,-82.5,75,40,-47.5,47.5,,47.5,90,100,-110,,100,222.5,4,SBD,Single-ply
Juniors,F,48,44.8,Rani Asha,India,100,110,115,115,50,55,-57.5,,55,110,117.5,127.5,,127.5,297.5,1,SBD,Single-ply
Juniors,F,48,47.25,Roopsingh Anitha,India,100,-115,115,115,45,-52.5,52.5,,52.5,100,112.5,-130,,112.5,280,2,SBD,Single-ply
Open,F,48,44.45,Pe Anjanette,Philippines,60,75,-85,75,50,52.5,-57.5,,52.5,-80,80,-110,,80,207.5,2,SBD,Single-ply
Open,F,48,47.85,Aigul Ahmetova,Kazakhstan,-100,100,-110,100,-40,40,52.5,,52.5,100,110,120,,120,272.5,1,SBD,Single-ply
Sub-Juniors,F,52,50.9,Veronika Mahonina,Kazakhstan,110,120,-125,120,55,-60,60,,60,125,135,142.5,,142.5,322.5,1,SBD,Single-ply
Sub-Juniors,F,52,50.75,Shu-Ching Chang,Taiwan,110,-125,-125,110,40,47.5,50,,50,120,130,137.5,,137.5,297.5,2,SBD,Single-ply
Sub-Juniors,F,52,49.45,Nivas Patil Sushama,India,85,-95,95,95,25,-30,-30,,25,90,100,107.5,,107.5,227.5,3,SBD,Single-ply
Juniors,F,52,51.55,Nataliya Yakovleva,Kazakhstan,105,115,125,125,72.5,77.5,82.5,,82.5,105,115,-120,,115,322.5,1,SBD,Single-ply
Juniors,F,52,50.7,Ekatirina Zaharova,Uzbekistan,60,75,85,85,30,-40,-40,,30,80,85,,,85,200,2,SBD,Single-ply
Open,F,52,51.2,Yi-Ju Chou,Taiwan,140,155,-160,155,65,75,-80,,75,160,175,185.5,,185.5,415,1,SBD,Single-ply
Open,F,52,51.25,Aikerim Sundetova,Kazakhstan,-110,110,-117.5,110,67.5,72.5,77.5,,77.5,130,-140,140,,140,327.5,2,SBD,Single-ply
Open,F,52,50.6,Muhtaram Alieva,Uzbekistan,90,95,-100,95,40,45,50,,50,110,115,-122.5,,115,260,4,SBD,Single-ply
Open,F,52,51.55,Nataliya Yakovleva,Kazakhstan,105,115,125,125,72.5,77.5,82.5,,82.5,105,115,-120,,115,322.5,3,SBD,Single-ply
Masters 1,F,52,51.55,Valetina Fedoseyeva,Kazakhstan,110,120,-130,120,62.5,-67.5,67.5,,67.5,130,140,150,,150,337.5,1,SBD,Single-ply
Sub-Juniors,F,56,55.3,Wei-Jung Tseng,Taiwan,130,-135.0,-135,130,50,57.5,-65,,57.5,-130,130,-140,,130,317.5,1,SBD,Single-ply
Juniors,F,56,55.55,Bahu Farooque Shabeena,India,130,140,150,150,55,60,65,,65,130,135,140,,140,355,1,SBD,Single-ply
Open,F,56,55.15,Irina Krotkova,Kazakhstan,155,160,165,165,82.5,87.5,90,,90,160,167.5,175,,175,430,1,SBD,Single-ply
Open,F,56,53.9,Naidu Badeti Tejaswini,India,140,150,160,160,77.5,-82.5,-82.5,,77.5,150,-160.0,-160.0,,150,387.5,2,SBD,Single-ply
Open,F,56,55.65,Wing-Yuk Ip,Hong Kong,80,95,102.5,102.5,50,57.5,-60,,57.5,95,117.5,120,,120,280,3,SBD,Single-ply
Masters 1,F,56,55.65,Wing-Yuk Ip,Hong Kong,80,95,102.5,102.5,50,57.5,-60,,57.5,95,117.5,120,,120,280,1,SBD,Single-ply
Sub-Juniors,F,60,57.7,Shu-Jung Wang,Taiwan,115,130,140,140,57.5,70,-72.5,,70,130,-150.0,-150.0,,130,340,1,SBD,Single-ply
Sub-Juniors,F,60,56.7,Mahbuba Zaharova,Uzbekistan,100,115,125,125,50,60,-65,,60,110,125,130,,130,315,2,SBD,Single-ply
Sub-Juniors,F,60,58.6,Tatiyana Zakharova,Kazakhstan,80,-90,90,90,45,-52.5,52.5,,52.5,85,95,100,,100,242.5,3,SBD,Single-ply
Juniors,F,60,59.6,Aigul Gaifullina,Kazakhstan,175,185,195,195,100,107.5,112.5,,112.5,200,210,-212.5,,210,517.5,1,SBD,Single-ply
Juniors,F,60,59.9,Anastassiya Gafurova,Kazakhstan,40,,,40,25,,,,25,50,,,,50,115,2,SBD,Single-ply
Open,F,60,59.6,Aigul Gaifullina,Kazakhstan,175,185,195,195,100,107.5,112.5,,112.5,200,210,-212.5,,210,517.5,1,SBD,Single-ply
Open,F,60,59.45,Hsiao-Li Hsu,Taiwan,167.5,175,180,180,100,105,-110,,105,190,197.5,-210,,197.5,482.5,3,SBD,Single-ply
Open,F,60,60,Nadejda Malyugina,Uzbekistan,180,200,210,210,80,90,95,,95,170,190,-195,,190,495,2,SBD,Single-ply
Sub-Juniors,F,67.5,61.35,Ting-Yi Chen,Taiwan,125,135,145,145,-65,65,70,,70,140,150,-160,,150,365,1,SBD,Single-ply
Sub-Juniors,F,67.5,65.7,Ekaterina Kryukova,Kazakhstan,110,120,127.5,127.5,45,50,55,,55,110,120,130,,130,312.5,2,SBD,Single-ply
Juniors,F,67.5,62.9,Hsiu-Jung Lo,Taiwan,155,165,-172.5,165,60,75,82.5,,82.5,160,170,175,,175,422.5,1,SBD,Single-ply
Juniors,F,67.5,67.5,Yelena Gafurova,Kazakhstan,130,140,147.5,147.5,70,77.5,82.5,,82.5,122.5,132.5,-137.5,,132.5,362.5,2,SBD,Single-ply
Juniors,F,67.5,67.5,Das Rupali,India,135,-140,140,140,45,52.5,55,,55,130,137.5,140,,140,335,3,SBD,Single-ply
Open,F,67.5,63.8,Valida Iskandarova,Kazakhstan,210,217.5,,217.5,112.5,117.5,120.5,,120.5,210,217.5,-222.5,,217.5,555,1,SBD,Single-ply
Open,F,67.5,65.55,Anastasiya Smirnova,Kazakhstan,135,-140,145,145,80,-90,90,,90,130,140,-145,,140,375,3,SBD,Single-ply
Open,F,67.5,65.6,Zoya Kozlan,Uzbekistan,140,150,160,160,85,95,97.5,,97.5,140,155,162.5,,162.5,420,2,SBD,Single-ply
Masters 2,F,67.5,65.6,Zoya Kozlan,Uzbekistan,140,150,160,160,85,95,97.5,,97.5,140,155,162.5,,162.5,420,1,SBD,Single-ply
Sub-Juniors,F,75,68.9,Dinara Shokayeva,Kazakhstan,90,100,-107.5,100,50,-55,-55,,50,105,110,117.5,,117.5,267.5,1,SBD,Single-ply
Sub-Juniors,F,75,72.45,Jagtap Kadambari D,India,100,-107.5,-107.5,100,35,40,-42.5,,40,100,110,-127.5,,110,250,2,SBD,Single-ply
Juniors,F,75,74.3,Tatyana Zinoviyeva,Kazakhstan,115,-125,135,135,75,82.5,-87.5,,82.5,115,125,132.5,,132.5,350,2,SBD,Single-ply
Juniors,F,75,72.05,Natalya Beskakoba,Kazakhstan,120,130,145,145,72.5,77.5,-85,,77.5,130,145,155,,155,377.5,1,SBD,Single-ply
Open,F,75,69.6,Veronika Pogreban,Kazakhstan,180,-190,-190,180,105,110,-115,,110,170,185,200,,200,490,1,SBD,Single-ply
Open,F,75,73.4,Bhagwat Madhuri,India,170,185,192.5,192.5,80,-90,90,,90,160,175,-195,,175,457.5,2,SBD,Single-ply
Open,F,75,74.9,Job Blessy,India,140,165,175,175,60,-70,-70,,60,150,170,-185,,170,405,3,SBD,Single-ply
Sub-Juniors,F,82.5,78.7,Ya-Feng Yang,Taiwan,130,-140,140,140,60,67.5,72.5,,72.5,115,130,-140,,130,342.5,1,SBD,Single-ply
Juniors,F,82.5,76.85,Tatyana Kudryavtseva,Kazakhstan,215,230,-240,230,145,-156,156,,156,200,215,230,,230,616,1,SBD,Single-ply
Juniors,F,82.5,79.4,Ya-Wen Chang,Taiwan,-170,170,190,190,90,97.5,-100,,97.5,165,172.5,-175,,172.5,460,2,SBD,Single-ply
Juniors,F,82.5,80.9,Venera Ragabova,Uzbekistan,175,-185,185,185,85,92.5,-95,,92.5,155,165,-167.5,,165,442.5,3,SBD,Single-ply
Open,F,82.5,76.85,Tatyana Kudryavtseva,Kazakhstan,215,230,-240,230,145,-156,156,,156,200,215,230,,230,616,1,SBD,Single-ply
Open,F,82.5,80.75,Larissa Garkina,Kazakhstan,150,-165,170,170,97.5,102.5,107.5,,107.5,162.5,172.5,177.5,,177.5,455,2,SBD,Single-ply
Open,F,82.5,80.9,Venera Ragabova,Uzbekistan,175,-185,185,185,85,92.5,-95,,92.5,155,165,-167.5,,165,442.5,3,SBD,Single-ply
Open,F,82.5,82.5,Deepali Umakant Kulkarni,India,155,162.5,-167.5,162.5,55,60,62.5,,62.5,140,152.5,-162.5,,152.5,377.5,4,SBD,Single-ply
Juniors,F,90,90,Chauhan Nilofar,India,110,-120,-120,110,35,40,45,,45,110,120,127.5,,127.5,282.5,2,SBD,Single-ply
Juniors,F,90,85.6,Yuliya Stesenko,Uzbekistan,150,180,190,190,95,110,-117.5,,110,145,160,177.5,,177.5,477.5,1,SBD,Single-ply
Open,F,90,82.8,Min-Chu Hung,Taiwan,180,195,-205,195,150,157.5,170.5,,170.5,160,170,-182.5,,170,535,1,SBD,Single-ply
Open,F,90,85.05,Thavarajan Chitra,India,180,-190,-190,180,80,-85,85,,85,150,160,170,,170,435,3,SBD,Single-ply
Open,F,90,85.6,Yuliya Stesenko,Uzbekistan,150,180,190,190,95,110,-117.5,,110,145,160,177.5,,177.5,477.5,2,SBD,Single-ply
Open,F,90,86.6,Mendon Bhanumati,India,-130,-130,130,130,-50,50,-55,,50,120,135,150,,150,330,4,SBD,Single-ply
Masters 1,F,90,86.6,Mendon Bhanumati,India,-130,-130,130,130,-50,50,-55,,50,120,135,150,,150,330,1,SBD,Single-ply
Open,F,90+,118.2,Chen-Yeh Chao,Taiwan,250,270,,270,185,190,-195,,190,215,-230,230,,230,690,1,SBD,Single-ply
Open,F,90+,91.6,Guha Sampa,India,170,-190,-190,170,80,-87.5,87.5,,87.5,140,150,160,,160,417.5,2,SBD,Single-ply
Open,F,90+,100.95,Malika,India,150,170,190,190,45,52.5,57.5,,57.5,130,150,162.5,,162.5,410,3,SBD,Single-ply
