Place,Name,BodyweightKg,WeightClassKg,Team,Squat1Kg,Squat2Kg,Squat3Kg,Best3SquatKg,Bench1Kg,Bench2Kg,Bench3Kg,Best3BenchKg,Deadlift1Kg,Deadlift2Kg,Deadlift3Kg,Best3DeadliftKg,TotalKg,AgeClass,Event,Equipment,Sex,Division
1,Roger Powell,59.8,60,NM,140,150,160,160,70,80,90,90,180,200,-210,200,450,59.5-69,SBD,Single-ply,M,Open
2,Bob Sullivan,58.85,60,SM,110,120,-130,120,70,75,77.5,77.5,160,170,177.5,177.5,375,59.5-69,SBD,Single-ply,M,Open
3,Rod Owers,59.25,60,NI,115,125,130,130,57.5,62.5,65,65,140,150,155,155,350,59.5-69,SBD,Single-ply,M,Open
1,Bob Alecock,66.7,67.5,SW,-205,-205,205,205,100,107.5,-110,107.5,205,215,-220,215,527.5,59.5-69,SBD,Single-ply,M,Open
2,Pete Hillyard,66.8,67.5,EM,132.5,-142.5,-142.5,132.5,87.5,95,100,100,150,165,175,175,407.5,59.5-69,SBD,Single-ply,M,Open
1,George Leggett,74,75,EM,185,195,-200,195,105,110,115,115,200,210,220,220,530,59.5-69,SBD,Single-ply,M,Open
2,Chris Gannon,69.5,75,WM,150,-160,160,160,80,87.5,90,90,180,185,-190,185,435,59.5-69,SBD,Single-ply,M,Open
3,Dennis Unitt,75,75,WM,130,-135,135,135,85,92.5,100,100,150,160,,160,395,59.5-69,SBD,Single-ply,M,Open
1,Brian Tuffnell,80.55,82.5,WM,165,175,180,180,115,120,125,125,205,217.5,225,225,530,59.5-69,SBD,Single-ply,M,Open
2,Norm Anderson,81.65,82.5,YNE,185,-195,-200,185,120,127.5,132.5,132.5,192.5,212.5,-217.5,212.5,530,59.5-69,SBD,Single-ply,M,Open
3,Henry Clark,82.25,82.5,SM,-180,180,-190,180,80,87.5,92.5,92.5,180,190,-200,190,462.5,59.5-69,SBD,Single-ply,M,Open
1,Chas Crawford,87.75,90,SC,220,232.5,240,240,115,120,125,125,220,237.5,245,245,610,59.5-69,SBD,Single-ply,M,Open
2,Ken Parry,83.1,90,NW,185,190,195,195,120,-130,-130,120,220,225,-230,225,540,59.5-69,SBD,Single-ply,M,Open
3,Ted Cooper,88,90,SE,190,-205,-205,190,115,-125,125,125,205,-215,-215,205,520,59.5-69,SBD,Single-ply,M,Open
4,Alan Oldershaw,85.9,90,GL,140,150,,150,100,105,110,110,180,200,210,210,470,59.5-69,SBD,Single-ply,M,Open
1,Keith Clarke,91.5,100,EM,205,220,-230,220,130,135,140,140,210,225,235,235,595,59.5-69,SBD,Single-ply,M,Open
2,Gavin Walker,93.1,100,YNE,185,195,205,205,100,107.5,112.5,112.5,205,220,230,230,547.5,59.5-69,SBD,Single-ply,M,Open
1,Hugh McGhee,59.5,60,SC,150,160,170,170,95,102.5,107.5,107.5,165,182.5,190,190,467.5,49.5-59,SBD,Single-ply,M,Open
1,John Hibbert,67.45,67.5,SE,185,197.5,202.5,202.5,130,135,137.5,137.5,215,227.5,235,235,575,49.5-59,SBD,Single-ply,M,Open
2,Ray Fraser,66.9,67.5,SC,175,185,192.5,192.5,122.5,127.5,130,130,220,235,-242.5,235,557.5,49.5-59,SBD,Single-ply,M,Open
3,Mick James,65.5,67.5,SM,170,180,-187.5,180,130,135,137.5,137.5,195,205,210,210,527.5,49.5-59,SBD,Single-ply,M,Open
4,Martin Rhodes,67.2,67.5,YNE,150,160,165,165,90,95,100,100,170,-180,,170,435,49.5-59,SBD,Single-ply,M,Open
5,Trevor Hardy,65.85,67.5,NI,132.5,140,145,145,70,75,-77.5,75,180,195,-202.5,195,415,49.5-59,SBD,Single-ply,M,Open
1,John Russell,74.7,75,SE,220,235,245,245,135,140,145,145,220,232.5,240,240,630,49.5-59,SBD,Single-ply,M,Open
2,Stan Macrow,72.6,75,WM,192.5,-202.5,202.5,202.5,135,140,-142.5,140,205,217.5,-225,217.5,560,49.5-59,SBD,Single-ply,M,Open
3,Amrik Singh,72.65,75,YNE,-180,185,195,195,110,117.5,122.5,122.5,200,215,220,220,537.5,49.5-59,SBD,Single-ply,M,Open
4,Jim Watson,74.1,75,SC,185,195,-205,195,97.5,105,-110,105,192.5,205,-210,205,505,49.5-59,SBD,Single-ply,M,Open
1,Michael Hunnum,81.95,82.5,YNE,225,240,-250,240,150,157.5,162.5,162.5,227.5,242.5,-257.5,242.5,645,49.5-59,SBD,Single-ply,M,Open
2,Tony White,80.95,82.5,WM,210,215,225,225,140,150,157.5,157.5,225,235,,235,617.5,49.5-59,SBD,Single-ply,M,Open
3,Alan Twigg,81.8,82.5,YNE,180,190,200,200,125,132.5,-140,132.5,200,215,-232.5,215,547.5,49.5-59,SBD,Single-ply,M,Open
4,Rowland Bonner,79.5,82.5,SE,180,190,200,200,110,115,-120,115,180,200,210,210,525,49.5-59,SBD,Single-ply,M,Open
1,Ian Douglas,85.1,90,SE,220,232.5,237.5,237.5,142.5,-147.5,147.5,147.5,265,280,287.5,287.5,672.5,49.5-59,SBD,Single-ply,M,Open
2,Ron Vaughan,85.1,90,WM,225,-240,240,240,120,-125,125,125,235,260,275,275,640,49.5-59,SBD,Single-ply,M,Open
3,Dave Battison,88.65,90,EM,200,210,-220,210,130,135,140,140,220,230,232.5,232.5,582.5,49.5-59,SBD,Single-ply,M,Open
4,Alex Mathieson,88.85,90,SC,200,-215,215,215,125,130,132.5,132.5,225,230,232.5,232.5,580,49.5-59,SBD,Single-ply,M,Open
5,Andy Davies,88.7,90,NM,190,200,210,210,120,125,130,130,225,-240,-240,225,565,49.5-59,SBD,Single-ply,M,Open
6,Ken Williams,89.55,90,Wales,190,-205,-205,190,122.5,127.5,130,130,220,230,240,240,560,49.5-59,SBD,Single-ply,M,Open
7,Brian Baker,89.35,90,SC,-182.5,190,200,200,120,125,-130,125,-227.5,227.5,-240,227.5,552.5,49.5-59,SBD,Single-ply,M,Open
DQ,Ralph Sample,87.4,90,YNE,-185,-205,-205,,,,,,,,,,,49.5-59,SBD,Single-ply,M,Open
1,Tony Baker,98.8,100,WM,180,200,220,220,155,-167.5,170,170,210,225,240,240,630,49.5-59,SBD,Single-ply,M,Open
1,Clive Shepherd,103.15,110,WM,210,225,232.5,232.5,117.5,125,-127.5,125,217.5,230,237.5,237.5,595,49.5-59,SBD,Single-ply,M,Open
2,Ken Crickmore,108.5,110,GL,220,230,235,235,135,-140,140,140,202.5,210,-222.5,210,585,49.5-59,SBD,Single-ply,M,Open
3,George Magennis,102,110,NI,-180,180,200,200,120,130,142.5,142.5,200,220,-227.5,220,562.5,49.5-59,SBD,Single-ply,M,Open
1,Mick King,118.95,125,WM,-230,230,240,240,180,200,210,210,220,240,255,255,705,49.5-59,SBD,Single-ply,M,Open
2,John Halfacre,114,125,SE,235,250,260,260,125,135,142.5,142.5,235,250,-262.5,250,652.5,49.5-59,SBD,Single-ply,M,Open
