Place,WeightClassKg,Sex,Division,Name,BirthYear,Country,BodyweightKg,Squat1Kg,Squat2Kg,Squat3Kg,Best3SquatKg,Bench1Kg,Bench2Kg,Bench3Kg,Best3BenchKg,Deadlift1Kg,Deadlift2Kg,Deadlift3Kg,Best3DeadliftKg,TotalKg,Squat4Kg,Bench4Kg,Event,Equipment
1,52,M,Juniors,Phil Richard,1971,UK,51.7,170,180,187.5,187.5,95,100,-102.5,100,172.5,-182.5,182.5,182.5,470,,,SBD,Single-ply
2,52,M,Juniors,P.K. Srivastaya,1966,India,52,180,190,-195,190,92.5,97.5,100,100,172.5,-182.5,-182.5,172.5,462.5,,,SBD,Single-ply
3,52,M,Juniors,Bernie Miller,1967,USA,51.9,-155,-155,155,155,-112.5,112.5,-117.5,112.5,157.5,167.5,-170,167.5,435,,,SBD,Single-ply
4,52,M,Juniors,Chun-Chie Lee,1971,Taiwan,51.7,-170,-170,170,170,-80,80,85,85,165,172.5,-180,172.5,427.5,,,SBD,Single-ply
5,52,M,Juniors,Thierry Brunat,1967,France,51.7,130,140,-145,140,85,90,92.5,92.5,170,180,192.5,192.5,425,,,SBD,Single-ply
6,52,M,Juniors,Morten Bergersen,1970,Norway,50.1,147.5,155,160,160,77.5,80,-82.5,80,150,-155,155,155,395,,,SBD,Single-ply
7,52,M,Juniors,Matti Laatikainen,1972,Finland,51.7,-132.5,-132.5,135,135,82.5,-87.5,-87.5,82.5,155,162.5,167.5,167.5,385,,,SBD,Single-ply
8,52,M,Juniors,Peter Råberg,1967,Sweden,50.9,135,145,-150,145,67.5,72.5,-75,72.5,145,155,-160,155,372.5,,,SBD,Single-ply
9,52,M,Juniors,Chih-Chiao Huang,1969,Taiwan,51.6,130,-137.5,-137.5,130,85,-90,-90,85,140,150,-165,150,365,,,SBD,Single-ply
1,56,M,Juniors,Fabio Ambrosin,1966,Italy,55,190,-200,-200,190,-97.5,100,-102.5,100,205,215,217.5,217.5,507.5,,,SBD,Single-ply
2,56,M,Juniors,Magnus Carlsson,1967,Sweden,55.8,235,-250,-250,235,140,-150,-150,140,115,122.5,-132.5,122.5,497.5,,,SBD,Single-ply
3,56,M,Juniors,Jagdish Lal,1969,India,55.5,185,195,-202.5,195,85,92.5,-95,92.5,192.5,197.5,-200,197.5,485,,,SBD,Single-ply
4,56,M,Juniors,Asko Sirviö,1968,Finland,55.8,165,172.5,-177.5,172.5,117.5,122.5,-125,122.5,180,187.5,-192.5,187.5,482.5,,,SBD,Single-ply
5,56,M,Juniors,Joachim Mödl,1966,West Germany,56,165,175,180,180,92.5,-97.5,97.5,97.5,185,195,200,200,477.5,,,SBD,Single-ply
1,60,M,Juniors,Sandeep Sawant,1966,India,59.9,200,207.5,-212.5,207.5,105,110,112.5,112.5,250,260,-270,260,580,,,SBD,Single-ply
2,60,M,Juniors,Jean-Max Riviere,1969,France,59.9,190,200,-205,200,117.5,122.5,125,125,-200,200,210,210,535,,,SBD,Single-ply
3,60,M,Juniors,Rune Berger,1967,Norway,59.6,185,192.5,-197.5,192.5,105,110,-112.5,110,185,192.5,-197.5,192.5,495,,,SBD,Single-ply
4,60,M,Juniors,Timo Hyvärinen,1968,Finland,59.6,170,175,-182.5,175,105,110,-112.5,110,-190,200,-205,200,485,,,SBD,Single-ply
5,60,M,Juniors,Torbjörn Jönsson,1967,Sweden,59.7,155,167.5,-172.5,167.5,95,102.5,-105,102.5,190,197.5,205,205,475,,,SBD,Single-ply
6,60,M,Juniors,Michel Bulsei,1966,Belgium,59.9,-177.5,177.5,-185,177.5,95,102.5,-105,102.5,187.5,-207.5,-207.5,187.5,467.5,,,SBD,Single-ply
7,60,M,Juniors,Ulf Andersson,1969,Sweden,59.7,155,-167.5,-167.5,155,-100,100,-107.5,100,187.5,192.5,-197.5,192.5,447.5,,,SBD,Single-ply
8,60,M,Juniors,David Kent,1966,Australia,59.3,165,175,-182.5,175,110,-115,-115,110,150,-160,-162.5,150,435,,,SBD,Single-ply
DQ,60,M,Juniors,Will Taylor,1969,USA,58.7,-207.5,-207.5,-207.5,,,,,,,,,,,,,SBD,Single-ply
DD,60,M,Juniors,H. Dadapeer,1969,India,59.5,,,,,,,,,,,,,,,,SBD,Single-ply
1,67.5,M,Juniors,Kader Baali,1968,France,67.2,215,-227.5,230,230,145,152.5,-157.5,152.5,235,245,252.5,252.5,635,,,SBD,Single-ply
2,67.5,M,Juniors,Jussi Huhtanen,1967,Finland,66.8,230,240,-245,240,-120,-120,120,120,245,255,-262.5,255,615,,,SBD,Single-ply
3,67.5,M,Juniors,Jarmo Laine,1966,Finland,67.4,215,225,230,230,140,-145,-145,140,-230,230,237.5,237.5,607.5,,,SBD,Single-ply
4,67.5,M,Juniors,Krister Renman,1966,Sweden,67,220,232.5,-237.5,232.5,125,132.5,-137.5,132.5,-230,230,-235,230,595,,,SBD,Single-ply
5,67.5,M,Juniors,G.P. Rajappa,1967,India,67.2,205,215,220,220,130,-137.5,137.5,137.5,225,-240,-242.5,225,582.5,,,SBD,Single-ply
6,67.5,M,Juniors,Ken Jackson,1966,UK,67.2,200,210,220,220,115,122.5,127.5,127.5,220,230,-235,230,577.5,,,SBD,Single-ply
7,67.5,M,Juniors,Glyn Merrith,1970,UK,66.5,200,215,-220,215,110,115,-120,115,215,225,235,235,565,,,SBD,Single-ply
8,67.5,M,Juniors,Philippe Hoareau,1968,France,67.1,210,220,-225,220,110,-120,120,120,210,222.5,-230,222.5,562.5,,,SBD,Single-ply
9,67.5,M,Juniors,Kuo-Feng Tsai,1970,Taiwan,66.8,195,210,-225,210,100,-110,-110,100,-210,215,237.5,237.5,547.5,,,SBD,Single-ply
10,67.5,M,Juniors,Arne Brovold,1970,Norway,67.1,207.5,220,-225,220,112.5,-117.5,117.5,117.5,200,210,-215,210,547.5,,,SBD,Single-ply
11,67.5,M,Juniors,Magnus Källmén,1968,Sweden,67,-190,190,,190,135,140,-142.5,140,185,-197.5,-197.5,185,515,,,SBD,Single-ply
12,67.5,M,Juniors,David Baker #3,1966,Canada,65.1,170,185,,185,130,137.5,140,140,170,,,170,495,,,SBD,Single-ply
13,67.5,M,Juniors,John O'Donnel,1967,Ireland,66.8,175,185,-192.5,185,85,-92.5,-92.5,85,205,220,-230,220,490,,,SBD,Single-ply
1,75,M,Juniors,Jack Tice,1966,USA,74.6,250,-255,255,255,162.5,170,175,175,265,272.5,282.5,282.5,712.5,,,SBD,Single-ply
2,75,M,Juniors,Jari Nurmi,1966,Finland,74.9,220,230,-235,230,150,-155,-155,150,270,280,-282.5,280,660,,,SBD,Single-ply
3,75,M,Juniors,John Andersson,1966,Sweden,74.5,235,250,-255,250,152.5,157.5,-160,157.5,235,247.5,-252.5,247.5,655,,,SBD,Single-ply
4,75,M,Juniors,Nikolaj Holsting,1966,Norway,74.6,240,250,-255,250,120,-125,125,125,267.5,-275,275,275,650,,,SBD,Single-ply
5,75,M,Juniors,Ferdinand Pesendörfer,1967,Austria,74.7,245,-255,-255,245,137.5,142.5,-145,142.5,240,250,-257.5,250,637.5,,,SBD,Single-ply
6,75,M,Juniors,Øyvind Bjørnsen,1970,Norway,74,210,-220,-220,210,160,167.5,-172.5,167.5,235,240,-245,240,617.5,,,SBD,Single-ply
7,75,M,Juniors,Shyam Sharma,1966,India,74.8,-240,-240,240,240,112.5,117.5,122.5,122.5,255,-265,,255,617.5,,,SBD,Single-ply
8,75,M,Juniors,Mario Schnurr,1966,West Germany,74.3,215,230,-240,230,120,125,-127.5,125,225,242.5,250,250,605,,,SBD,Single-ply
9,75,M,Juniors,Sabino Pisani,1967,Italy,73.3,-230,230,240,240,110,115,-117.5,115,230,240,-255,240,595,,,SBD,Single-ply
10,75,M,Juniors,Lawrence Mentesh,1967,UK,74.2,210,220,225,225,125,130,132.5,132.5,230,237.5,-247.5,237.5,595,,,SBD,Single-ply
11,75,M,Juniors,Erwin Krokkee,1966,Netherlands,74.3,205,217.5,-222.5,217.5,140,145,-147.5,145,220,232.5,-237.5,232.5,595,,,SBD,Single-ply
12,75,M,Juniors,Jeevan Singh,1968,India,70.9,-240,240,-245,240,110,117.5,120,120,220,230,-240,230,590,,,SBD,Single-ply
13,75,M,Juniors,Vincent Grelet,1966,France,73.5,200,215,220,220,130,-137.5,137.5,137.5,220,230,-237.5,230,587.5,,,SBD,Single-ply
14,75,M,Juniors,Franz van Haaren,1966,Netherlands,74.2,215,-222.5,-222.5,215,117.5,122.5,-125,122.5,-240,240,-252.5,240,577.5,,,SBD,Single-ply
15,75,M,Juniors,Giovanni Ritucci,1966,Switzerland,74,215,222.5,-227.5,222.5,105,110,112.5,112.5,240,-250,-250,240,575,,,SBD,Single-ply
DQ,75,M,Juniors,Dirk v.d. Heyden,1968,Belgium,73.2,205,-215,215,215,117.5,-122.5,-122.5,117.5,-250,-250,-250,,,,,SBD,Single-ply
1,82.5,M,Juniors,Kjell Kaspersen,1968,Norway,81.4,300,315,320,320,150,155,160,160,265,275,280,280,760,,,SBD,Single-ply
2,82.5,M,Juniors,Pierre Fogelberg,1966,Sweden,80.4,260,280,-290,280,160,-167.5,167.5,167.5,270,282.5,-312.5,282.5,730,,,SBD,Single-ply
3,82.5,M,Juniors,Brian Skibyak,1967,USA,81.7,230,240,250,250,152.5,160,165,165,272.5,282.5,-285,282.5,697.5,,,SBD,Single-ply
4,82.5,M,Juniors,Tor-Kjeld Jevne,1966,Norway,82.5,250,-265,-265,250,155,160,-165,160,265,277.5,-290,277.5,687.5,,,SBD,Single-ply
5,82.5,M,Juniors,Kevin Hammerton,1966,UK,82.4,250,-265,-265,250,132.5,140,147.5,147.5,250,260,-265,260,657.5,,,SBD,Single-ply
6,82.5,M,Juniors,David Cretzan,1967,Ireland,80,-225,225,235,235,130,135,137.5,137.5,-235,235,-247.5,235,607.5,,,SBD,Single-ply
DQ,82.5,M,Juniors,Jürgen Hoffart,1966,West Germany,80.7,-265,265,-272.5,265,160,-167.5,-167.5,160,-260,-260,-260,,,,,SBD,Single-ply
DQ,82.5,M,Juniors,Tyler Malejko,1966,USA,81.9,247.5,255,265,265,145,155,-162.5,155,-290,-290,-290,,,,,SBD,Single-ply
DQ,82.5,M,Juniors,Cheng-Chiung Chen,1969,Taiwan,82.5,192.5,-202.5,-202.5,192.5,107.5,-112.5,,107.5,-237.5,-237.5,-237.5,,,,,SBD,Single-ply
1,90,M,Juniors,Kimmo Ilmanen,1967,Finland,89.7,285,300,-307.5,300,-187.5,187.5,-192.5,187.5,285,295,302.5,302.5,790,,,SBD,Single-ply
2,90,M,Juniors,Brad Cooper,1966,Australia,89,270,-295,-295,270,170,180,-185,180,280,300,-315,300,750,,,SBD,Single-ply
3,90,M,Juniors,Ari Hujanen,1966,Finland,89.7,-290,290,300,300,155,160,-165,160,275,285,290,290,750,,,SBD,Single-ply
4,90,M,Juniors,Carl Christoffersen,1968,Norway,87.8,265,280,285,285,170,177.5,-182.5,177.5,255,267.5,272.5,272.5,735,,,SBD,Single-ply
5,90,M,Juniors,Derek Pomana,1966,New Zealand,89.7,270,285,295,295,170,-180,,170,270,-275,-282.5,270,735,,,SBD,Single-ply
6,90,M,Juniors,Carmen Perotta,1967,USA,89,270,-282.5,-282.5,270,157.5,162.5,-165,162.5,272.5,292.5,-317.5,292.5,725,,,SBD,Single-ply
7,90,M,Juniors,Miguel Marie-Sainte,1968,France,88.2,245,255,262.5,262.5,175,185,-190,185,250,265,-272.5,265,712.5,,,SBD,Single-ply
8,90,M,Juniors,Olaf Nimmerfroh,1971,West Germany,89,275,290,-300,290,150,157.5,-162.5,157.5,240,-252.5,-252.5,240,687.5,,,SBD,Single-ply
9,90,M,Juniors,Clive Henry,1966,UK,88.4,250,265,275,275,150,-160,-162.5,150,260,-270,-270,260,685,,,SBD,Single-ply
10,90,M,Juniors,Bjørn Hansen,1967,Norway,89.8,250,265,272.5,272.5,140,-147.5,150,150,240,247.5,-252.5,247.5,670,,,SBD,Single-ply
11,90,M,Juniors,Peter Baumeister,1967,West Germany,89,-245,245,260,260,140,-145,-145,140,250,260,-265,260,660,,,SBD,Single-ply
DQ,90,M,Juniors,Dondon Akkua,1969,Nauru,86.6,-225,-225,-230,,,,,,,,,,,,,SBD,Single-ply
DQ,90,M,Juniors,Huai-Chin Liang,1967,Taiwan,88.7,-265,-275,-275,,,,,,,,,,,,,SBD,Single-ply
1,100,M,Juniors,Ian Wadley,1966,UK,99.9,250,265,280,280,165,175,182.5,182.5,290,-305,-305,290,752.5,,,SBD,Single-ply
2,100,M,Juniors,Jan Seghers,1966,Belgium,91,255,265,-270,265,160,167.5,170,170,300,307.5,-317.5,307.5,742.5,,,SBD,Single-ply
3,100,M,Juniors,Janne Toivanen,1966,Finland,99.8,275,285,290,290,160,-167.5,167.5,167.5,275,285,-292.5,285,742.5,,,SBD,Single-ply
4,100,M,Juniors,Daniel Mahan,1966,USA,98.9,250,260,275,275,152.5,157.5,162.5,162.5,277.5,285,295,295,732.5,,,SBD,Single-ply
5,100,M,Juniors,Darren Robinson,1967,USA,97.9,250,257.5,-267.5,257.5,177.5,182.5,-187.5,182.5,267.5,275,285,285,725,,,SBD,Single-ply
6,100,M,Juniors,Alexander Schütze,1967,West Germany,98.8,255,267.5,-272.5,267.5,140,147.5,-150,147.5,250,260,-265,260,675,,,SBD,Single-ply
7,100,M,Juniors,Michael Scheig,1968,West Germany,98.5,-265,-265,265,265,140,-145,145,145,260,-265,-265,260,670,,,SBD,Single-ply
8,100,M,Juniors,Stein Apenæs,1967,Norway,99.4,260,-270,-270,260,-140,-140,140,140,-270,270,-285,270,670,,,SBD,Single-ply
9,100,M,Juniors,Stephen Brown,1968,Australia,94.3,230,-245,245,245,160,170,-175,170,250,-260,-260,250,665,,,SBD,Single-ply
DQ,100,M,Juniors,Luke Hadzipetrov,1968,Australia,98.7,265,-272.5,-272.5,265,-140,-147.5,-148,,,,,,,,,SBD,Single-ply
DD,100,M,Juniors,Anton Tucek,1966,Austria,97.3,,,,,,,,,,,,,,,,SBD,Single-ply
1,110,M,Juniors,Kirk Karwoski,1966,USA,110,337.5,345,352.5,352.5,185,192.5,200,200,280,292.5,-297.5,292.5,845,367.5,,SBD,Single-ply
2,110,M,Juniors,Greg Wilson,1966,Australia,107.9,285,300,305,305,202.5,-210,-210,202.5,290,305,-337.5,305,812.5,,,SBD,Single-ply
3,110,M,Juniors,Mike Siegler,1968,USA,107.8,272.5,-287.5,-295,272.5,195,207.5,212.5,212.5,260,-272.5,277.5,277.5,762.5,,221.5,SBD,Single-ply
4,110,M,Juniors,Thomas Klose,1966,West Germany,105.1,290,302.5,310,310,145,-152.5,152.5,152.5,270,282.5,-300,282.5,745,,,SBD,Single-ply
5,110,M,Juniors,Matt Rossiter,1966,New Zealand,107.8,280,-295,-295,280,170,-180,180,180,270,-280,-280,270,730,,,SBD,Single-ply
6,110,M,Juniors,Lars Klev,1970,Norway,109.8,280,295,-302.5,295,160,167.5,-172.5,167.5,-260,260,-270,260,722.5,,,SBD,Single-ply
7,110,M,Juniors,Russell Kun,1966,Nauru,108.1,280,-300,300,300,-170,170,-182.5,170,-220,220,-240,220,690,,,SBD,Single-ply
8,110,M,Juniors,Che-Yi Liao,1968,Taiwan,101,-250,260,-275,260,135,-142.5,-145,135,-250,260,-272.5,260,655,,,SBD,Single-ply
9,110,M,Juniors,L.P. Srinivas,1969,India,109.6,215,225,235,235,110,122.5,127.5,127.5,220,235,-250,235,597.5,,,SBD,Single-ply
1,125,M,Juniors,Wayne Buck,1966,UK,120.1,325,-342.5,342.5,342.5,220,230,235.5,235.5,320,335,,335,912.5,,,SBD,Single-ply
2,125,M,Juniors,Mika Valve,1967,Finland,115.8,255,-270,270,270,180,190,195,195,310,330,345.5,345.5,810,,,SBD,Single-ply
3,125,M,Juniors,Svend Karlsen,1967,Norway,115.2,290,305,310,310,-170,-170,170,170,230,-290,305,305,785,,,SBD,Single-ply
4,125,M,Juniors,Wulf Kronemann,1967,West Germany,119.6,300,-315,315,315,190,-200,-200,190,265,275,280,280,785,,,SBD,Single-ply
5,125,M,Juniors,David Madra,1966,Australia,119,270,285,-295,285,150,-155,155,155,305,-337.5,-347.5,305,745,,,SBD,Single-ply
6,125,M,Juniors,Magnus Högberg,1966,Sweden,114.1,250,265,272.5,272.5,165,-175,-175,165,240,252.5,-257.5,252.5,690,,,SBD,Single-ply
7,125,M,Juniors,Chien-Hsiung Chao,1969,Taiwan,120.3,265,-272.5,272.5,272.5,165,-172.5,-172.5,165,250,-260,-260,250,687.5,,,SBD,Single-ply
8,125,M,Juniors,Robert Feuk,1966,Sweden,118.1,250,-260,-260,250,150,155,157.5,157.5,250,-262.5,-262.5,250,657.5,,,SBD,Single-ply
9,125,M,Juniors,Bert Hoeks,1969,Netherlands,122.2,235,250,257.5,257.5,155,-160,-160,155,235,-247.5,-247.5,235,647.5,,,SBD,Single-ply
1,125+,M,Juniors,Karl Saliger,1969,Austria,125.1,315,330,-340,330,207.5,217.5,225,225,305,315,-325,315,870,,,SBD,Single-ply
2,125+,M,Juniors,Brian Bell,1967,UK,125.5,280,300,312.5,312.5,200,215,227.5,227.5,280,-300,-332.5,280,820,,,SBD,Single-ply
3,125+,M,Juniors,Michael van Leeuwen,1966,Netherlands,127.4,265,275,280,280,175,185,190,190,300,312.5,317.5,317.5,787.5,,,SBD,Single-ply
4,125+,M,Juniors,Bob Bierschback,1968,USA,159.1,280,287.5,295,295,160,165,-167.5,165,282.5,302.5,-305,302.5,762.5,,,SBD,Single-ply
5,125+,M,Juniors,Dirk Pessemier,1966,Belgium,125.2,280,290,300,300,145,150,-155,150,300,310,-337.5,310,760,,,SBD,Single-ply
6,125+,M,Juniors,Saviour Grech,1967,Australia,133,295,-300,300,300,155,162.5,170,170,285,-302.5,-302.5,285,755,,,SBD,Single-ply
7,125+,M,Juniors,Luiz Farnettani,1967,Brazil,139.5,300,-340,-340,300,-170,170,180,180,240,270,-280,270,750,,,SBD,Single-ply
8,125+,M,Juniors,Pasi Paavisto,1967,Finland,126.5,265,280,-290,280,165,172.5,,172.5,290,-305,-305,290,742.5,,,SBD,Single-ply
9,125+,M,Juniors,Valdon Dawiyogo,1968,Nauru,134.9,285,-302.5,-302.5,285,155,160,162.5,162.5,-260,-260,260,260,707.5,,,SBD,Single-ply
10,125+,M,Juniors,Cheng-Tsung Wu,1972,Taiwan,139,-290,290,-307.5,290,-142.5,142.5,-150,142.5,230,245,-270,245,677.5,,,SBD,Single-ply
DQ,125+,M,Juniors,Vinobha Gowda,1969,India,125.2,-210,-210,-210,,,,,,,,,,,,,SBD,Single-ply
