Division,WeightClassKg,Place,Name,Team,BodyweightKg,Best3SquatKg,Best3BenchKg,Best3DeadliftKg,TotalKg,Equipment,Event,Sex
Boys,51.71,1,Doug McCoy,Giddings,50.71,122.47,70.31,127.01,319.78,Single-ply,SBD,M
Boys,55.79,2,Aaron Terry,College Station A&M Cons,51.89,115.67,65.77,131.54,312.98,Single-ply,SBD,M
Boys,51.71,3,Khyle Hailey,Tomball,49.53,99.79,54.43,136.08,290.3,Single-ply,SBD,M
Boys,55.79,4,DeMarcus Lee,Navasota,51.75,120.2,54.43,113.4,288.03,Single-ply,SBD,M
Boys,51.71,5,Jason Simmons,Madisonville,47.45,92.99,65.77,127.01,285.76,Single-ply,SBD,M
Boys,51.71,6,Darius Mallard,Navasota,44.72,108.86,56.7,117.93,283.5,Single-ply,SBD,M
Boys,51.71,7,Jeremy Alaniz,Riesel,51.62,106.59,58.97,104.33,269.89,Single-ply,SBD,M
Boys,51.71,DQ,Max Flores,Hempstead,51.53,,,,,Single-ply,SBD,M
Boys,59.87,1,Josh Hill,Montgomery,55.88,176.9,83.91,156.49,417.3,Single-ply,SBD,M
Boys,55.79,2,Miguel Montejano,Lovelady,55.7,149.69,83.91,163.29,396.89,Single-ply,SBD,M
Boys,59.87,3,Kolby Castillo,Navasota,55.88,145.15,95.25,156.49,396.89,Single-ply,SBD,M
Boys,59.87,4,Brian Vizuet,Navasota,55.97,140.61,86.18,165.56,392.36,Single-ply,SBD,M
Boys,55.79,5,Tony Sanchez,Giddings,55.16,138.35,86.18,156.49,381.02,Single-ply,SBD,M
Boys,59.87,6,Ryan Sweat,Conroe The Woodlands,55.97,142.88,81.65,156.49,381.02,Single-ply,SBD,M
Boys,55.79,7,Chaise Edwards,Montgomery,54.79,145.15,83.91,136.08,365.14,Single-ply,SBD,M
Boys,59.87,8,Caffery Penn,Conroe The Woodlands,55.97,131.54,72.57,145.15,349.27,Single-ply,SBD,M
Boys,55.79,9,Willie Ihlenfeldt,Caldwell,54.52,142.88,72.57,113.4,328.85,Single-ply,SBD,M
Boys,55.79,10,Justin Hill,Conroe The Woodlands,55.79,102.06,72.57,151.95,326.59,Single-ply,SBD,M
Boys,55.79,11,Steven Jefferson,Navasota,55.16,113.4,63.5,138.35,315.25,Single-ply,SBD,M
Boys,59.87,12,Dalton Goetzinger,Conroe The Woodlands,55.88,108.86,63.5,131.54,303.91,Single-ply,SBD,M
Boys,55.79,13,Steven Foster,Riesel,54.89,113.4,68.04,120.2,301.64,Single-ply,SBD,M
Boys,55.79,DQ,Ty Kirk,Rockdale,55.79,,,,,Single-ply,SBD,M
Boys,55.79,DQ,Nik Goznales,Rockdale,55.79,,,,,Single-ply,SBD,M
Boys,55.79,DQ,Joseph Valencia,Lovelady,55.79,,,,,Single-ply,SBD,M
Boys,55.79,DQ,Jonathan McKendree,Lovelady,55.79,,,,,Single-ply,SBD,M
Boys,59.87,1,Victor Aguilar,Caldwell,56.79,181.44,111.13,158.76,451.32,Single-ply,SBD,M
Boys,59.87,2,Max Baronaske,Tomball,57.42,163.29,95.25,167.83,426.38,Single-ply,SBD,M
Boys,59.87,3,Eric Garza,Magnolia West,59.87,156.49,90.72,158.76,405.97,Single-ply,SBD,M
Boys,59.87,4,Zach Cheyne,College Station A&M Cons,59.87,142.88,83.91,170.1,396.89,Single-ply,SBD,M
Boys,59.87,5,Tate Hartley,Buffalo,58.69,156.49,77.11,154.22,387.82,Single-ply,SBD,M
Boys,67.13,6,John Acosta,Navasota,59.96,120.2,83.91,181.44,385.55,Single-ply,SBD,M
Boys,67.13,7,Tyler Kamiski,Riesel,59.96,149.69,95.25,140.61,385.55,Single-ply,SBD,M
Boys,59.87,8,Adan Wehmeyer,Madisonville,58.79,102.06,74.84,124.74,301.64,Single-ply,SBD,M
Boys,59.87,9,Dillon Blackwell,Conroe Woodlands College Park,58.51,97.52,47.63,99.79,244.94,Single-ply,SBD,M
Boys,59.87,DQ,Ismael Castillo,Madisonville,59.42,,70.31,129.27,,Single-ply,SBD,M
Boys,67.13,1,Kendrick Armstead,Navasota,66.86,217.72,108.86,199.58,526.17,Single-ply,SBD,M
Boys,67.13,2,Eric Wallace,Riesel,67.13,192.78,108.86,215.46,517.1,Single-ply,SBD,M
Boys,67.13,3,Dustin Corkran,Magnolia West,62.87,192.78,111.13,206.38,510.29,Single-ply,SBD,M
Boys,74.84,4,Torey Miller,Tomball,67.31,163.29,117.93,195.04,476.27,Single-ply,SBD,M
Boys,67.13,5,Riley Martinez,College Station A&M Cons,65.77,176.9,99.79,163.29,439.98,Single-ply,SBD,M
Boys,67.13,6,James Moreno,Montgomery,62.51,142.88,99.79,181.44,424.11,Single-ply,SBD,M
Boys,67.13,7,Austin Stephen,College Station A&M Cons,65.05,161.03,95.25,163.29,419.57,Single-ply,SBD,M
Boys,67.13,8,Cj Bills,Bryan Rudder,65.05,142.88,90.72,172.37,405.97,Single-ply,SBD,M
Boys,67.13,9,Dillon Baker,Tomball,66.41,149.69,95.25,154.22,399.16,Single-ply,SBD,M
Boys,67.13,10,Trace Gain,College Station A&M Cons,66.22,138.35,102.06,156.49,396.89,Single-ply,SBD,M
Boys,67.13,11,Stephen Smith,Iola,62.69,136.08,97.52,154.22,387.82,Single-ply,SBD,M
Boys,74.84,12,Trevor Cotter,Tomball,67.36,124.74,88.45,145.15,358.34,Single-ply,SBD,M
Boys,67.13,DQ,Greg Chelf,Rockdale,66.68,,,,,Single-ply,SBD,M
Boys,67.13,DQ,Leo Alfaro,Hempstead,64.5,151.95,,,,Single-ply,SBD,M
Boys,74.84,1,Cedrick McCan,College Station A&M Cons,72.76,213.19,117.93,222.26,553.38,Single-ply,SBD,M
Boys,74.84,2,Brett Boswell,Conroe Woodlands College Park,73.94,181.44,113.4,208.65,503.49,Single-ply,SBD,M
Boys,74.84,3,Alfredo Gonzalez,Magnolia West,72.67,156.49,113.4,208.65,478.54,Single-ply,SBD,M
Boys,74.84,4,Xavier Franklin,Navasota,74.21,167.83,104.33,204.12,476.27,Single-ply,SBD,M
Boys,74.84,5,Darius Battles,Hempstead,69.04,158.76,120.2,176.9,455.86,Single-ply,SBD,M
Boys,74.84,6,Clint Campbell,Hempstead,72.3,188.24,102.06,165.56,455.86,Single-ply,SBD,M
Boys,74.84,7,Andrew Chasteen,Conroe Woodlands College Park,73.21,174.63,90.72,185.97,451.32,Single-ply,SBD,M
Boys,82.1,8,Mario Vizuet,Navasota,74.93,158.76,108.86,181.44,449.06,Single-ply,SBD,M
Boys,74.84,9,Eric Gamica,Madisonville,73.94,149.69,92.99,185.97,428.64,Single-ply,SBD,M
Boys,74.84,10,Eri Flores,College Station A&M Cons,71.03,170.1,90.72,158.76,419.57,Single-ply,SBD,M
Boys,74.84,11,Heath Barney,Iola,71.49,154.22,95.25,149.69,399.16,Single-ply,SBD,M
Boys,74.84,12,Antonio Mora,Madisonville,68.67,147.42,99.79,147.42,394.63,Single-ply,SBD,M
Boys,74.84,13,Andrew Danheim,Conroe The Woodlands,71.21,145.15,86.18,136.08,367.41,Single-ply,SBD,M
Boys,74.84,14,Cody Williams,Caldwell,70.49,131.54,79.38,140.61,351.53,Single-ply,SBD,M
Boys,74.84,15,Paul Morrison,Crockett,69.4,138.35,68.04,129.27,335.66,Single-ply,SBD,M
Boys,74.84,DQ,Joe Waithaka,College Station A&M Cons,74.84,,,,,Single-ply,SBD,M
Boys,74.84,DQ,Tefilio Lozano,Hempstead,72.12,113.4,,,,Single-ply,SBD,M
Boys,82.1,1,Bryce Siecko,Tomball,79.47,238.14,140.61,217.72,596.47,Single-ply,SBD,M
Boys,82.1,2,Tyler McCoy,Giddings,76.84,233.6,142.88,213.19,589.67,Single-ply,SBD,M
Boys,82.1,3,Nick Sweetland,Conroe The Woodlands,81.37,204.12,170.1,201.85,576.06,Single-ply,SBD,M
Boys,82.1,4,Chase Parmelly,Montgomery,81.56,210.92,129.27,222.26,562.45,Single-ply,SBD,M
Boys,82.1,5,Jose Dominguez,Buffalo,75.21,204.12,124.74,204.12,532.97,Single-ply,SBD,M
Boys,82.1,6,Eric Washington,Montgomery,78.11,195.04,122.47,213.19,530.7,Single-ply,SBD,M
Boys,89.81,7,Adrian Ewing,Navasota,82.19,199.58,104.33,217.72,521.63,Single-ply,SBD,M
Boys,82.1,8,Tyler Gessner,Navasota,81.01,195.04,117.93,179.17,492.15,Single-ply,SBD,M
Boys,82.1,9,Garrett Mears,Tomball,78.83,174.63,104.33,192.78,471.74,Single-ply,SBD,M
Boys,82.1,10,Jonathan Cates,Buffalo,77.93,181.44,106.59,181.44,469.47,Single-ply,SBD,M
Boys,82.1,11,Chris Le,Madisonville,81.83,172.37,92.99,181.44,446.79,Single-ply,SBD,M
Boys,82.1,12,Eric Washington,Bryan Rudder,76.75,156.49,97.52,172.37,426.38,Single-ply,SBD,M
Boys,82.1,13,Jonathan Barnes,Crockett,75.66,158.76,77.11,181.44,417.3,Single-ply,SBD,M
Boys,82.1,14,Bryan Bradford,Iola,75.57,158.76,95.25,158.76,412.77,Single-ply,SBD,M
Boys,82.1,15,Ethan Ratliff,Lovelady,76.93,145.15,83.91,183.7,412.77,Single-ply,SBD,M
Boys,82.1,16,Trevor Stephens,Iola,79.2,122.47,92.99,136.08,351.53,Single-ply,SBD,M
Boys,82.1,17,Josh Jeffus,Lovelady,81.74,133.81,70.31,138.35,342.46,Single-ply,SBD,M
Boys,82.1,DQ,Michael Clouston,College Station A&M Cons,82.1,,,,,Single-ply,SBD,M
Boys,82.1,DQ,Gene Wisnewski,Caldwell,81.19,192.78,,,,Single-ply,SBD,M
Boys,89.81,DQ,Zach Ondrasek,Caldwell,82.28,,,,,Single-ply,SBD,M
Boys,82.1,DQ,Alex Trujillo,Hempstead,79.47,,,,,Single-ply,SBD,M
Boys,89.81,DQ,Juan Nunez,Navasota,82.33,213.19,,,,Single-ply,SBD,M
Boys,89.81,1,Chris Cesar,College Station A&M Cons,87,238.14,154.22,231.33,623.69,Single-ply,SBD,M
Boys,89.81,2,Chris Smith,Conroe Woodlands College Park,86.73,240.4,136.08,231.33,607.81,Single-ply,SBD,M
Boys,89.81,3,Chris Hubnik,Rogers,85.09,235.87,131.54,235.87,603.28,Single-ply,SBD,M
Boys,89.81,4,Alex Clark,Tomball,88.45,215.46,113.4,240.4,569.26,Single-ply,SBD,M
Boys,89.81,5,Jonathan Massey,Caldwell,88.36,219.99,131.54,210.92,562.45,Single-ply,SBD,M
Boys,89.81,6,Joey Johnson,Magnolia West,88.18,199.58,131.54,215.46,546.58,Single-ply,SBD,M
Boys,89.81,7,David Levias,College Station A&M Cons,88.36,208.65,129.27,208.65,546.58,Single-ply,SBD,M
Boys,99.79,8,Jared Hawthorne,Buffalo,89.9,204.12,127.01,215.46,546.58,Single-ply,SBD,M
Boys,89.81,9,Collin Robertson,Conroe Woodlands College Park,85.09,204.12,113.4,226.8,544.31,Single-ply,SBD,M
Boys,89.81,10,Luis Garcia,College Station A&M Cons,88.99,195.04,120.2,185.97,501.22,Single-ply,SBD,M
Boys,99.79,11,Tyler Grube,Montgomery,89.9,190.51,127.01,181.44,498.95,Single-ply,SBD,M
Boys,89.81,12,David Wilganowski,Bryan Rudder,88.99,179.17,99.79,204.12,483.08,Single-ply,SBD,M
Boys,89.81,13,Julien Taylor,Madisonville,85.73,167.83,90.72,210.92,469.47,Single-ply,SBD,M
Boys,89.81,14,Shane Witherspoon,Madisonville,88.09,158.76,99.79,195.04,453.59,Single-ply,SBD,M
Boys,89.81,15,Chad Murski,Conroe Woodlands College Park,87.36,170.1,86.18,181.44,437.72,Single-ply,SBD,M
Boys,89.81,16,Austin Desautel,Madisonville,83.64,163.29,81.65,151.95,396.89,Single-ply,SBD,M
Boys,89.81,17,Chris Williams,Hempstead,88,138.35,74.84,174.63,387.82,Single-ply,SBD,M
Boys,89.81,18,Dylan Musick,Crockett,88.09,131.54,79.38,147.42,358.34,Single-ply,SBD,M
Boys,89.81,DQ,Will Brannen,Crockett,89.81,,83.91,127.01,,Single-ply,SBD,M
Boys,89.81,DQ,Chris Smith,Caldwell,89.36,136.08,102.06,,,Single-ply,SBD,M
Boys,89.81,DQ,Chris Krolczyk,Axtell,89.81,179.17,138.35,,,Single-ply,SBD,M
Boys,99.79,1,Jason Granados,Magnolia West,96.43,254.01,149.69,235.87,639.57,Single-ply,SBD,M
Boys,99.79,2,Trent Meckel,Caldwell,92.9,238.14,147.42,229.06,614.62,Single-ply,SBD,M
Boys,99.79,3,Josh Gutierrez,Magnolia West,98.97,240.4,138.35,231.33,610.08,Single-ply,SBD,M
Boys,99.79,4,Shane Privette,Tomball,98.88,217.72,151.95,238.14,607.81,Single-ply,SBD,M
Boys,109.77,5,Michael Brenek,Rogers,99.88,244.94,127.01,226.8,598.74,Single-ply,SBD,M
Boys,99.79,6,Nathan Mallard,Navasota,90.81,226.8,111.13,244.94,582.87,Single-ply,SBD,M
Boys,109.77,7,Cruz Rodríguez,Navasota,99.88,226.8,120.2,217.72,564.72,Single-ply,SBD,M
Boys,99.79,8,Zack Paulson,Magnolia West,94.89,222.26,120.2,210.92,553.38,Single-ply,SBD,M
Boys,99.79,9,Matt Cohan,Bryan Rudder,94.35,190.51,120.2,226.8,537.51,Single-ply,SBD,M
Boys,99.79,10,Kenny Furches,Conroe The Woodlands,98.34,226.8,115.67,192.78,535.24,Single-ply,SBD,M
Boys,99.79,11,Tre Salas,College Station A&M Cons,90.72,190.51,115.67,204.12,510.29,Single-ply,SBD,M
Boys,99.79,12,Patrick McCloud,Conroe The Woodlands,95.35,170.1,97.52,197.31,464.93,Single-ply,SBD,M
Boys,99.79,13,Kyle Kavanaugh,College Station A&M Cons,96.62,199.58,95.25,170.1,464.93,Single-ply,SBD,M
Boys,99.79,14,Josh Carillo,Buffalo,93.89,185.97,102.06,170.1,458.13,Single-ply,SBD,M
Boys,99.79,15,Etheridge Brooks,Madisonville,97.52,149.69,102.06,185.97,437.72,Single-ply,SBD,M
Boys,99.79,16,Ben Bickham,Madisonville,98.34,113.4,77.11,138.35,328.85,Single-ply,SBD,M
Boys,99.79,DQ,Matthew Raimoshek,Lovelady,93.08,181.44,120.2,,,Single-ply,SBD,M
Boys,99.79,DQ,Anthony Montoya,Rockdale,96.98,,,,,Single-ply,SBD,M
Boys,99.79,DQ,Stephen Schneider,Rockdale,91.72,,,,,Single-ply,SBD,M
Boys,99.79,DQ,Rodney Brown,Navasota,95.03,,,,,Single-ply,SBD,M
Boys,109.77,1,Zach Kelly,Caldwell,109.13,226.8,165.56,240.4,632.76,Single-ply,SBD,M
Boys,109.77,2,Blake Wiley,Tomball,104.42,226.8,151.95,244.94,623.69,Single-ply,SBD,M
Boys,109.77,3,Morgan Blackstone,Crockett,109.77,254.01,149.69,217.72,621.42,Single-ply,SBD,M
Boys,109.77,4,Caden Walker,College Station A&M Cons,109.59,226.8,172.37,219.99,619.15,Single-ply,SBD,M
Boys,109.77,5,Casey Stripling,Riesel,109.13,233.6,154.22,213.19,601.01,Single-ply,SBD,M
Boys,109.77,6,Dillon Smith,College Station A&M Cons,107.86,242.67,113.4,226.8,582.87,Single-ply,SBD,M
Boys,109.77,7,Seve Ramirez,Montgomery,108.77,240.4,151.95,190.51,582.87,Single-ply,SBD,M
Boys,109.77,8,Autra Maxey,Navasota,106.87,249.48,108.86,219.99,578.33,Single-ply,SBD,M
Boys,109.77,9,Matt Marfise,Tomball,103.51,204.12,117.93,254.01,576.06,Single-ply,SBD,M
Boys,109.77,10,Sam Heaton,Conroe Woodlands College Park,103.69,222.26,102.06,219.99,544.31,Single-ply,SBD,M
Boys,109.77,11,Frankie Garcia,Conroe Woodlands College Park,102.42,183.7,102.06,199.58,485.34,Single-ply,SBD,M
Boys,109.77,12,Donovin Lott,Buffalo,108.95,181.44,120.2,181.44,483.08,Single-ply,SBD,M
Boys,109.77,13,Carrenza Watson,Hempstead,106.23,204.12,113.4,163.29,480.81,Single-ply,SBD,M
Boys,109.77,14,Jayme Timm,Iola,101.7,167.83,117.93,170.1,455.86,Single-ply,SBD,M
Boys,109.77,15,Dustin Pearson,Montgomery,105.14,170.1,102.06,181.44,453.59,Single-ply,SBD,M
Boys,109.77,16,Grant Bonnette,Conroe The Woodlands,108.95,181.44,88.45,170.1,439.98,Single-ply,SBD,M
Boys,124.74,1,Dewon Davis,Navasota,124.19,290.3,161.03,240.4,691.73,Single-ply,SBD,M
Boys,124.74,2,Jj Bynum,College Station A&M Cons,120.56,272.16,158.76,249.48,680.39,Single-ply,SBD,M
Boys,124.74,3,Kd Ragsdale,College Station A&M Cons,118.39,235.87,111.13,190.51,537.51,Single-ply,SBD,M
Boys,124.74,4,Cory Kelley,Magnolia West,117.12,204.12,117.93,210.92,532.97,Single-ply,SBD,M
Boys,124.74,5,Ryan Zdroik,Rogers,111.49,206.38,117.93,204.12,528.44,Single-ply,SBD,M
Boys,124.74,6,Alejandro Montano,Buffalo,117.48,197.31,127.01,195.04,519.36,Single-ply,SBD,M
Boys,124.74,7,Cody Pfeffer,Hempstead,113.94,204.12,113.4,183.7,501.22,Single-ply,SBD,M
Boys,124.74,8,Ivan Meistchovich,Conroe Woodlands College Park,115.12,181.44,90.72,172.37,444.52,Single-ply,SBD,M
Boys,124.74,9,Jorge Rosas,Madisonville,119.39,181.44,86.18,176.9,444.52,Single-ply,SBD,M
Boys,124.74+,1,Cedric Collins,Navasota,131.63,294.84,149.69,204.12,648.64,Single-ply,SBD,M
Boys,124.74+,2,Marcus Reed,Montgomery,164.38,274.42,142.88,226.8,644.1,Single-ply,SBD,M
Boys,124.74+,3,James Graham,Magnolia West,153.4,274.42,140.61,222.26,637.3,Single-ply,SBD,M
Boys,124.74+,4,Wyatt Smith,College Station A&M Cons,127.91,263.08,156.49,192.78,612.35,Single-ply,SBD,M
Boys,124.74+,5,Jacob Bohannon,Navasota,126.19,240.4,136.08,208.65,585.13,Single-ply,SBD,M
Boys,124.74+,6,Nate Hobbie,Brookshire Royal,135.62,263.08,138.35,183.7,585.13,Single-ply,SBD,M
Boys,124.74+,7,Mark Poteat,Conroe The Woodlands,139.62,229.06,97.52,204.12,530.7,Single-ply,SBD,M
Boys,124.74+,8,Kelvin Caldwell,Bryan Rudder,146.96,213.19,129.27,183.7,526.17,Single-ply,SBD,M
Boys,124.74+,9,Kyle Rogers,Madisonville,153.04,138.35,86.18,151.95,376.48,Single-ply,SBD,M
