Division,WeightClassKg,Place,Name,Team,BodyweightKg,Best3SquatKg,Best3BenchKg,Best3DeadliftKg,TotalKg,Equipment,Event,Sex
Boys,51.71,1,Chris Sage,Bryan,50.44,127.01,72.57,154.22,353.8,Single-ply,SBD,M
Boys,51.71,2,Isaiah Reza,College Station,51.07,117.93,54.43,120.2,292.57,Single-ply,SBD,M
Boys,51.71,4,Clayton Whitmire,Little River Academy,49.08,81.65,43.09,106.59,231.33,Single-ply,SBD,M
Boys,51.71,5,Tristen Aleksines,Hutto,49.9,79.38,45.36,104.33,229.06,Single-ply,SBD,M
Boys,51.71,6,DJ Walker,Georgetown East View,50.44,79.38,43.09,102.06,224.53,Single-ply,SBD,M
Boys,51.71,7,Hayden Hughes,Georgetown,50.35,65.77,43.09,102.06,210.92,Single-ply,SBD,M
Boys,51.71,8,Colt Baranowski,Smithville,38.37,77.11,38.56,77.11,192.78,Single-ply,SBD,M
Boys,51.71,9,Calob Bower,Smithville,43.36,68.04,36.29,81.65,185.97,Single-ply,SBD,M
Boys,55.79,1,Dylan Diestel,Rockdale,55.7,131.54,72.57,127.01,331.12,Single-ply,SBD,M
Boys,55.79,2,Dalton Glover,Little River Academy,54.43,102.06,70.31,124.74,297.1,Single-ply,SBD,M
Boys,55.79,3,David Turner,Hutto,51.89,113.4,65.77,113.4,292.57,Single-ply,SBD,M
Boys,55.79,3,Kaden Hewitt,Bastrop,55.34,99.79,63.5,113.4,276.69,Single-ply,SBD,M
Boys,55.79,4,Brandon Powell,Caldwell,55.43,106.59,52.16,113.4,272.16,Single-ply,SBD,M
Boys,59.87,1,Davion Aldridge,Hutto,56.43,176.9,92.99,195.04,464.93,Single-ply,SBD,M
Boys,59.87,2,Fernando Maldonado,Smithville,59.69,145.15,104.33,167.83,417.3,Single-ply,SBD,M
Boys,59.87,3,Owen Mallard,Georgetown,57.06,136.08,79.38,174.63,390.09,Single-ply,SBD,M
Boys,59.87,4,Dominic Hamilton,Georgetown East View,58.33,124.74,88.45,154.22,367.41,Single-ply,SBD,M
Boys,59.87,5,Michael Marullo,Georgetown East View,55.97,136.08,74.84,124.74,335.66,Single-ply,SBD,M
Boys,59.87,6,Nathan Newlin,Rockdale,57.61,108.86,70.31,113.4,292.57,Single-ply,SBD,M
Boys,59.87,7,Kade Fly,Hutto,58.24,133.81,,158.76,292.57,Single-ply,SD,M
Boys,59.87,8,Cameron Naumann,Florence,56.97,113.4,61.23,113.4,288.03,Single-ply,SBD,M
Boys,59.87,9,Ryan Walls,Georgetown East View,59.42,83.91,,113.4,197.31,Single-ply,SD,M
Boys,67.13,1,Nathaniel Olvera,Smithville,66.95,172.37,106.59,179.17,458.13,Single-ply,SBD,M
Boys,67.13,2,Brandon Batot,Bastrop,65.14,174.63,92.99,181.44,449.06,Single-ply,SBD,M
Boys,67.13,3,Jesse Barron,Hutto,61.6,154.22,79.38,181.44,415.04,Single-ply,SBD,M
Boys,67.13,4,Daniel Mireles,Georgetown East View,62.32,142.88,108.86,145.15,396.89,Single-ply,SBD,M
Boys,67.13,5,Josh Burkhalter,Caldwell,60.6,165.56,72.57,151.95,390.09,Single-ply,SBD,M
Boys,67.13,6,Calien Lukie,Bryan,67.04,136.08,92.99,158.76,387.82,Single-ply,SBD,M
Boys,67.13,7,Jordan Kuglin,Georgetown East View,65.23,145.15,83.91,151.95,381.02,Single-ply,SBD,M
Boys,67.13,8,Christopher Brenham,Georgetown,65.86,145.15,81.65,149.69,376.48,Single-ply,SBD,M
Boys,67.13,9,Anthony Espinoza,Georgetown East View,64.41,147.42,72.57,154.22,374.21,Single-ply,SBD,M
Boys,67.13,10,Bryce McEndree,Salado,64.32,142.88,83.91,142.88,369.68,Single-ply,SBD,M
Boys,67.13,11,Cameron Forrest,Hutto,65.23,127.01,92.99,142.88,362.87,Single-ply,SBD,M
Boys,67.13,12,Mark Field,Georgetown,66.59,106.59,92.99,161.03,360.61,Single-ply,SBD,M
Boys,67.13,13,Jacob Brumley,Caldwell,62.23,117.93,72.57,163.29,353.8,Single-ply,SBD,M
Boys,67.13,14,Dylan Kurz,Cameron Yoe,66.59,136.08,72.57,136.08,344.73,Single-ply,SBD,M
Boys,67.13,15,Trey Motyka,Smithville,60.96,124.74,72.57,129.27,326.59,Single-ply,SBD,M
Boys,67.13,16,Jared Smith,Bastrop,65.23,120.2,77.11,129.27,326.59,Single-ply,SBD,M
Boys,67.13,17,Arthur Pryor,Hearne,60.69,124.74,56.7,142.88,324.32,Single-ply,SBD,M
Boys,67.13,18,Gavin Freeman,Little River Academy,65.32,108.86,65.77,136.08,310.71,Single-ply,SBD,M
Boys,67.13,19,Angel Lindert,Georgetown East View,64.59,102.06,68.04,117.93,288.03,Single-ply,SBD,M
Boys,74.84,1,Tyler Stairs,Salado,74.75,183.7,111.13,204.12,498.95,Single-ply,SBD,M
Boys,74.84,2,Andrew Wyatt,Smithville,72.85,163.29,115.67,165.56,444.52,Single-ply,SBD,M
Boys,74.84,3,Kyle Thiele,Giddings,74.66,156.49,117.93,156.49,430.91,Single-ply,SBD,M
Boys,74.84,4,Eduardo Perez,Georgetown,69.04,145.15,86.18,172.37,403.7,Single-ply,SBD,M
Boys,74.84,5,Gerardo Aleman,Caldwell,74.75,151.95,79.38,172.37,403.7,Single-ply,SBD,M
Boys,74.84,6,Brandon McEndree,Salado,68.76,149.69,83.91,167.83,401.43,Single-ply,SBD,M
Boys,74.84,7,Tydrick Williams,Cameron Yoe,71.76,149.69,99.79,151.95,401.43,Single-ply,SBD,M
Boys,74.84,8,Taylor Sands,Little River Academy,72.76,138.35,90.72,163.29,392.36,Single-ply,SBD,M
Boys,74.84,9,Jakobe Davidson,Hutto,72.12,142.88,77.11,167.83,387.82,Single-ply,SBD,M
Boys,74.84,10,Javon Burrell,Georgetown East View,69.49,145.15,79.38,158.76,383.29,Single-ply,SBD,M
Boys,74.84,11,Kalob Jonas,Smithville,69.13,163.29,77.11,140.61,381.02,Single-ply,SBD,M
Boys,74.84,12,Colton Harris,Georgetown East View,71.49,142.88,81.65,149.69,374.21,Single-ply,SBD,M
Boys,74.84,13,Francisco Santana,Georgetown East View,74.21,136.08,70.31,145.15,351.53,Single-ply,SBD,M
Boys,74.84,15,Luke Whiteley,Little River Academy,71.67,104.33,81.65,149.69,335.66,Single-ply,SBD,M
Boys,74.84,16,Hunter York,Little River Academy,68.58,122.47,68.04,140.61,331.12,Single-ply,SBD,M
Boys,74.84,17,Trevor Knesek,Rockdale,67.68,127.01,68.04,122.47,317.51,Single-ply,SBD,M
Boys,74.84,18,Colton Vansa,Little River Academy,74.66,115.67,79.38,122.47,317.51,Single-ply,SBD,M
Boys,74.84,20,Jesus Alfaro,Bastrop,70.58,108.86,74.84,122.47,306.17,Single-ply,SBD,M
Boys,74.84,21,Kaden Trice,Salado,70.44,204.12,,,204.12,Single-ply,S,M
Boys,82.1,1,Nathan Ellard,College Station,80.74,204.12,124.74,199.58,528.44,Single-ply,SBD,M
Boys,82.1,2,Hunter Douzat,Little River Academy,76.75,204.12,122.47,199.58,526.17,Single-ply,SBD,M
Boys,82.1,4,Toby Proske,Giddings,80.1,217.72,117.93,156.49,492.15,Single-ply,SBD,M
Boys,82.1,5,Lance Spakes,Salado,81.28,204.12,106.59,181.44,492.15,Single-ply,SBD,M
Boys,82.1,6,Dalton Thomas,Bastrop,77.56,183.7,104.33,192.78,480.81,Single-ply,SBD,M
Boys,82.1,7,Davion Ford,Rockdale,77.29,172.37,90.72,204.12,467.2,Single-ply,SBD,M
Boys,82.1,8,Matt May,Georgetown,80.65,158.76,97.52,181.44,437.72,Single-ply,SBD,M
Boys,82.1,9,Dalton Smith,Rockdale,77.75,174.63,102.06,149.69,426.38,Single-ply,SBD,M
Boys,82.1,10,Nick Rangel,Cameron Yoe,79.11,117.93,72.57,127.01,317.51,Single-ply,SBD,M
Boys,82.1,11,John Santos,Cameron Yoe,75.02,104.33,77.11,124.74,306.17,Single-ply,SBD,M
Boys,82.1,12,Everett Scott,Hearne,76.84,90.72,49.9,99.79,240.4,Single-ply,SBD,M
Boys,82.1,13,Walker Fain,Georgetown,81.74,,83.91,156.49,240.4,Single-ply,BD,M
Boys,82.1,14,Cade Cruse,Georgetown East View,74.93,122.47,79.38,142.88,344.73,Single-ply,SBD,M
Boys,82.1,19,Landon Anderson,Cameron Yoe,74.93,92.99,79.38,138.35,310.71,Single-ply,SBD,M
Boys,89.81,1,Chris Lewis,Smithville,85.91,233.6,113.4,215.46,562.45,Single-ply,SBD,M
Boys,89.81,2,Ryan Perry,Bastrop,84.82,181.44,108.86,192.78,483.08,Single-ply,SBD,M
Boys,89.81,3,Matt Schoenbourn,Hutto,82.19,197.31,115.67,192.78,505.76,Single-ply,SBD,M
Boys,89.81,3,Austin Ham,College Station,88.09,181.44,86.18,181.44,449.06,Single-ply,SBD,M
Boys,89.81,4,Frank Trevino,Smithville,82.55,154.22,97.52,170.1,421.84,Single-ply,SBD,M
Boys,89.81,5,Kolby Strickland,Caldwell,88.36,151.95,68.04,145.15,365.14,Single-ply,SBD,M
Boys,89.81,6,Paul Lopez,Hearne,88.18,115.67,79.38,124.74,319.78,Single-ply,SBD,M
Boys,99.79,1,Will Efendiev,College Station,98.97,249.48,142.88,238.14,630.49,Single-ply,SBD,M
Boys,99.79,2,Derrick Juptner,Georgetown,98.25,226.8,158.76,210.92,596.47,Single-ply,SBD,M
Boys,99.79,3,Hunter Creasey,Georgetown,96.8,208.65,113.4,226.8,548.85,Single-ply,SBD,M
Boys,99.79,4,Keeland Moore,Georgetown,97.52,226.8,136.08,183.7,546.58,Single-ply,SBD,M
Boys,99.79,5,Jonathan Willett,Georgetown East View,94.08,201.85,117.93,183.7,503.49,Single-ply,SBD,M
Boys,99.79,6,Brandon Salazar,Georgetown East View,94.26,174.63,124.74,197.31,496.68,Single-ply,SBD,M
Boys,99.79,7,Chandler Strmiska,Little River Academy,99.25,163.29,120.2,192.78,476.27,Single-ply,SBD,M
Boys,99.79,8,Xavian Ellison,Rockdale,95.25,183.7,124.74,165.56,474,Single-ply,SBD,M
Boys,99.79,9,Jovany Araujo,Georgetown East View,97.79,163.29,104.33,206.38,474,Single-ply,SBD,M
Boys,99.79,10,Richard Rogers,Giddings,99.52,195.04,111.13,165.56,471.74,Single-ply,SBD,M
Boys,99.79,11,Josh Ham,College Station,90.36,185.97,99.79,181.44,467.2,Single-ply,SBD,M
Boys,99.79,13,Seth Russell,College Station,95.71,181.44,83.91,185.97,451.32,Single-ply,SBD,M
Boys,99.79,14,Dylan Woods,Hearne,96.98,172.37,95.25,167.83,435.45,Single-ply,SBD,M
Boys,99.79,15,Bob Cunningham,Salado,90.26,165.56,92.99,174.63,433.18,Single-ply,SBD,M
Boys,99.79,16,Juan Castillo,Salado,96.25,124.74,88.45,165.56,378.75,Single-ply,SBD,M
Boys,99.79,17,Colton Regier,Florence,97.25,149.69,54.43,129.27,333.39,Single-ply,SBD,M
Boys,99.79,18,Josh Davenport,Rockdale,91.44,127.01,58.97,129.27,315.25,Single-ply,SBD,M
Boys,99.79,19,Adrian Spencer,Florence,99.43,136.08,49.9,129.27,315.25,Single-ply,SBD,M
Boys,109.77,1,Cristian Contreras,Hearne,108.41,256.28,170.1,263.08,689.46,Single-ply,SBD,M
Boys,109.77,2,Jacob Aguirre,Rockdale,108.23,213.19,154.22,240.4,607.81,Single-ply,SBD,M
Boys,109.77,3,Kalob Barho,Smithville,103.69,254.01,120.2,197.31,571.53,Single-ply,SBD,M
Boys,109.77,5,Ian Wooley,College Station,101.15,199.58,122.47,204.12,526.17,Single-ply,SBD,M
Boys,109.77,7,James Huddleston,Hutto,104.6,181.44,102.06,165.56,449.06,Single-ply,SBD,M
Boys,109.77,8,John Bonnet,Florence,103.96,181.44,108.86,149.69,439.98,Single-ply,SBD,M
Boys,109.77,9,Wyatt Chambers,Rockdale,109.32,170.1,113.4,142.88,426.38,Single-ply,SBD,M
Boys,109.77,10,Wade Smith,Giddings,107.05,158.76,102.06,158.76,419.57,Single-ply,SBD,M
Boys,109.77,12,David Mata,Georgetown,99.97,183.7,106.59,174.63,464.93,Single-ply,SBD,M
Boys,124.74,1,Quentin White,Rockdale,110.4,226.8,131.54,199.58,557.92,Single-ply,SBD,M
Boys,124.74,2,Allan Edelmon,Georgetown East View,123.56,204.12,142.88,190.51,537.51,Single-ply,SBD,M
Boys,124.74,3,Luis Pena,Salado,118.84,210.92,124.74,199.58,535.24,Single-ply,SBD,M
Boys,124.74,4,Dameion Cavazos,Georgetown,109.86,222.26,136.08,183.7,542.04,Single-ply,SBD,M
Boys,124.74,4,Justin Hoffman,Bastrop,119.39,183.7,129.27,192.78,505.76,Single-ply,SBD,M
Boys,124.74,5,Luis Tello,Giddings,123.65,206.38,111.13,183.7,501.22,Single-ply,SBD,M
Boys,124.74,6,Tyrone Wilson,Bastrop,109.86,170.1,129.27,192.78,492.15,Single-ply,SBD,M
Boys,124.74,6,Andrew Diver,Rockdale,123.29,165.56,127.01,149.69,442.25,Single-ply,SBD,M
Boys,124.74,7,Dortavis Lewis,Cameron Yoe,115.3,170.1,97.52,140.61,408.23,Single-ply,SBD,M
Boys,124.74,8,Adrian Lewis,Cameron Yoe,122.83,163.29,108.86,136.08,408.23,Single-ply,SBD,M
Boys,124.74,9,Cruz Salazar,Georgetown East View,110.86,136.08,104.33,158.76,399.16,Single-ply,SBD,M
Boys,124.74,10,John Goode,Bastrop,119.48,215.46,142.88,,358.34,Single-ply,SB,M
Boys,124.74,11,Jackson Pickard,Georgetown East View,116.94,145.15,63.5,140.61,349.27,Single-ply,SBD,M
Boys,124.74,12,Caleb Hubnik,Cameron Yoe,113.85,115.67,79.38,151.95,347,Single-ply,SBD,M
Boys,124.74+,1,Jordan Seymore,College Station,148.69,306.17,158.76,226.8,691.73,Single-ply,SBD,M
Boys,124.74+,2,Rene Loya,Bastrop,129.46,240.4,158.76,210.92,610.08,Single-ply,SBD,M
Boys,124.74+,3,Kade Clapper,Georgetown,142.43,226.8,147.42,226.8,601.01,Single-ply,SBD,M
Boys,124.74+,4,Marty Rodriguez,Hutto,131.27,224.53,127.01,210.92,562.45,Single-ply,SBD,M
Boys,124.74+,5,Juan Ramirez,Giddings,137.98,226.8,138.35,197.31,562.45,Single-ply,SBD,M
Boys,124.74+,6,Jonah Bassa,Salado,147.24,226.8,111.13,210.92,548.85,Single-ply,SBD,M
Boys,124.74+,7,David Hahn,College Station,127.37,210.92,97.52,181.44,489.88,Single-ply,SBD,M
Boys,124.74+,8,Brian McDonald,Cameron Yoe,130.63,142.88,63.5,136.08,342.46,Single-ply,SBD,M
