Division,WeightClassKg,Place,Name,Team,BodyweightKg,Best3SquatKg,Best3BenchKg,Best3DeadliftKg,TotalKg,Equipment,Event,Sex
Boys,51.71,1,Miguel Hernandez,Emory Rains,50.62,167.83,92.99,154.22,415.04,Single-ply,SBD,M
Boys,51.71,2,Corbin Craver,Mount Vernon,50.26,129.27,65.77,129.27,324.32,Single-ply,SBD,M
Boys,51.71,3,Jesus Perez,Kemp,51.17,106.59,72.57,120.2,299.37,Single-ply,SBD,M
Boys,51.71,4,Korbin Kuenemann,Longview Spring Hill,48.72,111.13,58.97,113.4,283.5,Single-ply,SBD,M
Boys,55.79,5,Dylan Simmons,Emory Rains,51.89,120.2,52.16,102.06,274.42,Single-ply,SBD,M
Boys,51.71,6,Kolby Tulpa,Longview Spring Hill,50.08,99.79,43.09,117.93,260.82,Single-ply,SBD,M
Boys,59.87,1,Angel Ross,Quitman,55.97,129.27,79.38,161.03,369.68,Single-ply,SBD,M
Boys,55.79,2,Gage Baughman,Winnsboro,55.16,124.74,77.11,145.15,347,Single-ply,SBD,M
Boys,55.79,3,Daniel Pafford,Cushing,52.34,142.88,61.23,140.61,344.73,Single-ply,SBD,M
Boys,55.79,4,Garrett Weems,Emory Rains,55.07,133.81,68.04,120.2,322.05,Single-ply,SBD,M
Boys,55.79,5,Dave Gallagher,Lone Oak,54.52,122.47,56.7,129.27,308.44,Single-ply,SBD,M
Boys,55.79,6,Donavan Hosh,Kemp,53.07,81.65,52.16,102.06,235.87,Single-ply,SBD,M
Boys,59.87,1,Brandon Jones,Cumby,59.87,161.03,124.74,181.44,467.2,Single-ply,SBD,M
Boys,67.13,2,Juan Mendez,Emory Rains,60.06,165.56,104.33,192.78,462.66,Single-ply,SBD,M
Boys,59.87,3,Nick McKee,Longview Spring Hill,59.6,181.44,92.99,183.7,458.13,Single-ply,SBD,M
Boys,59.87,4,Garrett Plumlee,Longview Spring Hill,59.6,156.49,90.72,158.76,405.97,Single-ply,SBD,M
Boys,59.87,5,Dalton Krodle,Commerce,59.78,149.69,88.45,151.95,390.09,Single-ply,SBD,M
Boys,59.87,6,Trent Fisher,Kemp,58.06,113.4,79.38,147.42,340.19,Single-ply,SBD,M
Boys,59.87,7,Sergio Camacho,Emory Rains,57.97,127.01,68.04,131.54,326.59,Single-ply,SBD,M
Boys,59.87,8,Jimmy Kembrel,Kemp,57.52,113.4,77.11,133.81,324.32,Single-ply,SBD,M
Boys,59.87,DQ,Jack Jones,Cumby,58.97,,,,,Single-ply,SBD,M
Boys,74.84,1,Olice Rogers,Kemp,67.31,195.04,117.93,204.12,517.1,Single-ply,SBD,M
Boys,67.13,2,Josh Boone,Winnsboro,65.41,226.8,104.33,183.7,514.83,Single-ply,SBD,M
Boys,67.13,3,Tino Elias,Mineola,66.68,192.78,95.25,210.92,498.95,Single-ply,SBD,M
Boys,67.13,4,Jb Peltier,Commerce,66.32,176.9,104.33,176.9,458.13,Single-ply,SBD,M
Boys,67.13,5,Garrett Hayle,Kemp,66.32,158.76,88.45,149.69,396.89,Single-ply,SBD,M
Boys,67.13,6,Logan Johnson,Lone Oak,62.14,142.88,86.18,165.56,394.63,Single-ply,SBD,M
Boys,67.13,7,Andrew Means,Big Sandy Harmony,64.5,140.61,79.38,151.95,371.95,Single-ply,SBD,M
Boys,67.13,8,Lucas Pinnell,Winnsboro,64.68,129.27,70.31,161.03,360.61,Single-ply,SBD,M
Boys,67.13,9,Eric Shaw,Lone Oak,65.32,136.08,86.18,129.27,351.53,Single-ply,SBD,M
Boys,67.13,10,Caleb Smith,Mount Vernon,66.22,127.01,90.72,122.47,340.19,Single-ply,SBD,M
Boys,67.13,11,Morgan Breaux,Emory Rains,66.32,117.93,61.23,120.2,299.37,Single-ply,SBD,M
Boys,74.84,1,Jesse Hudson,Emory Rains,71.58,219.99,115.67,238.14,573.79,Single-ply,SBD,M
Boys,74.84,2,Alec Bates,Quitman,73.75,181.44,111.13,199.58,492.15,Single-ply,SBD,M
Boys,74.84,3,Ramon Vasquez,Cushing,73.48,190.51,92.99,199.58,483.08,Single-ply,SBD,M
Boys,74.84,4,Devin Shaw,Lone Oak,70.58,181.44,97.52,188.24,467.2,Single-ply,SBD,M
Boys,74.84,5,Eli Gammage,Lone Oak,74.3,165.56,99.79,185.97,451.32,Single-ply,SBD,M
Boys,74.84,6,Justin Blackburn,Emory Rains,72.48,161.03,102.06,183.7,446.79,Single-ply,SBD,M
Boys,74.84,7,Armando Cortes,Emory Rains,74.39,161.03,102.06,151.95,415.04,Single-ply,SBD,M
Boys,74.84,8,Jeremy Moses,Winnsboro,67.77,142.88,79.38,174.63,396.89,Single-ply,SBD,M
Boys,74.84,9,Payton Phillips,Hawkins,72.76,151.95,77.11,158.76,387.82,Single-ply,SBD,M
Boys,74.84,10,Jess McClain,Cushing,71.76,142.88,95.25,142.88,381.02,Single-ply,SBD,M
Boys,74.84,11,Jacob Dannenberg,Hawkins,69.04,138.35,95.25,145.15,378.75,Single-ply,SBD,M
Boys,74.84,12,Jesse Harwell,Hawkins,69.76,142.88,79.38,151.95,374.21,Single-ply,SBD,M
Boys,74.84,13,Jacob Lindsey,Big Sandy Harmony,72.48,140.61,74.84,154.22,369.68,Single-ply,SBD,M
Boys,74.84,14,Nick Dunn,Hawkins,73.39,138.35,77.11,142.88,358.34,Single-ply,SBD,M
Boys,74.84,15,Jake Williams,Lone Oak,71.76,113.4,92.99,136.08,342.46,Single-ply,SBD,M
Boys,74.84,16,Jeffrey Osburn,Emory Rains,74.12,115.67,70.31,131.54,317.51,Single-ply,SBD,M
Boys,74.84,DQ,Cris Fessenden,Kemp,67.49,113.4,,,,Single-ply,SBD,M
Boys,74.84,DQ,Brandon Glenn,Big Sandy Harmony,73.12,170.1,102.06,,,Single-ply,SBD,M
Boys,82.1,1,Austin Musser,Mineola,80.01,235.87,124.74,206.38,566.99,Single-ply,SBD,M
Boys,82.1,2,Grant Russell,Emory Rains,81.28,183.7,124.74,251.74,560.19,Single-ply,SBD,M
Boys,82.1,3,Christian Darter,Emory Rains,75.3,192.78,124.74,192.78,510.29,Single-ply,SBD,M
Boys,82.1,4,Cole Harwell,Hawkins,82.1,183.7,111.13,172.37,467.2,Single-ply,SBD,M
Boys,82.1,5,Kenneth Whitley,Hawkins,79.47,174.63,92.99,167.83,435.45,Single-ply,SBD,M
Boys,89.81,6,Mickey Husbank,Cushing,82.28,142.88,106.59,183.7,433.18,Single-ply,SBD,M
Boys,82.1,7,Ryan Basye,Lone Oak,76.48,158.76,83.91,185.97,428.64,Single-ply,SBD,M
Boys,82.1,8,Tyler Cheves,Mount Vernon,75.84,151.95,79.38,165.56,396.89,Single-ply,SBD,M
Boys,82.1,DQ,Kearon Cobb,Winona,75.84,113.4,,,,Single-ply,SBD,M
Boys,82.1,DQ,Drake Barnika,Kemp,76.29,158.76,,,,Single-ply,SBD,M
Boys,82.1,DQ,Robert Jackson,Commerce,81.56,183.7,,,,Single-ply,SBD,M
Boys,82.1,DQ,Trenton Craig,Longview Spring Hill,76.2,192.78,104.33,,,Single-ply,SBD,M
Boys,89.81,1,Isaiah Martinez,Commerce,87.72,272.16,167.83,235.87,675.85,Single-ply,SBD,M
Boys,89.81,2,Tyler Carpenter,Mount Vernon,85.91,192.78,104.33,206.38,503.49,Single-ply,SBD,M
Boys,89.81,3,Cody Anderson,Cumby,85.73,199.58,99.79,197.31,496.68,Single-ply,SBD,M
Boys,89.81,4,Ryan Gearner,Winnsboro,86,183.7,104.33,201.85,489.88,Single-ply,SBD,M
Boys,89.81,5,David de Santiago,Mount Vernon,89.81,165.56,138.35,165.56,469.47,Single-ply,SBD,M
Boys,99.79,6,Branson Davis,Big Sandy Harmony,89.9,170.1,108.86,181.44,460.4,Single-ply,SBD,M
Boys,89.81,7,Dalton Thompson,Quitman,89.81,172.37,97.52,181.44,451.32,Single-ply,SBD,M
Boys,89.81,8,Trevor Pilcher,Big Sandy Harmony,86.36,161.03,106.59,149.69,417.3,Single-ply,SBD,M
Boys,89.81,9,Zach Smith,Big Sandy Harmony,86,156.49,90.72,156.49,403.7,Single-ply,SBD,M
Boys,89.81,DQ,John Phillips,Big Sandy Harmony,83.19,165.56,102.06,,,Single-ply,SBD,M
Boys,99.79,1,Tyran Wilson,Commerce,99.61,215.46,142.88,224.53,582.87,Single-ply,SBD,M
Boys,99.79,2,Bryan Winburn,Winnsboro,98.88,226.8,129.27,210.92,566.99,Single-ply,SBD,M
Boys,99.79,3,Ben Dillon,Kemp,91.63,217.72,136.08,208.65,562.45,Single-ply,SBD,M
Boys,99.79,4,Hagen Tucker,Longview Spring Hill,93.17,217.72,127.01,215.46,560.19,Single-ply,SBD,M
Boys,99.79,5,Chase Whitaker,Mount Vernon,96.8,199.58,142.88,206.38,548.85,Single-ply,SBD,M
Boys,99.79,6,Austin Cruz,Cushing,96.52,201.85,111.13,224.53,537.51,Single-ply,SBD,M
Boys,99.79,7,Colton Defur,Hawkins,92.17,217.72,113.4,188.24,519.36,Single-ply,SBD,M
Boys,99.79,8,Tyson Gearner,Winnsboro,90.99,190.51,120.2,190.51,501.22,Single-ply,SBD,M
Boys,99.79,9,Dallas Green,Longview Spring Hill,90.99,195.04,111.13,181.44,487.61,Single-ply,SBD,M
Boys,99.79,10,Tylor Libby,Cumby,91.99,179.17,111.13,185.97,476.27,Single-ply,SBD,M
Boys,99.79,11,Chris Bloyd,Big Sandy Harmony,94.62,181.44,102.06,170.1,453.59,Single-ply,SBD,M
Boys,99.79,DQ,David Delgado,Kemp,97.61,179.17,108.86,,,Single-ply,SBD,M
Boys,99.79,DQ,Caleb Dorsey,Winona,93.98,113.4,90.72,,,Single-ply,SBD,M
Boys,99.79,DQ,Tim Wilson,Winona,97.79,163.29,,,,Single-ply,SBD,M
Boys,99.79,DQ,Chris Allen,Winona,95.98,133.81,,,,Single-ply,SBD,M
Boys,109.77,1,Colby Spencer,Cushing,106.78,272.16,156.49,251.74,680.39,Single-ply,SBD,M
Boys,109.77,2,Morgan Knight,Longview Spring Hill,106.96,206.38,149.69,217.72,573.79,Single-ply,SBD,M
Boys,109.77,3,Josh Hurst,Mineola,103.33,208.65,108.86,224.53,542.04,Single-ply,SBD,M
Boys,109.77,4,Luke Hooten,Emory Rains,108.68,238.14,111.13,181.44,530.7,Single-ply,SBD,M
Boys,109.77,5,Chase Williams,Mineola,102.69,195.04,133.81,197.31,526.17,Single-ply,SBD,M
Boys,109.77,6,Quay Evans,Mount Vernon,102.6,197.31,108.86,204.12,510.29,Single-ply,SBD,M
Boys,109.77,7,Hunter Hicks,Longview Spring Hill,106.78,172.37,102.06,161.03,435.45,Single-ply,SBD,M
Boys,109.77,8,Kody Quick,Lone Oak,102.69,170.1,88.45,163.29,421.84,Single-ply,SBD,M
Boys,109.77,DQ,James Evans,Cumby,102.51,208.65,,,,Single-ply,SBD,M
Boys,124.74,1,Cortez Crosby,Commerce,122.74,294.84,208.65,272.16,775.64,Single-ply,SBD,M
Boys,124.74,2,Anthony McGovern,Winnsboro,117.66,301.64,163.29,215.46,680.39,Single-ply,SBD,M
Boys,124.74,3,Colton Busby,Lone Oak,114.31,251.74,136.08,238.14,625.96,Single-ply,SBD,M
Boys,124.74,4,Jack Adams,Winnsboro,124.01,254.01,133.81,156.49,544.31,Single-ply,SBD,M
Boys,124.74,5,Taylor McBride,Cushing,115.3,199.58,97.52,174.63,471.74,Single-ply,SBD,M
Boys,124.74,6,Daniel Logan,Big Sandy Harmony,113.22,172.37,99.79,181.44,453.59,Single-ply,SBD,M
Boys,124.74,DQ,Glen Goode,Cumby,112.67,,,,,Single-ply,SBD,M
Boys,124.74+,1,Zach Migues,Mount Vernon,134.72,201.85,145.15,199.58,546.58,Single-ply,SBD,M
Boys,124.74+,2,Willie Evans,Daingerfield,171,195.04,140.61,192.78,528.44,Single-ply,SBD,M
Boys,124.74+,3,Scott Sparks,Longview Spring Hill,143.88,188.24,113.4,170.1,471.74,Single-ply,SBD,M
Boys,124.74+,4,Keithon Walker,Daingerfield,136.89,185.97,88.45,154.22,428.64,Single-ply,SBD,M
Boys,124.74+,5,Bryce McGovern,Winnsboro,126.73,161.03,74.84,129.27,365.14,Single-ply,SBD,M
Boys,124.74+,DQ,Dillon Jacobs,Winona,144.61,151.95,,,,Single-ply,SBD,M
Boys,,NS,Rosendo Preciado,Quitman,,,,,,Single-ply,SBD,M
Boys,,NS,Gannon Brown,Emory Rains,,,,,,Single-ply,SBD,M
Boys,,NS,Trenton Worley,Emory Rains,,,,,,Single-ply,SBD,M
