Division,WeightClassKg,Place,Name,Team,BodyweightKg,Best3SquatKg,Best3BenchKg,Best3DeadliftKg,TotalKg,Equipment,Event,Sex
Girls,44.23,1,Natali Dominguez,Mertzon Irion County,42.91,106.59,54.43,97.52,258.55,Single-ply,SBD,F
Girls,44.23,2,Chynna Sandate,Eldorado,39.46,63.5,38.56,81.65,183.7,Single-ply,SBD,F
Girls,44.23,3,Erika Sanchez,Eldorado,43.82,68.04,31.75,70.31,170.1,Single-ply,SBD,F
Girls,47.85,1,Jessica Paredes,Sonora,47.45,111.13,45.36,99.79,256.28,Single-ply,SBD,F
Girls,47.85,2,Loralie Woodard,Cross Plains,46.45,95.25,45.36,99.79,240.4,Single-ply,SBD,F
Girls,47.85,3,Sasha Sanchez,Eldorado,47.85,102.06,43.09,95.25,240.4,Single-ply,SBD,F
Girls,51.94,1,Abigail Narvaez,Eldorado,50.08,117.93,65.77,136.08,319.78,Single-ply,SBD,F
Girls,51.94,2,Kenzie Cramer,Mertzon Irion County,50.89,122.47,68.04,127.01,317.51,Single-ply,SBD,F
Girls,51.94,3,Kersey Wyatt,Cross Plains,50.08,104.33,54.43,104.33,263.08,Single-ply,SBD,F
Girls,51.94,4,Jackilann Shepard,Cross Plains,48.53,97.52,45.36,106.59,249.48,Single-ply,SBD,F
Girls,51.94,DQ,Alexis Mauricio,Cross Plains,51.07,113.4,49.9,,,Single-ply,SBD,F
Girls,56.02,1,Taylor Snodgrass,Mertzon Irion County,55.7,117.93,61.23,113.4,292.57,Single-ply,SBD,F
Girls,56.02,2,Okshana Hernandez,Eldorado,53.43,99.79,43.09,108.86,251.74,Single-ply,SBD,F
Girls,56.02,3,Laura Coronado,Eldorado,54.7,97.52,47.63,97.52,242.67,Single-ply,SBD,F
Girls,56.02,4,Maritza Villanueva,Sonora,54.34,92.99,43.09,95.25,231.33,Single-ply,SBD,F
Girls,56.02,DQ,Madye Hubbard,Ozona,54.52,,,,,Single-ply,SBD,F
Girls,60.1,1,Caitlyn Allen,Mertzon Irion County,59.69,142.88,77.11,131.54,351.53,Single-ply,SBD,F
Girls,60.1,2,Dulce Rodriguez,Ozona,60.06,145.15,56.7,140.61,342.46,Single-ply,SBD,F
Girls,60.1,3,Rebekah Crockett,Cross Plains,60.1,136.08,61.23,140.61,337.93,Single-ply,SBD,F
Girls,60.1,4,Alondra Rodriguez,Ozona,57.06,127.01,65.77,131.54,324.32,Single-ply,SBD,F
Girls,60.1,5,Julie Marshall,Ozona,60.1,111.13,49.9,117.93,278.96,Single-ply,SBD,F
Girls,60.1,6,Savanna Welton,Iraan,58.06,99.79,43.09,104.33,247.21,Single-ply,SBD,F
Girls,60.1,7,Tenay Pinchback,Iraan,57.24,90.72,36.29,99.79,226.8,Single-ply,SBD,F
Girls,67.36,1,Maiah Jurado,Ozona,64.95,127.01,68.04,147.42,342.46,Single-ply,SBD,F
Girls,67.36,2,Reagan DeHanis,Mertzon Irion County,65.95,138.35,81.65,122.47,342.46,Single-ply,SBD,F
Girls,67.36,3,Teagan Fortune,Cross Plains,64.77,140.61,65.77,127.01,333.39,Single-ply,SBD,F
Girls,67.36,4,Hannah Cowan,Cross Plains,65.59,136.08,63.5,122.47,322.05,Single-ply,SBD,F
Girls,67.36,5,Hannah Crockett,Cross Plains,60.33,127.01,40.82,122.47,290.3,Single-ply,SBD,F
Girls,67.36,6,Jenafur Warren,Eldorado,67.04,108.86,43.09,113.4,265.35,Single-ply,SBD,F
Girls,67.36,7,Kaci Bales,Iraan,65.05,86.18,52.16,88.45,226.8,Single-ply,SBD,F
Girls,67.36,DQ,Mercadez Ochoa,Eldorado,65.86,,,,,Single-ply,SBD,F
Girls,75.07,1,Luisa Muniz,Eldorado,74.3,142.88,72.57,145.15,360.61,Single-ply,SBD,F
Girls,75.07,2,Armarinda Villanueva,Eldorado,73.03,122.47,68.04,136.08,326.59,Single-ply,SBD,F
Girls,75.07,3,Ivy Mendoza,Iraan,75.02,92.99,43.09,113.4,249.48,Single-ply,SBD,F
Girls,75.07,DQ,Evalyn Majia,Eldorado,72.48,97.52,,,,Single-ply,SBD,F
Girls,75.07,DQ,Kristi Ward,Cross Plains,72.03,149.69,,,,Single-ply,SBD,F
Girls,75.07,DQ,Sierra Kimbrell,Sonora,75.02,,,,,Single-ply,SBD,F
Girls,82.33,DQ,Kayla Grace Edwards,Sonora,78.29,99.79,,,,Single-ply,SBD,F
Girls,82.33,DQ,Kim Borrego,Ozona,82.19,,,,,Single-ply,SBD,F
Girls,100.02,1,Kaitlyn Potter,Cross Plains,96.16,190.51,95.25,142.88,428.64,Single-ply,SBD,F
Girls,100.02,2,Annabell Hernandez,McCamey,93.8,136.08,56.7,138.35,331.12,Single-ply,SBD,F
Girls,100.02,3,Sara Gunnels,Ozona,97.7,136.08,70.31,104.33,310.71,Single-ply,SBD,F
Girls,100.02+,1,Maria Mejia,Ozona,107.32,188.24,72.57,145.15,405.97,Single-ply,SBD,F
Girls,100.02+,2,Taylor Parmer,Iraan,102.33,151.95,58.97,124.74,335.66,Single-ply,SBD,F
Girls,,NS,Sadie Arguello,Iraan,,,,,,Single-ply,SBD,F
Girls,,NS,Tricia Carter,Iraan,,,,,,Single-ply,SBD,F
Girls,,NS,Kiara Hodge,Iraan,,,,,,Single-ply,SBD,F
Girls,,NS,Cassie Villanueva,McCamey,,,,,,Single-ply,SBD,F
Girls,,NS,Jacy Bien,Cross Plains,,,,,,Single-ply,SBD,F
Girls,,NS,Shiloh Dodge,Cross Plains,,,,,,Single-ply,SBD,F
Girls,,NS,Carissa Perez,Ozona,,,,,,Single-ply,SBD,F
Girls,,NS,Rachel Mendoza,Ozona,,,,,,Single-ply,SBD,F
