Division,WeightClassKg,Place,Name,Team,BodyweightKg,Best3SquatKg,Best3BenchKg,Best3DeadliftKg,TotalKg,Equipment,Event,Sex
Boys,51.71,1,Angel Garcia,Edinburg Idea College Prep,51.17,206.38,113.4,185.97,505.76,Single-ply,SBD,M
Boys,51.71,2,Terry Cole,Skidmore-Tynan,51.71,179.17,90.72,172.37,442.25,Single-ply,SBD,M
Boys,51.71,3,Austin Mullennix,Sadler S & S Cons,51.44,190.51,83.91,158.76,433.18,Single-ply,SBD,M
Boys,51.71,4,Eli DeHoyos,Brady,51.62,163.29,90.72,170.1,424.11,Single-ply,SBD,M
Boys,51.71,5,David Carrasco,Big Lake Reagan County,50.44,154.22,90.72,170.1,415.04,Single-ply,SBD,M
Boys,51.71,6,Mason Williams,Yorktown,50.89,154.22,86.18,163.29,403.7,Single-ply,SBD,M
Boys,51.71,7,Joey Rodriguez,Edinburg Idea College Prep,49.9,158.76,83.91,158.76,401.43,Single-ply,SBD,M
Boys,51.71,8,Arnold Pena,Benavides,51.44,151.95,86.18,163.29,401.43,Single-ply,SBD,M
Boys,51.71,9,Juan Trejo,Friona,48.9,165.56,65.77,154.22,385.55,Single-ply,SBD,M
Boys,51.71,10,Johnny Gomez,Rocksprings,51.44,136.08,92.99,154.22,383.29,Single-ply,SBD,M
Boys,51.71,11,Joel Santillan,Clifton,51.44,133.81,90.72,158.76,383.29,Single-ply,SBD,M
Boys,51.71,12,Dayce Drennan,Winnsboro,51.62,147.42,86.18,142.88,376.48,Single-ply,SBD,M
Boys,51.71,13,Chandler Bush,Elysian Fields,50.8,138.35,63.5,147.42,349.27,Single-ply,SBD,M
Boys,51.71,14,Carter Baker,Buna,50.35,142.88,86.18,108.86,337.93,Single-ply,SBD,M
Boys,51.71,15,Max Ortiz,Santo,51.26,122.47,74.84,136.08,333.39,Single-ply,SBD,M
Boys,51.71,DQ,Trevor Greer,Woodville,50.26,,,,,Single-ply,SBD,M
Boys,55.79,1,BJ Stidham,Gladewater Sabine,54.25,206.38,108.86,199.58,514.83,Single-ply,SBD,M
Boys,55.79,2,Gavin Chapa,Corpus Christi London,54.34,183.7,111.13,195.04,489.88,Single-ply,SBD,M
Boys,55.79,3,Christian Teichleman,Childress,55.25,183.7,111.13,192.78,487.61,Single-ply,SBD,M
Boys,55.79,4,Adrian Campos,Freer,54.61,192.78,115.67,176.9,485.34,Single-ply,SBD,M
Boys,55.79,5,Brandon Canales,Benavides,54.88,190.51,104.33,183.7,478.54,Single-ply,SBD,M
Boys,55.79,6,Arnold Perez,Ben Bolt-Palito Blanco,55.43,185.97,104.33,172.37,462.66,Single-ply,SBD,M
Boys,55.79,7,Justin Wilson,Wichita Falls City View,55.34,190.51,88.45,172.37,451.32,Single-ply,SBD,M
Boys,55.79,8,Payton Miller,Alvord,55.79,183.7,92.99,167.83,444.52,Single-ply,SBD,M
Boys,55.79,9,Miguel Ramirez,Agua Dulce,55.07,190.51,74.84,174.63,439.98,Single-ply,SBD,M
Boys,55.79,10,Raul Rey,Big Lake Reagan County,55.16,167.83,79.38,181.44,428.64,Single-ply,SBD,M
Boys,55.79,11,Kevin Manning,Boling,54.7,165.56,95.25,158.76,419.57,Single-ply,SBD,M
Boys,55.79,12,Tyler Greer,Woodville,54.25,170.1,88.45,156.49,415.04,Single-ply,SBD,M
Boys,55.79,13,Michael Oster,Troy,54.79,163.29,83.91,163.29,410.5,Single-ply,SBD,M
Boys,55.79,14,Joe-Angel Carpenter,Troy,54.88,154.22,95.25,151.95,401.43,Single-ply,SBD,M
Boys,55.79,DQ,Niko Munoz,Falfurrias,54.79,172.37,115.67,,,Single-ply,SBD,M
Boys,55.79,DQ,Bob Hernandez,Malakoff Cross Roads,55.7,,,,,Single-ply,SBD,M
Boys,59.87,1,Johnny Donnelly,Hawley,59.42,208.65,129.27,215.46,553.38,Single-ply,SBD,M
Boys,59.87,2,Hunter Mullins,Jarrell,59.06,210.92,115.67,213.19,539.77,Single-ply,SBD,M
Boys,59.87,3,Manuel Padilla,Natalia,58.97,215.46,113.4,206.38,535.24,Single-ply,SBD,M
Boys,59.87,4,Aundrea Holmes,Trinity,59.87,208.65,113.4,190.51,512.56,Single-ply,SBD,M
Boys,59.87,5,Richard Lowrie,Kemp,59.15,199.58,117.93,192.78,510.29,Single-ply,SBD,M
Boys,59.87,6,Fausto Rodriguez,West,58.97,204.12,111.13,188.24,503.49,Single-ply,SBD,M
Boys,59.87,7,Lucas Lara,Mathis,57.33,181.44,102.06,192.78,476.27,Single-ply,SBD,M
Boys,59.87,8,Carlos Villanueva,Strawn,59.87,185.97,104.33,181.44,471.74,Single-ply,SBD,M
Boys,59.87,9,Moises Amaro,Palacios,57.15,179.17,104.33,179.17,462.66,Single-ply,SBD,M
Boys,59.87,10,Kyle Reed,Wichita Falls City View,58.79,197.31,77.11,176.9,451.32,Single-ply,SBD,M
Boys,59.87,11,Mario Hernandez,Friona,59.78,172.37,81.65,176.9,430.91,Single-ply,SBD,M
Boys,59.87,DQ,Rj Morrison,El Maton Tidehaven,59.42,172.37,,,,Single-ply,SBD,M
Boys,59.87,DQ,Sebastion Flores,Blanco,59.78,215.46,147.42,,,Single-ply,SBD,M
Boys,59.87,DQ,Sergio Watkins,Blooming Grove,58.6,,,,,Single-ply,SBD,M
Boys,67.13,1,Anthony Perez,San Diego,66.32,274.42,158.76,247.21,680.39,Single-ply,SBD,M
Boys,67.13,2,Marcos Chavez,Lyford,65.23,224.53,124.74,249.48,598.74,Single-ply,SBD,M
Boys,67.13,3,Brandon Carballo,Hebbronville,64.59,231.33,120.2,222.26,573.79,Single-ply,SBD,M
Boys,67.13,4,Bryan McNeill,Rogers,65.5,215.46,113.4,217.72,546.58,Single-ply,SBD,M
Boys,67.13,5,Gage Dollins,Paris Chisum,64.77,208.65,124.74,208.65,542.04,Single-ply,SBD,M
Boys,67.13,6,Emmanuel Walker,Corrigan-Camden,66.13,199.58,113.4,229.06,542.04,Single-ply,SBD,M
Boys,67.13,7,Brandon Victorino,Alpine,65.05,206.38,115.67,210.92,532.97,Single-ply,SBD,M
Boys,67.13,8,Nico Starnes,Chico,65.68,204.12,127.01,199.58,530.7,Single-ply,SBD,M
Boys,67.13,9,Caleb Smith,Troup,66.68,238.14,102.06,176.9,517.1,Single-ply,SBD,M
Boys,67.13,10,Jesson Tarrant,Early,65.68,192.78,129.27,185.97,508.02,Single-ply,SBD,M
Boys,67.13,11,Jerry Simental,Seagraves,65.5,192.78,120.2,192.78,505.76,Single-ply,SBD,M
Boys,67.13,12,David Colmenero,Pilot Point,67.13,188.24,104.33,206.38,498.95,Single-ply,SBD,M
Boys,67.13,DQ,Russell Pickney,La Marque,66.86,167.83,97.52,,,Single-ply,SBD,M
Boys,74.84,1,Ramiro Gonzalez,Falfurrias,73.75,258.55,138.35,240.4,637.3,Single-ply,SBD,M
Boys,74.84,2,Gilibaldo Garcia,San Antonio Brooks Academy,74.12,244.94,140.61,240.4,625.96,Single-ply,SBD,M
Boys,74.84,3,Parker Hay,Trinity,73.03,242.67,145.15,215.46,603.28,Single-ply,SBD,M
Boys,74.84,4,John Wims,Detroit,74.03,229.06,142.88,217.72,589.67,Single-ply,SBD,M
Boys,74.84,5,Sergio Villareal,Centerville,74.84,238.14,127.01,222.26,587.4,Single-ply,SBD,M
Boys,74.84,6,Arturo Reyna,Bishop,73.57,249.48,129.27,204.12,582.87,Single-ply,SBD,M
Boys,74.84,7,Josh Wells,Jacksboro,74.3,226.8,131.54,219.99,578.33,Single-ply,SBD,M
Boys,74.84,8,Blake Hulse,Sundown,71.12,226.8,111.13,226.8,564.72,Single-ply,SBD,M
Boys,74.84,9,Colby Pederson,Hubbard,73.57,222.26,136.08,199.58,557.92,Single-ply,SBD,M
Boys,74.84,10,Jacob Galvez,El Maton Tidehaven,74.66,226.8,142.88,183.7,553.38,Single-ply,SBD,M
Boys,74.84,11,Sebastian Perez,Vega,70.76,231.33,113.4,195.04,539.77,Single-ply,SBD,M
Boys,74.84,12,Martin Najera,Hamilton,74.12,195.04,111.13,219.99,526.17,Single-ply,SBD,M
Boys,74.84,DQ,Mikey Hymel,Howe,73.3,242.67,,,,Single-ply,SBD,M
Boys,74.84,DQ,Matthew Anderson,Saratoga West Hardin,73.21,224.53,127.01,,,Single-ply,SBD,M
Boys,82.1,1,Hunter Duzat,Little River Academy,79.38,265.35,183.7,247.21,696.26,Single-ply,SBD,M
Boys,82.1,2,Joshua Olivarez,Falfurrias,81.01,272.16,147.42,251.74,671.32,Single-ply,SBD,M
Boys,82.1,3,Steban Flores,Ozona,81.1,244.94,176.9,249.48,671.32,Single-ply,SBD,M
Boys,82.1,4,Ryan Lindsay,Elkhart,77.56,267.62,138.35,254.01,659.98,Single-ply,SBD,M
Boys,82.1,5,Nathan Gerik,West,81.37,249.48,151.95,249.48,650.91,Single-ply,SBD,M
Boys,82.1,6,Dj Fripp,Cameron Yoe,81.74,251.74,165.56,233.6,650.91,Single-ply,SBD,M
Boys,82.1,7,Alan Quezada,Kemp,81.28,263.08,165.56,217.72,646.37,Single-ply,SBD,M
Boys,82.1,8,John Hodge,Pettus,80.74,249.48,131.54,254.01,635.03,Single-ply,SBD,M
Boys,82.1,9,Juan Baez,Sonora,79.65,269.89,136.08,224.53,630.49,Single-ply,SBD,M
Boys,82.1,10,Frank Moreno,Lyford,80.47,235.87,129.27,260.82,625.96,Single-ply,SBD,M
Boys,82.1,11,Hector Dominguez,Buffalo,80.47,272.16,124.74,226.8,623.69,Single-ply,SBD,M
Boys,82.1,12,Ty'Rique Smith-Gants,Anahuac,82.1,238.14,131.54,247.21,616.89,Single-ply,SBD,M
Boys,82.1,13,Kristian Paulette,Newton,80.56,226.8,151.95,226.8,605.55,Single-ply,SBD,M
Boys,82.1,14,Conner Bowers,Bishop,79.83,233.6,142.88,226.8,603.28,Single-ply,SBD,M
Boys,82.1,15,Destin Montelongo,Santo,79.65,210.92,156.49,219.99,587.4,Single-ply,SBD,M
Boys,82.1,16,Tristan Clark,Troup,80.92,229.06,122.47,229.06,580.6,Single-ply,SBD,M
Boys,82.1,17,Mason Riggs,Howe,79.56,206.38,108.86,201.85,517.1,Single-ply,SBD,M
Boys,82.1,DQ,Ramiro Martinez,Troup,79.11,,,,,Single-ply,SBD,M
Boys,89.81,1,Mitchell Rees,Karnes City,88.45,326.59,142.88,256.28,725.75,Single-ply,SBD,M
Boys,89.81,2,Caleb Wilson,Mertzon Irion County,86.18,294.84,172.37,244.94,712.14,Single-ply,SBD,M
Boys,89.81,3,Morgan Landreth,Pattonville Prairiland,87.63,283.5,165.56,238.14,687.19,Single-ply,SBD,M
Boys,89.81,4,Ithel Carrillo,Hebbronville,89.81,274.42,167.83,231.33,673.58,Single-ply,SBD,M
Boys,89.81,5,Myles McGruder,Groesbeck,88.36,249.48,147.42,274.42,671.32,Single-ply,SBD,M
Boys,89.81,6,Alan Medrano,Bishop,88.81,258.55,154.22,249.48,662.24,Single-ply,SBD,M
Boys,89.81,7,Treyvaun Crawford,Trinity,87.72,244.94,163.29,251.74,659.98,Single-ply,SBD,M
Boys,89.81,8,Bret Davis,Bowie,89.09,235.87,179.17,242.67,657.71,Single-ply,SBD,M
Boys,89.81,9,Lxamri Bolden,Farmersville,86.82,260.82,167.83,219.99,648.64,Single-ply,SBD,M
Boys,89.81,10,Da'Michael Harvey,Kerens,87.09,242.67,151.95,251.74,646.37,Single-ply,SBD,M
Boys,89.81,11,Cortney Young #2,Rogers,88.9,258.55,151.95,217.72,628.23,Single-ply,SBD,M
Boys,89.81,12,Donovan Gomez,Clyde,84.28,260.82,140.61,217.72,619.15,Single-ply,SBD,M
Boys,89.81,13,Aaron Harralson,West,87.09,229.06,165.56,222.26,616.89,Single-ply,SBD,M
Boys,89.81,14,Nacho Rios,Comanche,86.09,240.4,156.49,217.72,614.62,Single-ply,SBD,M
Boys,89.81,15,Alan Casper,Corrigan-Camden,85.09,229.06,111.13,258.55,598.74,Single-ply,SBD,M
Boys,89.81,16,Darren Muirhead,Coldspring-Oakhurst,89.81,215.46,129.27,219.99,564.72,Single-ply,SBD,M
Boys,89.81,DQ,Aron Jahr,Diana New Diana,88.63,,,,,Single-ply,SBD,M
Boys,89.81,DQ,Elder Arellano,Rice,88,,,,,Single-ply,SBD,M
Boys,99.79,1,Vincent Wilson,Rogers,98.34,283.5,192.78,288.03,764.3,Single-ply,SBD,M
Boys,99.79,2,Ray Saenz,Bishop,98.34,308.44,167.83,285.76,762.04,Single-ply,SBD,M
Boys,99.79,3,Mikey Castillo,McGregor,97.07,290.3,176.9,263.08,730.28,Single-ply,SBD,M
Boys,99.79,4,Trace McAfee,Hallettsville,96.52,288.03,185.97,254.01,728.02,Single-ply,SBD,M
Boys,99.79,5,Miguel Elizondo,Early,97.61,283.5,181.44,254.01,718.94,Single-ply,SBD,M
Boys,99.79,6,Trent Allen,Troup,95.16,310.71,151.95,244.94,707.6,Single-ply,SBD,M
Boys,99.79,7,Jp Cordova,Rocksprings,91.99,285.76,165.56,249.48,700.8,Single-ply,SBD,M
Boys,99.79,8,Jeff Williams,El Maton Tidehaven,96.98,272.16,185.97,242.67,700.8,Single-ply,SBD,M
Boys,99.79,9,Alex Falcon,Troy,93.44,267.62,156.49,269.89,694,Single-ply,SBD,M
Boys,99.79,10,Tanner Schnoor,Hawley,97.34,276.69,142.88,260.82,680.39,Single-ply,SBD,M
Boys,99.79,11,John Cooper,Whitewright,96.25,249.48,145.15,265.35,659.98,Single-ply,SBD,M
Boys,99.79,12,Marcus Fabela,Buna,99.06,272.16,145.15,235.87,653.17,Single-ply,SBD,M
Boys,99.79,13,Cruz Montes,Boyd,98.52,274.42,149.69,224.53,648.64,Single-ply,SBD,M
Boys,99.79,14,Christian Ramon,Sonora,97.07,265.35,158.76,199.58,623.69,Single-ply,SBD,M
Boys,99.79,DQ,Alton Harris,Rice,98.16,,,,,Single-ply,SBD,M
Boys,99.79,DQ,Jose Rangel,La Villa,98.61,299.37,142.88,,,Single-ply,SBD,M
Boys,109.77,1,Xavian Hampton,Hitchcock,109.77,301.64,181.44,281.23,764.3,Single-ply,SBD,M
Boys,109.77,2,Michael Salar,San Diego,106.5,308.44,185.97,267.62,762.04,Single-ply,SBD,M
Boys,109.77,3,Chandler Strmiska,Little River Academy,109.04,274.42,201.85,267.62,743.89,Single-ply,SBD,M
Boys,109.77,4,Stancio Battles,New Boston,108.41,272.16,161.03,281.23,714.41,Single-ply,SBD,M
Boys,109.77,5,Zach Solano,Rogers,108.95,283.5,204.12,226.8,714.41,Single-ply,SBD,M
Boys,109.77,6,Brandon Padilla,Anson,109.23,294.84,156.49,251.74,703.07,Single-ply,SBD,M
Boys,109.77,7,Joey Garza,Falfurrias,106.87,283.5,154.22,254.01,691.73,Single-ply,SBD,M
Boys,109.77,8,TJ Jones,Elkhart,106.32,272.16,156.49,256.28,684.92,Single-ply,SBD,M
Boys,109.77,9,Tyler Watts,Simms Bowie,106.5,283.5,154.22,244.94,682.66,Single-ply,SBD,M
Boys,109.77,10,Evander Williams,Newton,106.68,263.08,147.42,269.89,680.39,Single-ply,SBD,M
Boys,109.77,11,Valente Perez,Post,107.5,285.76,140.61,244.94,671.32,Single-ply,SBD,M
Boys,109.77,12,Tanner Young,Whitesboro,102.69,249.48,138.35,226.8,614.62,Single-ply,SBD,M
Boys,124.74,1,Ethan Price,Dublin,120.56,306.17,215.46,281.23,802.86,Single-ply,SBD,M
Boys,124.74,2,Tristan Ortiz,Big Lake Reagan County,121.38,371.95,170.1,254.01,796.05,Single-ply,SBD,M
Boys,124.74,3,Kawon McCowin,Shelbyville,124.01,317.51,176.9,274.42,768.84,Single-ply,SBD,M
Boys,124.74,4,Josh Porter,Frankston,120.02,308.44,165.56,278.96,752.96,Single-ply,SBD,M
Boys,124.74,5,Chris Chamness,Mount Vernon,119.29,290.3,161.03,281.23,732.55,Single-ply,SBD,M
Boys,124.74,6,David Mendez,Taft,122.02,294.84,170.1,240.4,705.34,Single-ply,SBD,M
Boys,124.74,7,Brandon Webb,Lago Vista,121.83,299.37,174.63,226.8,700.8,Single-ply,SBD,M
Boys,124.74,8,Christian Lopez,La Pryor,120.11,290.3,151.95,254.01,696.26,Single-ply,SBD,M
Boys,124.74,9,Robert Martinez,Louise,123.74,283.5,154.22,242.67,680.39,Single-ply,SBD,M
Boys,124.74,10,David Ornelas,Colorado City Colorado,124.56,272.16,183.7,219.99,675.85,Single-ply,SBD,M
Boys,124.74,11,Dylan Kays,Collinsville,112.85,249.48,161.03,244.94,655.44,Single-ply,SBD,M
Boys,124.74,12,Alec Narro,Tom Bean,114.85,256.28,156.49,210.92,623.69,Single-ply,SBD,M
Boys,124.74,DQ,Kyler Loftin,Warren,110.86,276.69,,,,Single-ply,SBD,M
Boys,124.74,DQ,Christian Little,Queen City,120.66,,,,,Single-ply,SBD,M
Boys,124.74+,1,Seth Kohlscheen,Crawford,140.25,322.05,183.7,274.42,780.18,Single-ply,SBD,M
Boys,124.74+,2,Morgan Clark,Gladewater Union Grove,132.99,328.85,161.03,281.23,771.11,Single-ply,SBD,M
Boys,124.74+,3,De'vonze Franklin,Snook,156.04,328.85,192.78,249.48,771.11,Single-ply,SBD,M
Boys,124.74+,4,Zach Bell,Joaquin,152.68,324.32,192.78,249.48,766.57,Single-ply,SBD,M
Boys,124.74+,5,Justin Garcia,Lyford,140.7,319.78,183.7,258.55,762.04,Single-ply,SBD,M
Boys,124.74+,6,Andrew Platt,Buna,139.71,317.51,181.44,256.28,755.23,Single-ply,SBD,M
Boys,124.74+,7,Malik Gilliam,Troup,162.84,337.93,163.29,244.94,746.16,Single-ply,SBD,M
Boys,124.74+,8,Freddie Enriquez,Rocksprings,152.23,308.44,172.37,254.01,734.82,Single-ply,SBD,M
Boys,124.74+,9,Francisco Saenz,Olton,143.61,299.37,172.37,258.55,730.28,Single-ply,SBD,M
Boys,124.74+,10,Taylor Elkins,Mertzon Irion County,143.24,276.69,174.63,238.14,689.46,Single-ply,SBD,M
Boys,124.74+,11,Zachary Brown,Alvord,129.09,254.01,158.76,233.6,646.37,Single-ply,SBD,M
Boys,124.74+,12,Marcus Alexander,Sunnyvale,137.08,254.01,142.88,244.94,641.83,Single-ply,SBD,M
Boys,124.74+,13,Alex Smith,Anahuac,143.97,247.21,158.76,231.33,637.3,Single-ply,SBD,M
Boys,,NS,Jacob Taylor,Bells,,,,,,Single-ply,SBD,M
