Division,WeightClassKg,Place,Name,Team,BodyweightKg,Best3SquatKg,Best3BenchKg,Best3DeadliftKg,TotalKg,Equipment,Event,Sex
Boys,51.71,1,Anthony Lara,Wolfforth Frenship,51.53,124.74,77.11,161.03,362.87,Single-ply,SBD,M
Boys,51.71,2,Avery Gallegos,Plainview,48.99,122.47,70.31,124.74,317.51,Single-ply,SBD,M
Boys,51.71,3,Preston Mann,Amarillo Highland Park,51.07,92.99,58.97,102.06,254.01,Single-ply,SBD,M
Boys,51.71,4,Kelton Johnson,Levelland,31.66,45.36,27.22,54.43,127.01,Single-ply,SBD,M
Boys,51.71,DQ,Andrew Luna,Perryton,51.71,,,,,Single-ply,SBD,M
Boys,55.79,1,Kevin Nguyen #8,Amarillo Highland Park,55.25,142.88,74.84,167.83,385.55,Single-ply,SBD,M
Boys,55.79,2,Cysco Barrera,Plainview,55.61,147.42,77.11,161.03,385.55,Single-ply,SBD,M
Boys,55.79,3,Bryan Nguyen,Amarillo Highland Park,55.7,122.47,61.23,136.08,319.78,Single-ply,SBD,M
Boys,55.79,4,Billy Lee,Amarillo Highland Park,55.25,111.13,72.57,127.01,310.71,Single-ply,SBD,M
Boys,55.79,5,Cole Buchanan,Wolfforth Frenship,55.52,90.72,61.23,115.67,267.62,Single-ply,SBD,M
Boys,55.79,6,Brian Arriaga,Dimmitt,55.79,86.18,63.5,102.06,251.74,Single-ply,SBD,M
Boys,55.79,DQ,Matthew Tracy,Lubbock Coronado,52.25,,,,,Single-ply,SBD,M
Boys,55.79,DQ,Ethan Mamawal,Lubbock Coronado,52.53,,,,,Single-ply,SBD,M
Boys,55.79,DQ,Sergio Romero,Childress,55.79,,,,,Single-ply,SBD,M
Boys,55.79,DQ,Jaime Luz,Levelland,55.79,,,,,Single-ply,SBD,M
Boys,59.87,1,Kevin Phan,Plainview,57.15,147.42,81.65,158.76,387.82,Single-ply,SBD,M
Boys,59.87,2,Case Dickey,Wolfforth Frenship,59.42,106.59,61.23,136.08,303.91,Single-ply,SBD,M
Boys,59.87,3,Jesus Guerrero,Hart,58.51,83.91,61.23,129.27,274.42,Single-ply,SBD,M
Boys,59.87,4,Jonathan Nevarez,Levelland,59.87,97.52,65.77,106.59,269.89,Single-ply,SBD,M
Boys,59.87,5,Juan Oltivero,Dimmitt,58.69,102.06,52.16,113.4,267.62,Single-ply,SBD,M
Boys,59.87,DQ,Joseph Jenkins,Perryton,59.87,,,,,Single-ply,SBD,M
Boys,59.87,DQ,Ceasar Luther,Perryton,59.87,,,,,Single-ply,SBD,M
Boys,59.87,DQ,Vi Huynh,Amarillo Highland Park,59.87,,,,,Single-ply,SBD,M
Boys,67.13,1,Raymon Aranda,Seagraves,65.32,229.06,136.08,215.46,580.6,Single-ply,SBD,M
Boys,67.13,2,Jerrico Enriquez,Plainview,66.77,213.19,111.13,181.44,505.76,Single-ply,SBD,M
Boys,67.13,3,Christian Maldonado,Canyon Randall,61.69,185.97,117.93,176.9,480.81,Single-ply,SBD,M
Boys,67.13,4,Zach Soto,Lubbock Coronado,65.41,156.49,102.06,174.63,433.18,Single-ply,SBD,M
Boys,67.13,5,Jeffery Davis,Lubbock Coronado,66.5,165.56,77.11,158.76,401.43,Single-ply,SBD,M
Boys,67.13,6,Ricky Cuellar,Lockney,65.68,161.03,70.31,161.03,392.36,Single-ply,SBD,M
Boys,67.13,7,Zach Walser,Canyon Randall,66.68,149.69,88.45,142.88,381.02,Single-ply,SBD,M
Boys,67.13,8,Luis Uruchutu,Canyon Randall,65.77,129.27,92.99,147.42,369.68,Single-ply,SBD,M
Boys,67.13,9,Hayden McCalib,Wolfforth Frenship,63.05,129.27,61.23,161.03,351.53,Single-ply,SBD,M
Boys,67.13,10,Izac Anthony,Levelland,64.77,127.01,68.04,145.15,340.19,Single-ply,SBD,M
Boys,67.13,11,Kade Tinsley,Bushland,60.96,92.99,52.16,97.52,242.67,Single-ply,SBD,M
Boys,67.13,DQ,Cody Castor,Childress,67.13,,,,,Single-ply,SBD,M
Boys,67.13,DQ,Alex Lugo,Perryton,67.13,,,,,Single-ply,SBD,M
Boys,67.13,DQ,Omar Delgado,Dumas,67.13,,,,,Single-ply,SBD,M
Boys,67.13,DQ,Sean Roberts,Amarillo Highland Park,67.13,,,,,Single-ply,SBD,M
Boys,67.13,DQ,Luis Ramos #1,Dumas,67.13,,,,,Single-ply,SBD,M
Boys,74.84,1,Luis Estrada,Plainview,72.76,219.99,136.08,222.26,578.33,Single-ply,SBD,M
Boys,74.84,2,Jerry Simental,Seagraves,68.22,172.37,113.4,176.9,462.66,Single-ply,SBD,M
Boys,74.84,3,Chris Lara,Bushland,74.03,174.63,97.52,188.24,460.4,Single-ply,SBD,M
Boys,74.84,4,Gabe Rodriguez,Lubbock Cooper,73.3,163.29,99.79,188.24,451.32,Single-ply,SBD,M
Boys,74.84,5,Marc Silvas,Wolfforth Frenship,74.66,142.88,88.45,174.63,405.97,Single-ply,SBD,M
Boys,74.84,6,Zeke Bermea,Levelland,74.66,151.95,97.52,149.69,399.16,Single-ply,SBD,M
Boys,74.84,7,Logan Pipkin,Lubbock Cooper,74.57,136.08,81.65,145.15,362.87,Single-ply,SBD,M
Boys,74.84,8,Nicklaus Taft,Wolfforth Frenship,72.03,120.2,70.31,163.29,353.8,Single-ply,SBD,M
Boys,74.84,9,Mason Brogden,Levelland,72.12,131.54,77.11,145.15,353.8,Single-ply,SBD,M
Boys,74.84,10,Logan Terrell,Bushland,72.21,102.06,83.91,142.88,328.85,Single-ply,SBD,M
Boys,74.84,11,Luis Rayos,Levelland,68.58,115.67,68.04,136.08,319.78,Single-ply,SBD,M
Boys,74.84,12,Noel Ceniceros,Lockney,73.48,122.47,68.04,113.4,303.91,Single-ply,SBD,M
Boys,74.84,13,Matt Anders,Amarillo Highland Park,70.49,90.72,68.04,115.67,274.42,Single-ply,SBD,M
Boys,74.84,14,Ab Navarro,Dimmitt,71.58,86.18,81.65,68.04,235.87,Single-ply,SBD,M
Boys,74.84,DQ,Mario Banos,Perryton,74.84,,,,,Single-ply,SBD,M
Boys,82.1,1,Austin Powell,Plainview,81.92,208.65,140.61,231.33,580.6,Single-ply,SBD,M
Boys,82.1,2,Jesse Flores,Levelland,82.1,183.7,145.15,188.24,517.1,Single-ply,SBD,M
Boys,82.1,3,Sean Meadows,Bushland,80.74,174.63,111.13,199.58,485.34,Single-ply,SBD,M
Boys,82.1,4,Taz Paul,Lubbock Coronado,76.48,188.24,102.06,192.78,483.08,Single-ply,SBD,M
Boys,82.1,5,Jacob Eugenis,Wolfforth Frenship,80.74,170.1,83.91,199.58,453.59,Single-ply,SBD,M
Boys,82.1,6,Quinten Johnson,Wolfforth Frenship,79.65,149.69,74.84,179.17,403.7,Single-ply,SBD,M
Boys,82.1,7,Brian McGovern,Bushland,77.93,142.88,97.52,158.76,399.16,Single-ply,SBD,M
Boys,82.1,8,RJ Young,Wolfforth Frenship,79.92,142.88,88.45,165.56,396.89,Single-ply,SBD,M
Boys,82.1,9,Troy Jewell,Lubbock Cooper,79.83,147.42,83.91,154.22,385.55,Single-ply,SBD,M
Boys,82.1,10,Miles Kuehn,Canyon,74.93,151.95,77.11,147.42,376.48,Single-ply,SBD,M
Boys,82.1,11,Julian Flores,Wolfforth Frenship,79.29,133.81,92.99,142.88,369.68,Single-ply,SBD,M
Boys,82.1,12,Matt Conder,Levelland,80.29,104.33,88.45,161.03,353.8,Single-ply,SBD,M
Boys,82.1,13,Logan Abbot,Lubbock Cooper,79.02,113.4,81.65,106.59,301.64,Single-ply,SBD,M
Boys,82.1,DQ,Devon Morrison,Lubbock Coronado,80.83,,,,,Single-ply,SBD,M
Boys,82.1,DQ,Jerod Compton,Lubbock Coronado,75.39,,,,,Single-ply,SBD,M
Boys,82.1,DQ,Jamie Lizama,Childress,82.1,,,,,Single-ply,SBD,M
Boys,82.1,DQ,Keanu Villareal,Lockney,82.1,,,,,Single-ply,SBD,M
Boys,82.1,DQ,Edgar Granados,Perryton,82.1,,,,,Single-ply,SBD,M
Boys,82.1,DQ,John Legg,Dumas,82.1,,,,,Single-ply,SBD,M
Boys,82.1,DQ,Marcos Saucedo,Dumas,82.1,,,,,Single-ply,SBD,M
Boys,89.81,1,Jimmy Rodriguez,Plainview,89.63,229.06,145.15,217.72,591.94,Single-ply,SBD,M
Boys,89.81,2,Blaine McGregor,Amarillo Highland Park,88.54,213.19,140.61,229.06,582.87,Single-ply,SBD,M
Boys,89.81,3,Dat Luu,Amarillo Highland Park,87.54,188.24,124.74,206.38,519.36,Single-ply,SBD,M
Boys,89.81,4,Armando Ramos,Levelland,83.73,185.97,113.4,195.04,494.42,Single-ply,SBD,M
Boys,89.81,5,Michael Marquez,Levelland,87.72,188.24,124.74,167.83,480.81,Single-ply,SBD,M
Boys,89.81,6,Caleb Frausto,Canyon Randall,88.45,161.03,124.74,174.63,460.4,Single-ply,SBD,M
Boys,89.81,7,Aryan Ortega,Lubbock Coronado,86.45,174.63,92.99,188.24,455.86,Single-ply,SBD,M
Boys,89.81,8,Augustine Moreno,Amarillo Highland Park,89.54,158.76,99.79,158.76,417.3,Single-ply,SBD,M
Boys,89.81,9,Dailon Dillard,Lubbock Coronado,85.64,156.49,97.52,161.03,415.04,Single-ply,SBD,M
Boys,89.81,10,Cameron Bednarz,Lubbock Cooper,82.74,140.61,133.81,136.08,410.5,Single-ply,SBD,M
Boys,89.81,11,Avery Farmer,Lubbock Cooper,86.45,138.35,131.54,131.54,401.43,Single-ply,SBD,M
Boys,89.81,12,Michael Spencer,Seagraves,85.37,138.35,95.25,142.88,376.48,Single-ply,SBD,M
Boys,89.81,13,Jackson Espe,Bushland,84.28,113.4,72.57,142.88,328.85,Single-ply,SBD,M
Boys,89.81,DQ,Aaron Rivas,Plainview,89.81,,,,,Single-ply,SBD,M
Boys,89.81,DQ,Tanner Mills,Childress,89.81,,,,,Single-ply,SBD,M
Boys,89.81,DQ,Jordan McCullough,Wolfforth Frenship,89.81,,,,,Single-ply,SBD,M
Boys,89.81,DQ,Antonio Rangel,Dumas,89.81,,,,,Single-ply,SBD,M
Boys,89.81,DQ,Christian Sanchez,Dumas,89.81,,,,,Single-ply,SBD,M
Boys,89.81,DQ,Mason Turner,Dumas,89.81,,,,,Single-ply,SBD,M
Boys,89.81,DQ,Angel Luther,Perryton,89.81,,,,,Single-ply,SBD,M
Boys,99.79,1,Carlos Pina,Lubbock Cooper,95.35,229.06,145.15,201.85,576.06,Single-ply,SBD,M
Boys,99.79,2,David Bustos,Plainview,97.52,222.26,124.74,219.99,566.99,Single-ply,SBD,M
Boys,99.79,3,Brandon Steele,Lubbock Coronado,98.7,213.19,142.88,201.85,557.92,Single-ply,SBD,M
Boys,99.79,4,Braden Price,Levelland,97.89,188.24,115.67,213.19,517.1,Single-ply,SBD,M
Boys,99.79,5,Caden Lafever,Canyon Randall,96.89,188.24,133.81,183.7,505.76,Single-ply,SBD,M
Boys,99.79,6,Isaiah Williams,Wolfforth Frenship,97.16,165.56,127.01,204.12,496.68,Single-ply,SBD,M
Boys,99.79,7,Christian Perez,Levelland,91.81,197.31,102.06,183.7,483.08,Single-ply,SBD,M
Boys,99.79,8,Marcus Correa,Canyon Randall,96.71,174.63,129.27,172.37,476.27,Single-ply,SBD,M
Boys,99.79,9,Rene Enrequiz,Lubbock Cooper,92.44,165.56,115.67,181.44,462.66,Single-ply,SBD,M
Boys,99.79,10,Matt Ramirez,Wolfforth Frenship,98.25,156.49,92.99,190.51,439.98,Single-ply,SBD,M
Boys,99.79,11,Brendan Schmidt,Wolfforth Frenship,92.17,149.69,70.31,183.7,403.7,Single-ply,SBD,M
Boys,99.79,12,Coy Galindo,Wolfforth Frenship,91.99,122.47,86.18,188.24,396.89,Single-ply,SBD,M
Boys,99.79,DQ,Max Acosta,Dumas,99.79,,,,,Single-ply,SBD,M
Boys,99.79,DQ,Jay Ramirez,Perryton,99.79,,,,,Single-ply,SBD,M
Boys,99.79,DQ,Antonio Covarrubias,Perryton,99.79,,,,,Single-ply,SBD,M
Boys,109.77,1,Octavius Vera,Plainview,109.41,265.35,147.42,229.06,641.83,Single-ply,SBD,M
Boys,109.77,2,Jesus Benitez,Lubbock Cooper,105.87,238.14,145.15,235.87,619.15,Single-ply,SBD,M
Boys,109.77,3,Troy Teo,Lubbock Cooper,108.32,226.8,142.88,206.38,576.06,Single-ply,SBD,M
Boys,109.77,4,Zachary Bocanagra,Lubbock Cooper,108.5,213.19,136.08,181.44,530.7,Single-ply,SBD,M
Boys,109.77,5,Victor Del Fierro,Canyon Randall,102.06,190.51,147.42,183.7,521.63,Single-ply,SBD,M
Boys,109.77,6,Zach Zaccardo,Bushland,104.6,181.44,120.2,192.78,494.42,Single-ply,SBD,M
Boys,109.77,7,Zach Morgan,Wolfforth Frenship,109.68,176.9,97.52,206.38,480.81,Single-ply,SBD,M
Boys,109.77,8,David Muñoz,Canyon Randall,107.05,172.37,117.93,176.9,467.2,Single-ply,SBD,M
Boys,109.77,9,Brendon Eminger,Canyon,101.42,206.38,83.91,170.1,460.4,Single-ply,SBD,M
Boys,109.77,10,Shelby Sanderson,Canyon Randall,106.41,147.42,127.01,183.7,458.13,Single-ply,SBD,M
Boys,109.77,11,Steven Bazan,Lockney,102.42,188.24,97.52,170.1,455.86,Single-ply,SBD,M
Boys,109.77,12,Patrick Cheney,Amarillo Highland Park,101.42,156.49,106.59,183.7,446.79,Single-ply,SBD,M
Boys,109.77,13,Jose Valles,Wolfforth Frenship,109.23,142.88,104.33,183.7,430.91,Single-ply,SBD,M
Boys,109.77,14,Ethan Saldena,Lubbock Cooper,106.78,147.42,92.99,154.22,394.63,Single-ply,SBD,M
Boys,109.77,15,Blake Jackson,Bushland,105.14,102.06,74.84,102.06,278.96,Single-ply,SBD,M
Boys,109.77,DQ,Austin McCarty,Childress,109.77,,,,,Single-ply,SBD,M
Boys,109.77,DQ,Adam Acevedo,Dumas,109.77,,,,,Single-ply,SBD,M
Boys,109.77,DQ,Jesus Cervantes,Perryton,109.77,,,,,Single-ply,SBD,M
Boys,124.74,1,Adriel Flores,Plainview,124.74,281.23,140.61,244.94,666.78,Single-ply,SBD,M
Boys,124.74,2,Leo Balderas,Plainview,118.12,254.01,145.15,235.87,635.03,Single-ply,SBD,M
Boys,124.74,3,Dillan Allen,Wolfforth Frenship,112.94,183.7,102.06,188.24,474,Single-ply,SBD,M
Boys,124.74,4,Pete Vargas,Wolfforth Frenship,111.86,190.51,99.79,170.1,460.4,Single-ply,SBD,M
Boys,124.74,5,Kendall Ptacnik,Canyon Randall,112.04,165.56,120.2,170.1,455.86,Single-ply,SBD,M
Boys,124.74,6,Nathan Silva,Lubbock Cooper,110.59,147.42,97.52,154.22,399.16,Single-ply,SBD,M
Boys,124.74,DQ,Eric Balderos,Dumas,124.74,,,,,Single-ply,SBD,M
Boys,124.74,DQ,Alonso Cardenas,Dumas,124.74,,,,,Single-ply,SBD,M
Boys,124.74,DQ,Manuel Alvidrez,Dumas,124.74,,,,,Single-ply,SBD,M
Boys,124.74,DQ,Omar Hernandez,Dumas,124.74,,,,,Single-ply,SBD,M
Boys,124.74,DQ,Gustavo Navarrete,Perryton,124.74,,,,,Single-ply,SBD,M
Boys,124.74,DQ,Isaac Huseman,Canyon,124.74,,,,,Single-ply,SBD,M
Boys,124.74,DQ,Brandon Chambers,Canyon,124.74,,,,,Single-ply,SBD,M
Boys,124.74+,1,Trevor Townsend,Plainview,147.87,258.55,174.63,219.99,653.17,Single-ply,SBD,M
Boys,124.74+,2,Ethan Smith,Dimmitt,179.17,158.76,92.99,181.44,433.18,Single-ply,SBD,M
Boys,124.74+,3,Travis Flinchbaugh,Lubbock Cooper,135.53,142.88,83.91,147.42,374.21,Single-ply,SBD,M
Boys,124.74+,4,Tanner Wilson,Canyon,156.49,120.2,83.91,142.88,347,Single-ply,SBD,M
Boys,124.74+,DQ,Demetri Jordan,Lubbock Coronado,129.55,,,,,Single-ply,SBD,M
Boys,124.74+,DQ,Carlos Romero,Childress,127.01,,,,,Single-ply,SBD,M
Boys,124.74+,DQ,Eli Hernandez,Dumas,127.01,,,,,Single-ply,SBD,M
