Name,Age,Sex,Division,Equipment,BodyweightKg,WeightClassKg,Squat1Kg,Squat2Kg,Squat3Kg,Best3SquatKg,Squat4Kg,Bench1Kg,Bench2Kg,Bench3Kg,Best3BenchKg,Bench4Kg,Deadlift1Kg,Deadlift2Kg,Deadlift3Kg,Best3DeadliftKg,Deadlift4Kg,TotalKg,Event,Place,Country
Leslie Watson,,F,,Multi-ply,47.1,48,70,77.5,82.5,82.5,,60,65,67.5,67.5,,90,95,-100,95,,245,SBD,1,
Jawine Westland,,F,,Multi-ply,59.2,60,-140,-140,-140,,,60,70,-80,70,,120,-140,-150,120,,,SBD,DQ,
Linda Broom,,F,,Multi-ply,67.5,67.5,90,100,105,105,,75,-77.5,80,80,,120,130,135,135,,320,SBD,2,
Hannah Han,,F,,Multi-ply,66.6,67.5,120,130,140,140,,55,60,-62.5,60,,130,135,140,140,,340,SBD,1,
Jacqui Altham,,F,,Multi-ply,82.4,82.5,140,150,-155,150,,85,92.5,-100,92.5,,140,155,170,170,,412.5,SBD,1,
Alan Collins,,M,,Multi-ply,67.1,67.5,30,,,30,,120,125,-130,125,,60,,,60,,215,SBD,3,
Barry Brown,,M,,Multi-ply,65.5,67.5,115,125,145,145,,70,75,-77.5,75,,115,122.5,-125,122.5,,342.5,SBD,2,
William Andrews #4,,M,,Multi-ply,65.2,67.5,130,-140,-155,130,,85,-90,90,90,92.5,170,-200,-200,170,,390,SBD,1,
Mitch Ravenscroft,,M,,Multi-ply,74,75,-180,190,-200,190,,-130,130,-137.5,130,,160,-180,-180,160,,480,SBD,6,
Jack Chambers,,M,,Multi-ply,73.6,75,-150,160,190,190,,-100,110,-125,110,,175,200,210,210,,510,SBD,5,
Daniel Mervis,,M,,Multi-ply,70.5,75,190,205,-215,205,,-135,135,-145,135,,175,190,-210,190,,530,SBD,4,
Merat Tafreshi,,M,,Multi-ply,73.1,75,-220,220,-232.5,220,,120,130,-135,130,,200,220,-230,220,,570,SBD,3,
Kieran Scott,,M,,Multi-ply,69.9,75,170,200,220,220,,120,127.5,-132.5,127.5,,225,242.5,251,251,,598.5,SBD,2,
Kevin Smith,,M,,Multi-ply,74.8,75,260,-280,-280,260,,150,160,170,170,,220,230,240,240,,670,SBD,1,
Dave Mannering,,M,,Multi-ply,73.3,75,225,-251,260,260,,-165,,,,,-210,,,,,,SBD,DQ,
Kyle Young,,M,,Multi-ply,81.7,82.5,,,,,,165,176,-190,176,,,,,,,176,B,1,
Chris Croucher,,M,,Multi-ply,78.5,82.5,130,142.5,-150,142.5,,125,-135,135,135,,190,210,215,215,,492.5,SBD,3,
Luke Corcoran,,M,,Multi-ply,81.5,82.5,225,235,-245,235,,-130,130,132.5,132.5,,210,222.5,230,230,,597.5,SBD,2,
Andy Cusick,,M,,Multi-ply,82.4,82.5,330,350,,350,,-230,230,250,250,,280,-300,-300,280,,880,SBD,1,
James Edwards #1,,M,,Multi-ply,89.8,90,160,180,205,205,,100,115,-127.5,115,,180,200,-220,200,,520,SBD,5,
Kevin Smith,,M,,Multi-ply,86.5,90,180,195,200,200,,125,-130,130,130,,200,220,-230,220,,550,SBD,4,
Simon Vickers,,M,,Multi-ply,88.7,90,260,-280,280,280,,150,160,-170,160,,220,240,-257.5,240,,680,SBD,3,
Hassan Zaidi,,M,,Multi-ply,87.6,90,260,280,300,300,,150,160,170,170,,245,265,-272.5,265,,735,SBD,2,
Adam Brooks,,M,,Multi-ply,88.5,90,-290,-290,290,290,,180,195,-205,195,,235,252.5,270,270,,755,SBD,1,
Azer Aliyev,,M,,Multi-ply,97.2,100,215,225,235,235,,-145,145,152.5,152.5,,225,240,-247.5,240,,627.5,SBD,4,
Scott Halliday,,M,,Multi-ply,99.9,100,220,240,255,255,,160,180,190,190,200,220,240,250,250,,695,SBD,3,
Jiří Tkadlčík,,M,,Multi-ply,97.8,100,260,275,290,290,,165,175,,175,,295,310,320,320,330,785,SBD,2,Czechia
Curtis Arnold,,M,,Multi-ply,99.2,100,310,332.5,342.5,342.5,,240,252.5,-272.5,252.5,,270,292.5,-305,292.5,,887.5,SBD,1,
Michael Gibson,,M,,Multi-ply,108.2,110,,,,,,250,-272.5,-272.5,250,,,,,,,250,B,1,
Ian Bingle,,M,,Multi-ply,109.8,110,150,165,170,170,,110,120,125,125,,150,165,180,180,,475,SBD,10,
Michael Towers,,M,,Multi-ply,106.5,110,185,210,230,230,,120,135,145,145,,220,240,260,260,,635,SBD,9,
Max Cooper,,M,,Multi-ply,112.3,125,220,-240,240,240,,-165,-165,165,165,,200,220,232.5,232.5,,637.5,SBD,5,
Stuart McColvin,,M,,Multi-ply,106.1,110,-225,225,-250,225,,160,-170,-170,160,,250,270,-280,270,,655,SBD,8,
Lee Routledge,,M,,Multi-ply,108.9,110,240,260,280,280,,140,150,170,170,,230,250,-260,250,,700,SBD,7,
Jamie Chivers,,M,,Multi-ply,109,110,250,265,-280,265,,240,,,240,,250,260,-270,260,,765,SBD,6,
Dan Evans,,M,,Multi-ply,109.3,110,-295,295,330,330,,200,215,-230,215,,235,-255,-255,235,,780,SBD,5,
Anthony Giddings,,M,,Multi-ply,109.1,110,280,300,315,315,,180,-195,195,195,,260,280,-300,280,,790,SBD,4,
Martin Donovan,,M,,Multi-ply,106.4,110,300,317.5,-330,317.5,,-200,200,220,220,,280,300,-312.5,300,,837.5,SBD,3,
Justin McKelvey,,M,,Multi-ply,105,110,300,320,-335,320,,240,-260,260,260,,272.5,290,,290,,870,SBD,2,
Shane Harrison,,M,,Multi-ply,110,110,380,-402.5,402.5,402.5,,250,272.5,285,285,,270,275,-295,275,,962.5,SBD,1,
Daniel Yeates,,M,,Multi-ply,110.9,125,160,200,-210,200,,120,130,140,140,,200,220,230,230,,570,SBD,6,
Oleksandr Kokovin,,M,,Multi-ply,113.8,125,240,255,275,275,,-235,-235,235,235,,230,240,,240,,750,SBD,4,Ukraine
Ben Williams,,M,,Multi-ply,124.8,125,340,-360,365,365,,250,265,-285,265,,270,285,-332.5,285,,915,SBD,3,
Ruslan Ovechko,,M,,Multi-ply,112.5,125,340,365,375,375,,245,255,262.5,262.5,,280,307.5,-312.5,307.5,,945,SBD,2,Ukraine
Jack Gellatly,,M,,Multi-ply,122,125,345,362.5,-381.5,362.5,,260,272.5,282.5,282.5,,280,301,,301,,946,SBD,1,
Dan Dvorak,,M,,Multi-ply,128.5,140,,,,,,-300,310,-332.5,310,,,,,,,310,B,1,Czechia
Jack Barnard,,M,,Multi-ply,140,140,180,190,210,210,220,82.5,100,110,110,,175,200,-210,200,,520,SBD,1,
David Strelda,,M,,Raw,73.2,75,145,-155,160,160,,102.5,-107.5,-107.5,102.5,,100,120,145,145,,407.5,SBD,2,Czechia
Tom Bradshaw,,M,,Raw,74.6,75,155,165,-170,165,,105,115,-125,115,,215,230,240,240,,520,SBD,1,
Glen Smith,,M,,Raw,81.3,82.5,150,-165,-170,150,,100,,,100,,190,200,211,211,,461,SBD,1,
Robert Mumby,,M,,Raw,88.7,90,140,167.5,170,170,,107.5,-117.5,-117.5,107.5,,192.5,200,-205,200,,477.5,SBD,1,
František Esser,,M,,Raw,101.6,110,120,130,140,140,,120,130,-135,130,,160,180,200,200,,470,SBD,1,Czechia
