Name,WeightClassKg,Sex,Division,Best3SquatKg,Best3BenchKg,Best3DeadliftKg,TotalKg,Event,Equipment,Place
Jon Smoker,75,M,Masters,269.89,129.27,226.8,625.96,SBD,Multi-ply,1
M. Miller,82.5,M,Masters,158.76,92.99,151.95,403.7,SBD,Multi-ply,1
Jim Jeurink,90,M,Masters,299.37,129.27,251.74,680.39,SBD,Multi-ply,1
Norm Shackelford,67.5,M,Open,324.32,142.88,244.94,712.14,SBD,Multi-ply,1
Jim Casemier,90,M,Open,249.48,142.88,254.01,646.37,SBD,Multi-ply,1
B. Miller #4,52,M,Teen,61.24,24.95,70.31,156.49,SBD,Multi-ply,1
Lynne Boshoven,90,F,Open,281.23,149.69,231.33,662.25,SBD,Multi-ply,1
