Division,WeightClassKg,Place,Name,Team,BodyweightKg,Best3SquatKg,Best3BenchKg,Best3DeadliftKg,TotalKg,Equipment,Event,Sex
Boys,51.71,1,Will Hooten,Red Oak Life,42.09,83.91,43.09,74.84,201.85,Single-ply,SBD,M
Boys,51.71,2,Ethan Phillips,Hooks,47.99,56.7,34.02,79.38,170.1,Single-ply,SBD,M
Boys,51.71,DQ,Jesse Peacock,Diana New Diana,49.26,136.08,,,,Single-ply,SBD,M
Boys,55.79,1,Alex Rushing,Whitewright,55.07,127.01,74.84,133.81,335.66,Single-ply,SBD,M
Boys,55.79,2,Devin Jones,Hooks,54.07,102.06,72.57,140.61,315.25,Single-ply,SBD,M
Boys,55.79,3,Michael Slack,Whitewright,55.34,115.67,86.18,113.4,315.25,Single-ply,SBD,M
Boys,59.87,1,Aaron May,Mesquite Poteet,56.25,122.47,68.04,136.08,326.59,Single-ply,SBD,M
Boys,59.87,2,Jared Weeks,Diana New Diana,57.79,113.4,70.31,131.54,315.25,Single-ply,SBD,M
Boys,59.87,3,Caleb Morrow,Tyler,57.15,122.47,45.36,122.47,290.3,Single-ply,SBD,M
Boys,59.87,4,Miles Knudsen,Honey Grove,58.06,104.33,47.63,115.67,267.62,Single-ply,SBD,M
Boys,67.13,1,Miles Pearson,Diana New Diana,65.68,145.15,102.06,195.04,442.25,Single-ply,SBD,M
Boys,67.13,2,Logan Johnson,Lone Oak,67.13,151.95,102.06,179.17,433.18,Single-ply,SBD,M
Boys,67.13,3,Orlando Luckeye,Hooks,66.77,161.03,79.38,158.76,399.16,Single-ply,SBD,M
Boys,67.13,4,Clay Moats,Lone Oak,63.59,158.76,74.84,163.29,396.89,Single-ply,SBD,M
Boys,67.13,5,Dylan Bargerhuff,Lone Oak,64.68,145.15,79.38,156.49,381.02,Single-ply,SBD,M
Boys,67.13,6,David Tanoos,Lone Oak,64.77,142.88,83.91,145.15,371.95,Single-ply,SBD,M
Boys,67.13,7,Hunter Bryan,Hooks,65.05,113.4,61.23,138.35,312.98,Single-ply,SBD,M
Boys,67.13,8,Dalton Young,Lone Oak,67,113.4,63.5,129.27,306.17,Single-ply,SBD,M
Boys,67.13,9,Kameron Hansen,Whitewright,66.68,106.59,81.65,106.59,294.84,Single-ply,SBD,M
Boys,67.13,10,Brayndon Clark,Hooks,62.69,102.06,70.31,106.59,278.96,Single-ply,SBD,M
Boys,67.13,DQ,Harrison Griffin,Diana New Diana,64.14,140.61,,,,Single-ply,SBD,M
Boys,74.84,1,Blaine Jarratt,Caddo Mills,74.84,185.97,108.86,204.12,498.95,Single-ply,SBD,M
Boys,74.84,2,Hoss McElroy,Honey Grove,72.21,197.31,102.06,197.31,496.68,Single-ply,SBD,M
Boys,74.84,3,Eric Shaw,Lone Oak,74.39,185.97,115.67,183.7,485.34,Single-ply,SBD,M
Boys,74.84,4,Levi McDaniel,Hooks,72.67,156.49,92.99,174.63,424.11,Single-ply,SBD,M
Boys,74.84,5,Matt Hargis,Rockwall-Heath,73.94,156.49,99.79,163.29,419.57,Single-ply,SBD,M
Boys,74.84,6,Cody Williams,Lone Oak,70.76,158.76,83.91,174.63,417.3,Single-ply,SBD,M
Boys,74.84,7,Antonio Rincon,Lone Oak,74.3,158.76,90.72,167.83,417.3,Single-ply,SBD,M
Boys,74.84,8,Matthew Lutz,Lone Oak,69.49,145.15,92.99,174.63,412.77,Single-ply,SBD,M
Boys,82.1,9,Andrew Pierce,Mesquite Poteet,74.93,158.76,92.99,147.42,399.16,Single-ply,SBD,M
Boys,74.84,10,Nick Butler,Caddo Mills,70.4,136.08,70.31,154.22,360.61,Single-ply,SBD,M
Boys,74.84,11,Dillan Sumners,Diana New Diana,73.66,117.93,83.91,136.08,337.93,Single-ply,SBD,M
Boys,74.84,12,Tyrek Kitchen,Hooks,70.58,113.4,70.31,138.35,322.05,Single-ply,SBD,M
Boys,74.84,13,Tavion Rigsby,Hooks,72.85,113.4,68.04,138.35,319.78,Single-ply,SBD,M
Boys,74.84,DQ,Tannar Ryan,Hooks,67.77,,,,,Single-ply,SBD,M
Boys,74.84,DQ,Kolby Langham,Whitewright,68.13,,,,,Single-ply,SBD,M
Boys,82.1,1,Quentin Wooten,Rockwall-Heath,80.1,208.65,127.01,240.4,576.06,Single-ply,SBD,M
Boys,82.1,2,Eli Gammage,Lone Oak,80.47,208.65,122.47,226.8,557.92,Single-ply,SBD,M
Boys,82.1,3,Devin Shaw,Lone Oak,80.74,213.19,127.01,210.92,551.11,Single-ply,SBD,M
Boys,82.1,4,Clayton Florio,Caddo Mills,80.92,217.72,104.33,204.12,526.17,Single-ply,SBD,M
Boys,82.1,5,Rigo Villareal,Rockwall-Heath,81.37,199.58,122.47,176.9,498.95,Single-ply,SBD,M
Boys,82.1,6,Toby Palmer,Diana New Diana,79.74,163.29,97.52,204.12,464.93,Single-ply,SBD,M
Boys,82.1,7,Keaton Dickerson,Mesquite Poteet,81.92,174.63,83.91,170.1,428.64,Single-ply,SBD,M
Boys,82.1,8,David Ramirez,Red Oak Life,82.01,167.83,95.25,165.56,428.64,Single-ply,SBD,M
Boys,82.1,9,Ethan Hunt,Lone Oak,80.29,149.69,83.91,163.29,396.89,Single-ply,SBD,M
Boys,82.1,10,Hunter McQuatters,Honey Grove,81.56,158.76,88.45,147.42,394.63,Single-ply,SBD,M
Boys,82.1,11,Ishmael Threadgill,Hooks,80.56,149.69,81.65,161.03,392.36,Single-ply,SBD,M
Boys,82.1,12,Cody McCallie,Hooks,79.74,136.08,79.38,161.03,376.48,Single-ply,SBD,M
Boys,82.1,13,John Cooper,Whitewright,81.19,136.08,81.65,158.76,376.48,Single-ply,SBD,M
Boys,82.1,14,Bret Ballet,Tyler,75.75,122.47,104.33,145.15,371.95,Single-ply,SBD,M
Boys,82.1,15,Corey Moses,Mesquite Poteet,76.29,133.81,74.84,136.08,344.73,Single-ply,SBD,M
Boys,82.1,16,John Hill,Whitewright,78.47,122.47,92.99,120.2,335.66,Single-ply,SBD,M
Boys,82.1,17,Joshua Miller,Tyler,81.01,124.74,56.7,142.88,324.32,Single-ply,SBD,M
Boys,89.81,18,Chase Mayo,Lone Oak,82.28,142.88,70.31,106.59,319.78,Single-ply,SBD,M
Boys,82.1,DQ,Mason Alcaraz,Red Oak Life,80.74,183.7,,,,Single-ply,SBD,M
Boys,89.81,1,Tristen Carstarphen,Rockwall-Heath,87.09,210.92,127.01,219.99,557.92,Single-ply,SBD,M
Boys,89.81,2,Jace Jarvis,Caddo Mills,84.64,208.65,136.08,210.92,555.65,Single-ply,SBD,M
Boys,89.81,3,Takari Wheler,Mesquite Poteet,87.82,183.7,104.33,181.44,469.47,Single-ply,SBD,M
Boys,89.81,4,Jake Williams,Lone Oak,83.28,158.76,117.93,181.44,458.13,Single-ply,SBD,M
Boys,89.81,5,Jordan Rollins,Mesquite Poteet,82.92,158.76,86.18,176.9,421.84,Single-ply,SBD,M
Boys,89.81,6,Randall Shelly,Hooks,88.36,161.03,95.25,145.15,401.43,Single-ply,SBD,M
Boys,89.81,7,Cole Freeman,Diana New Diana,84.91,156.49,79.38,158.76,394.63,Single-ply,SBD,M
Boys,89.81,8,Preston Stover,Red Oak Life,85,147.42,72.57,163.29,383.29,Single-ply,SBD,M
Boys,89.81,9,Marquellion Rush,Mesquite Poteet,85.91,138.35,79.38,147.42,365.14,Single-ply,SBD,M
Boys,89.81,DQ,Blake Linscomb,Red Oak Life,84.1,161.03,,,,Single-ply,SBD,M
Boys,99.79,1,Preston White,Diana New Diana,96.62,190.51,97.52,206.38,494.42,Single-ply,SBD,M
Boys,99.79,2,Justus Seiber,Lone Oak,96.8,192.78,108.86,185.97,487.61,Single-ply,SBD,M
Boys,99.79,3,Carter Shelton,Longview Spring Hill,97.98,163.29,108.86,190.51,462.66,Single-ply,SBD,M
Boys,109.77,4,Josh Thomas,Mesquite Poteet,99.97,161.03,102.06,183.7,446.79,Single-ply,SBD,M
Boys,99.79,5,Brennon Walker,Mesquite Poteet,97.07,154.22,102.06,179.17,435.45,Single-ply,SBD,M
Boys,99.79,6,Noah Ingram,Mesquite Poteet,98.34,147.42,83.91,181.44,412.77,Single-ply,SBD,M
Boys,99.79,7,Dakota Manes,Diana New Diana,94.35,142.88,86.18,174.63,403.7,Single-ply,SBD,M
Boys,99.79,8,Christian Tejeda,Mesquite Poteet,95.98,142.88,102.06,151.95,396.89,Single-ply,SBD,M
Boys,99.79,9,Clay Almond,Whitewright,96.25,147.42,102.06,142.88,392.36,Single-ply,SBD,M
Boys,99.79,10,Cash Barnes,Lone Oak,99.7,154.22,79.38,158.76,392.36,Single-ply,SBD,M
Boys,99.79,11,Gabriel Eguia,Red Oak Life,94.17,163.29,88.45,136.08,387.82,Single-ply,SBD,M
Boys,99.79,12,Gavin Gallup,Mesquite Poteet,99.7,133.81,102.06,147.42,383.29,Single-ply,SBD,M
Boys,99.79,13,Kevin Lair,Hooks,99.25,136.08,83.91,158.76,378.75,Single-ply,SBD,M
Boys,109.77,1,Matt Coker,Caddo Mills,108.05,249.48,181.44,222.26,653.17,Single-ply,SBD,M
Boys,109.77,2,Jassavia Reese,Tyler,108.32,226.8,127.01,256.28,610.08,Single-ply,SBD,M
Boys,109.77,3,Jaylon Reese,Tyler,108.05,210.92,142.88,233.6,587.4,Single-ply,SBD,M
Boys,109.77,4,Fili Rincon,Lone Oak,108.68,238.14,120.2,206.38,564.72,Single-ply,SBD,M
Boys,109.77,5,Landon Shelton,Hooks,102.51,204.12,124.74,224.53,553.38,Single-ply,SBD,M
Boys,109.77,6,Aysor Awad,Mesquite Poteet,109.77,210.92,145.15,176.9,532.97,Single-ply,SBD,M
Boys,109.77,7,DeCorian Blaylock,Tyler,105.05,195.04,120.2,188.24,503.49,Single-ply,SBD,M
Boys,109.77,8,Kent Haskett,Whitewright,107.95,181.44,117.93,204.12,503.49,Single-ply,SBD,M
Boys,109.77,9,Bryton Jimenez,Lone Oak,105.6,199.58,111.13,167.83,478.54,Single-ply,SBD,M
Boys,109.77,10,Dane White,Lone Oak,104.51,165.56,95.25,181.44,442.25,Single-ply,SBD,M
Boys,109.77,11,Abdel Homad,Mesquite Poteet,106.41,142.88,83.91,158.76,385.55,Single-ply,SBD,M
Boys,124.74,1,Pierre Leonard,Tyler,113.85,249.48,154.22,224.53,628.23,Single-ply,SBD,M
Boys,124.74,2,Hunter Hicks,Longview Spring Hill,121.65,195.04,113.4,185.97,494.42,Single-ply,SBD,M
Boys,124.74,3,Daymon Littleron,Mesquite Poteet,113.76,199.58,106.59,172.37,478.54,Single-ply,SBD,M
Boys,124.74,4,TreJon Blake,Tyler,121.65,197.31,102.06,167.83,467.2,Single-ply,SBD,M
Boys,124.74,5,Victor Buenrosto,Mesquite Poteet,124.56,136.08,70.31,149.69,356.07,Single-ply,SBD,M
Boys,124.74,DQ,Trevante Leflore,Mesquite Poteet,114.76,161.03,,,,Single-ply,SBD,M
Boys,124.74,DQ,Isiaha Burgess,Tyler,117.21,,,,,Single-ply,SBD,M
Boys,124.74+,1,Trey Villarreal,Diana New Diana,150.96,244.94,195.04,256.28,696.26,Single-ply,SBD,M
Boys,124.74+,2,Jorge Guerrero,Rockwall-Heath,152.5,249.48,158.76,208.65,616.89,Single-ply,SBD,M
Boys,124.74+,3,JC Bennett,Rockwall-Heath,140.07,210.92,120.2,240.4,571.53,Single-ply,SBD,M
Boys,124.74+,4,Colby Harris,Tyler,146.06,238.14,136.08,170.1,544.31,Single-ply,SBD,M
Boys,124.74+,5,Jonathan Clark,Honey Grove,146.24,204.12,113.4,172.37,489.88,Single-ply,SBD,M
Boys,124.74+,6,Dominic Little,Whitewright,131.54,206.38,88.45,158.76,453.59,Single-ply,SBD,M
Boys,124.74+,7,Alec Dickinson,Honey Grove,135.81,174.63,111.13,163.29,449.06,Single-ply,SBD,M
Boys,124.74+,8,Xavier Landum,Mesquite Poteet,134.44,174.63,106.59,156.49,437.72,Single-ply,SBD,M
Boys,124.74+,9,Jacob Vasquez,Mesquite Poteet,145.15,156.49,86.18,174.63,417.3,Single-ply,SBD,M
Boys,124.74+,10,Edgar Torres,Tyler,131.09,158.76,90.72,156.49,405.97,Single-ply,SBD,M
Boys,124.74+,11,Caleb Carlile,Red Oak Life,126.64,140.61,86.18,161.03,387.82,Single-ply,SBD,M
