Division,WeightClassKg,Place,Name,Team,BodyweightKg,Best3SquatKg,Best3BenchKg,Best3DeadliftKg,TotalKg,Equipment,Event,Sex
Boys,55.79,1,Rodney Barnes,Everman,51.8,195.04,97.52,190.51,483.08,Single-ply,SBD,M
Boys,51.71,2,Eddie Olvera,Los Fresnos,51.62,167.83,97.52,181.44,446.79,Single-ply,SBD,M
Boys,51.71,3,LA Gonzalez,Alice,51.44,185.97,86.18,172.37,444.52,Single-ply,SBD,M
Boys,51.71,4,Brooks Guzman,Weslaco East,51.44,163.29,90.72,188.24,442.25,Single-ply,SBD,M
Boys,51.71,5,Alex Berrones,Brownsville Lopez,49.71,145.15,86.18,179.17,410.5,Single-ply,SBD,M
Boys,51.71,6,Benny Lara,Victoria West,50.71,161.03,77.11,158.76,396.89,Single-ply,SBD,M
Boys,51.71,7,Ignacio Romero,Plainview,51.17,172.37,72.57,149.69,394.63,Single-ply,SBD,M
Boys,51.71,8,Sammy Guadarrama,Abilene Cooper,51.26,149.69,79.38,163.29,392.36,Single-ply,SBD,M
Boys,55.79,9,Nicolas Garcia,San Antonio Southside,51.89,156.49,79.38,156.49,392.36,Single-ply,SBD,M
Boys,55.79,10,Carlos Salazar,Manvel,51.94,145.15,79.38,165.56,390.09,Single-ply,SBD,M
Boys,51.71,11,Brandon Sauceda,PSJA Memorial,50.44,138.35,83.91,165.56,387.82,Single-ply,SBD,M
Boys,51.71,12,Anthony Garcia,Weslaco,50.62,140.61,83.91,163.29,387.82,Single-ply,SBD,M
Boys,51.71,13,Diego Gallegos,Alvin,51.62,140.61,90.72,156.49,387.82,Single-ply,SBD,M
Boys,51.71,14,Robert Gonzalez,Laredo Cigarroa,50.26,145.15,79.38,156.49,381.02,Single-ply,SBD,M
Boys,51.71,15,Nate Lunsford,Frisco Wakeland,50.98,147.42,81.65,149.69,378.75,Single-ply,SBD,M
Boys,51.71,16,Wylie Brown,Nacogdoches,50.98,136.08,81.65,154.22,371.95,Single-ply,SBD,M
Boys,51.71,17,Ryan Dean,Waco Midway,50.44,136.08,81.65,145.15,362.87,Single-ply,SBD,M
Boys,51.71,18,Jacory Bellnamy,Houston Madison,51.26,142.88,68.04,145.15,356.07,Single-ply,SBD,M
Boys,51.71,19,Billy Pearson,Pflugerville Connally,51.71,117.93,58.97,147.42,324.32,Single-ply,SBD,M
Boys,51.71,DQ,Dylan Mikus,Magnolia West,51.62,131.54,,,,Single-ply,SBD,M
Boys,51.71,DQ,DeAnthony Lane,Ennis,45.27,,,,,Single-ply,SBD,M
Boys,55.79,1,Juan Rivera,Los Fresnos,55.61,204.12,115.67,204.12,523.9,Single-ply,SBD,M
Boys,55.79,2,Angel Flores,Weslaco East,54.25,188.24,104.33,197.31,489.88,Single-ply,SBD,M
Boys,55.79,3,Jermaine Mendiola,Somerset,54.79,199.58,108.86,181.44,489.88,Single-ply,SBD,M
Boys,55.79,4,Joe Castillo,Gregory-Portland,55.07,190.51,99.79,190.51,480.81,Single-ply,SBD,M
Boys,55.79,5,Moc Moo,Port Lavaca Calhoun,55.79,199.58,108.86,172.37,480.81,Single-ply,SBD,M
Boys,55.79,6,Alec Webster,Killeen Shoemaker,55.52,167.83,117.93,188.24,474,Single-ply,SBD,M
Boys,55.79,7,Carlos Reynoso,McKinney Boyd,54.43,192.78,95.25,183.7,471.74,Single-ply,SBD,M
Boys,55.79,8,Davion Aldridge,Hutto,54.61,174.63,95.25,197.31,467.2,Single-ply,SBD,M
Boys,55.79,9,Joseph Rico,Forney,55.7,185.97,104.33,167.83,458.13,Single-ply,SBD,M
Boys,55.79,10,Alejandro Flores,Weslaco East,54.16,165.56,108.86,181.44,455.86,Single-ply,SBD,M
Boys,55.79,11,Blake Gamez,La Porte,55.16,165.56,102.06,185.97,453.59,Single-ply,SBD,M
Boys,55.79,12,Kaleb Espinoza,Donna,55.61,176.9,81.65,167.83,426.38,Single-ply,SBD,M
Boys,55.79,13,Shayne Streminski,Burleson Centennial,55.52,154.22,111.13,158.76,424.11,Single-ply,SBD,M
Boys,55.79,14,Mauro Vargas,La Joya Juarez-Lincoln,54.88,147.42,102.06,167.83,417.3,Single-ply,SBD,M
Boys,59.87,15,Jordan Estell,North Mesquite,55.88,133.81,81.65,199.58,415.04,Single-ply,SBD,M
Boys,55.79,16,Riley Slocum,Longview Pine Tree,55.43,149.69,92.99,170.1,412.77,Single-ply,SBD,M
Boys,55.79,17,Timothy Ortiz,Odessa,53.71,149.69,79.38,172.37,401.43,Single-ply,SBD,M
Boys,55.79,18,Dominic Monsivaiz,Dickinson,55.79,158.76,83.91,158.76,401.43,Single-ply,SBD,M
Boys,55.79,19,Logan Police,Frisco Wakeland,55.34,151.95,90.72,149.69,392.36,Single-ply,SBD,M
Boys,59.87,20,Landon Nail,Lubbock Cooper,55.88,138.35,74.84,149.69,362.87,Single-ply,SBD,M
Boys,59.87,1,Jarrett Burford,Port Lavaca Calhoun,59.78,231.33,140.61,217.72,589.67,Single-ply,SBD,M
Boys,59.87,2,Raul Mota,San Benito,59.78,213.19,129.27,219.99,562.45,Single-ply,SBD,M
Boys,59.87,3,Oscar Sanchez,Seguin,59.51,208.65,120.2,224.53,553.38,Single-ply,SBD,M
Boys,67.13,4,Danny Diaz,Brownsville Lopez,60.06,222.26,124.74,206.38,553.38,Single-ply,SBD,M
Boys,59.87,5,Josh Bedolla,Elgin,59.15,188.24,122.47,215.46,526.17,Single-ply,SBD,M
Boys,59.87,6,Gerald Van Ess,McKinney North,59.06,190.51,127.01,199.58,517.1,Single-ply,SBD,M
Boys,59.87,7,Armani Donaldson,Wichita Falls,58.06,208.65,120.2,176.9,505.76,Single-ply,SBD,M
Boys,59.87,8,David Tubig,Burleson,59.51,181.44,102.06,215.46,498.95,Single-ply,SBD,M
Boys,59.87,9,Gavin Webster,Conroe The Woodlands,59.69,188.24,113.4,197.31,498.95,Single-ply,SBD,M
Boys,59.87,10,Camron King,Marshall,59.51,204.12,72.57,188.24,464.93,Single-ply,SBD,M
Boys,59.87,11,JaCorey Mitchell,Marshall,58.6,181.44,92.99,170.1,444.52,Single-ply,SBD,M
Boys,59.87,12,Anthony Washington,Plainview,58.79,170.1,86.18,183.7,439.98,Single-ply,SBD,M
Boys,59.87,13,Chen Phan,Dickinson,58.33,158.76,86.18,170.1,415.04,Single-ply,SBD,M
Boys,59.87,14,Jerrico Enriquez,Plainview,59.51,161.03,90.72,163.29,415.04,Single-ply,SBD,M
Boys,67.13,1,Jonathan Pena,Laredo United South,66.95,244.94,151.95,229.06,625.96,Single-ply,SBD,M
Boys,67.13,2,Kenny Stafford,Everman,66.32,258.55,124.74,238.14,621.42,Single-ply,SBD,M
Boys,67.13,3,Ivan Arroyo,Odessa,65.77,231.33,158.76,215.46,605.55,Single-ply,SBD,M
Boys,67.13,4,Alec DeLeon,Dickinson,66.41,244.94,136.08,217.72,598.74,Single-ply,SBD,M
Boys,67.13,5,Jacob de la Paz,Alvin,66.77,240.4,117.93,229.06,587.4,Single-ply,SBD,M
Boys,67.13,6,Eric Tong,Brownsville Hanna,65.41,235.87,106.59,238.14,580.6,Single-ply,SBD,M
Boys,67.13,7,Rogelio Pulido,Brownsville Lopez,67.04,208.65,108.86,260.82,578.33,Single-ply,SBD,M
Boys,67.13,8,Grayson Brown,Conroe The Woodlands,65.59,238.14,124.74,210.92,573.79,Single-ply,SBD,M
Boys,67.13,9,Joshua Garcia,Weslaco,66.13,226.8,115.67,226.8,569.26,Single-ply,SBD,M
Boys,67.13,10,Ja'Vontay Williams,Nacogdoches,67.13,199.58,102.06,240.4,542.04,Single-ply,SBD,M
Boys,67.13,11,Michael Royals,Burleson,67.13,204.12,111.13,217.72,532.97,Single-ply,SBD,M
Boys,67.13,12,Tommy Martinez,Midlothian,66.59,195.04,120.2,204.12,519.36,Single-ply,SBD,M
Boys,67.13,13,Branden Tschirart,College Station,65.95,199.58,127.01,181.44,508.02,Single-ply,SBD,M
Boys,67.13,DQ,Zane Ponder,Plainview,65.32,,,,,Single-ply,SBD,M
Boys,74.84,1,Jarod Hill,Everman,74.84,290.3,154.22,297.1,741.62,Single-ply,SBD,M
Boys,74.84,2,Cornelious Vaughans,Dickinson,74.75,240.4,138.35,231.33,610.08,Single-ply,SBD,M
Boys,74.84,3,Erin Estevanes,Weslaco,72.94,215.46,147.42,242.67,605.55,Single-ply,SBD,M
Boys,74.84,4,Eliseo Garzoria,Los Fresnos,74.57,226.8,115.67,263.08,605.55,Single-ply,SBD,M
Boys,74.84,5,Terrance Giles,Alvin,72.3,231.33,140.61,226.8,598.74,Single-ply,SBD,M
Boys,74.84,6,Victor Varela,Alvin,73.39,229.06,154.22,215.46,598.74,Single-ply,SBD,M
Boys,74.84,7,Chayce Grevey,Victoria West,74.21,224.53,142.88,226.8,594.21,Single-ply,SBD,M
Boys,74.84,8,Gabriel Cantu,Corpus Christi Calallen,74.75,213.19,124.74,254.01,591.94,Single-ply,SBD,M
Boys,74.84,9,Chris Jackson,Weslaco,72.94,217.72,122.47,249.48,589.67,Single-ply,SBD,M
Boys,74.84,10,Angel Perez,Red Oak,74.21,201.85,183.7,204.12,589.67,Single-ply,SBD,M
Boys,74.84,11,Chavis Mills,Marshall,73.84,226.8,111.13,244.94,582.87,Single-ply,SBD,M
Boys,74.84,12,Salvador Salinas,Midland,72.57,201.85,142.88,235.87,580.6,Single-ply,SBD,M
Boys,82.1,13,Malik Stoutamire,Temple,75.07,204.12,136.08,217.72,557.92,Single-ply,SBD,M
Boys,74.84,14,Dominque Mcbride,North Mesquite,73.12,217.72,106.59,226.8,551.11,Single-ply,SBD,M
Boys,74.84,15,Robert Franklin,College Station A&M Cons,74.66,213.19,129.27,208.65,551.11,Single-ply,SBD,M
Boys,74.84,DQ,Ben Burnett,San Angelo Central,74.3,,,,,Single-ply,SBD,M
Boys,82.1,1,Raynard Taylor,Comal Canyon,82.1,294.84,183.7,283.5,762.04,Single-ply,SBD,M
Boys,82.1,2,Ram Mendoza,Weslaco East,81.37,251.74,161.03,251.74,664.51,Single-ply,SBD,M
Boys,82.1,3,Aaron Porras,San Antonio Southside,81.83,281.23,149.69,233.6,664.51,Single-ply,SBD,M
Boys,82.1,4,AJ Rose,Hallsville,81.74,249.48,190.51,222.26,662.24,Single-ply,SBD,M
Boys,82.1,5,Darrell Pinkston,Everman,80.65,281.23,149.69,226.8,657.71,Single-ply,SBD,M
Boys,82.1,6,Korey Chatman,Waco Midway,82.01,240.4,158.76,256.28,655.44,Single-ply,SBD,M
Boys,82.1,7,Jaylon Parmes,Everman,81.28,258.55,133.81,258.55,650.91,Single-ply,SBD,M
Boys,82.1,8,Fabian Rodriguez,Los Fresnos,80.47,249.48,149.69,249.48,648.64,Single-ply,SBD,M
Boys,82.1,9,Anthony Pegues,Frisco Centennial,80.83,249.48,147.42,249.48,646.37,Single-ply,SBD,M
Boys,82.1,10,Quentin Wooten,Rockwall-Heath,80.74,229.06,138.35,272.16,639.57,Single-ply,SBD,M
Boys,82.1,11,Carlos García,Alvin,81.65,249.48,131.54,254.01,635.03,Single-ply,SBD,M
Boys,82.1,12,Brandon Ragoonath,Burleson,80.74,233.6,133.81,258.55,625.96,Single-ply,SBD,M
Boys,82.1,13,Caleb Lamberth,Manvel,81.47,240.4,138.35,244.94,623.69,Single-ply,SBD,M
Boys,82.1,14,Alex Holsinger,Conroe Caney Creek,80.74,242.67,145.15,231.33,619.15,Single-ply,SBD,M
Boys,82.1,15,Isaac Mendoza,San Antonio East Central,80.65,235.87,140.61,240.4,616.89,Single-ply,SBD,M
Boys,82.1,16,Rigo Ayala,Edcouch-Elsa,81.01,240.4,154.22,222.26,616.89,Single-ply,SBD,M
Boys,82.1,17,Robert Hernandez,La Joya Juarez-Lincoln,80.38,235.87,142.88,235.87,614.62,Single-ply,SBD,M
Boys,82.1,18,Josh Scott,Rockwall-Heath,80.83,233.6,140.61,235.87,610.08,Single-ply,SBD,M
Boys,82.1,19,Steven Vallejo,Plainview,80.47,219.99,108.86,249.48,578.33,Single-ply,SBD,M
Boys,82.1,20,Michael Hansen,Lindale,79.56,204.12,142.88,226.8,573.79,Single-ply,SBD,M
Boys,82.1,21,Nicky Hoang,Midland,80.83,204.12,122.47,247.21,573.79,Single-ply,SBD,M
Boys,89.81,1,Desmond Payton,College Station,88.99,299.37,129.27,288.03,716.68,Single-ply,SBD,M
Boys,89.81,2,Domingo Saucedo,Plainview,88.9,276.69,181.44,254.01,712.14,Single-ply,SBD,M
Boys,99.79,3,Aaron Zapata,Los Fresnos,89.99,285.76,145.15,263.08,694,Single-ply,SBD,M
Boys,89.81,4,Gilbert Trevino,Weslaco,89.18,272.16,172.37,247.21,691.73,Single-ply,SBD,M
Boys,89.81,5,Seth Garcia,Edcouch-Elsa,86.09,263.08,149.69,267.62,680.39,Single-ply,SBD,M
Boys,89.81,6,Travis Anderson,Crosby,88.27,249.48,172.37,256.28,678.12,Single-ply,SBD,M
Boys,89.81,7,Logan Phillips,Conroe Caney Creek,89.27,265.35,165.56,244.94,675.85,Single-ply,SBD,M
Boys,89.81,8,Andrew Carnes,Burleson,88.09,265.35,149.69,256.28,671.32,Single-ply,SBD,M
Boys,89.81,9,Matthew Dickson,Corpus Christi Tuloso-Midway,88.63,256.28,158.76,256.28,671.32,Single-ply,SBD,M
Boys,89.81,10,James Seekford,Lindale,86.45,274.42,170.1,222.26,666.78,Single-ply,SBD,M
Boys,89.81,11,Josh Mercado,San Marcos,87.63,251.74,165.56,244.94,662.24,Single-ply,SBD,M
Boys,89.81,12,David Caddie,Livingston,88.45,251.74,142.88,267.62,662.24,Single-ply,SBD,M
Boys,89.81,13,Tim Hutchins,Cedar Hill,88.81,244.94,147.42,238.14,630.49,Single-ply,SBD,M
Boys,89.81,14,Carndal Hale,Greenville,89.72,254.01,136.08,238.14,628.23,Single-ply,SBD,M
Boys,89.81,15,Vincent Ajagebu,North Crowley,88,231.33,127.01,240.4,598.74,Single-ply,SBD,M
Boys,89.81,16,Brody Schleeter,Lubbock Cooper,83.91,215.46,129.27,224.53,569.26,Single-ply,SBD,M
Boys,89.81,DQ,Jalen Hurts,Channelview,88.9,240.4,,,,Single-ply,SBD,M
Boys,99.79,1,Marco Banda,Laredo Nixon,98.61,324.32,181.44,249.48,755.23,Single-ply,SBD,M
Boys,99.79,2,Keith Ngondo,Little Elm,97.52,294.84,140.61,283.5,718.94,Single-ply,SBD,M
Boys,99.79,3,John Carter,Burleson,99.7,263.08,183.7,272.16,718.94,Single-ply,SBD,M
Boys,99.79,4,Crystin Baston,Plainview,98.97,260.82,163.29,272.16,696.26,Single-ply,SBD,M
Boys,99.79,5,Cole Stewart,Aledo,93.44,272.16,161.03,258.55,691.73,Single-ply,SBD,M
Boys,99.79,6,Jesus Moron,San Antonio Southside,97.16,260.82,147.42,276.69,684.92,Single-ply,SBD,M
Boys,99.79,7,Joe Thomas,Beaumont Ozen,96.16,294.84,136.08,249.48,680.39,Single-ply,SBD,M
Boys,99.79,8,Adam Arredondo,Waxahachie,99.7,272.16,158.76,247.21,678.12,Single-ply,SBD,M
Boys,99.79,9,Israel Alfaro,Weslaco East,98.07,249.48,170.1,254.01,673.58,Single-ply,SBD,M
Boys,109.77,10,Curtis Hawkins,Lockhart,99.88,263.08,156.49,240.4,659.98,Single-ply,SBD,M
Boys,99.79,11,Tyler Ray,Magnolia West,95.62,244.94,181.44,226.8,653.17,Single-ply,SBD,M
Boys,99.79,12,Frankie Lopez,Corpus Christi Tuloso-Midway,97.34,272.16,161.03,217.72,650.91,Single-ply,SBD,M
Boys,99.79,13,Najee Mustafaa,Midlothian,96.25,249.48,149.69,238.14,637.3,Single-ply,SBD,M
Boys,99.79,14,Keoni Garcia,Midland,96.16,219.99,136.08,226.8,582.87,Single-ply,SBD,M
Boys,99.79,DQ,John Rivera,Alice,99.43,285.76,,,,Single-ply,SBD,M
Boys,109.77,1,Kaylond North,Dickinson,107.95,333.39,197.31,285.76,816.47,Single-ply,SBD,M
Boys,109.77,2,Caesar Soto,San Antonio East Central,107.95,335.66,195.04,249.48,780.18,Single-ply,SBD,M
Boys,109.77,3,Anietie Etuk,Dickinson,108.14,276.69,167.83,303.91,748.43,Single-ply,SBD,M
Boys,109.77,4,Moises Garcia,Plainview,107.5,310.71,156.49,278.96,746.16,Single-ply,SBD,M
Boys,109.77,5,Ronnie Fraser,Pearland,105.23,294.84,185.97,263.08,743.89,Single-ply,SBD,M
Boys,109.77,6,German Lopez,Weslaco East,107.68,299.37,190.51,238.14,728.02,Single-ply,SBD,M
Boys,109.77,7,Eddie Garcia,Port Lavaca Calhoun,105.23,319.78,156.49,247.21,723.48,Single-ply,SBD,M
Boys,109.77,8,Landon Hallmark,Little Elm,109.5,278.96,149.69,288.03,716.68,Single-ply,SBD,M
Boys,109.77,9,Rick Marshall,Huntsville,107.77,265.35,183.7,258.55,707.6,Single-ply,SBD,M
Boys,109.77,10,Jared Reedy,Dickinson,106.23,278.96,163.29,254.01,696.26,Single-ply,SBD,M
Boys,109.77,11,Derrick Moore,Waco,108.86,260.82,151.95,263.08,675.85,Single-ply,SBD,M
Boys,109.77,12,Chase Dennis,Keller Timber Creek,106.87,278.96,158.76,229.06,666.78,Single-ply,SBD,M
Boys,109.77,13,Nathaniel Rutherford,Joshua,100.06,269.89,147.42,242.67,659.98,Single-ply,SBD,M
Boys,109.77,14,Tyler Segrest,Lindale,107.5,238.14,145.15,244.94,628.23,Single-ply,SBD,M
Boys,109.77,DQ,Javier Valdes,Midland,105.96,249.48,,,,Single-ply,SBD,M
Boys,109.77,DQ,Lorenzo Baeza,Texas City,105.78,,,,,Single-ply,SBD,M
Boys,124.74,1,Erik Mendez,Plainview,122.83,344.73,192.78,299.37,836.88,Single-ply,SBD,M
Boys,124.74,2,Gabriel Rodriguez,Edcouch-Elsa,122.74,369.68,199.58,265.35,834.61,Single-ply,SBD,M
Boys,124.74,3,Carlos Sanchez,Laredo United South,123.29,340.19,179.17,285.76,805.13,Single-ply,SBD,M
Boys,124.74,4,Kody Russey,Burleson,114.58,294.84,181.44,312.98,789.25,Single-ply,SBD,M
Boys,124.74,5,Josh Opiela,Crosby,119.57,340.19,190.51,258.55,789.25,Single-ply,SBD,M
Boys,124.74,6,Dominic Hill,Fort Worth Boswell,121.93,306.17,197.31,278.96,782.45,Single-ply,SBD,M
Boys,124.74,7,Julio Contreras,Edcouch-Elsa,119.93,331.12,158.76,285.76,775.64,Single-ply,SBD,M
Boys,124.74,8,Oscar Flores,Comal Canyon,119.11,310.71,183.7,276.69,771.11,Single-ply,SBD,M
Boys,124.74,9,Parker Blount,Huntsville,114.85,303.91,183.7,274.42,762.04,Single-ply,SBD,M
Boys,124.74,10,Charles Owens,Bryan Rudder,122.38,317.51,170.1,272.16,759.77,Single-ply,SBD,M
Boys,124.74,11,Colton Hostetler,Burleson Centennial,123.01,294.84,188.24,272.16,755.23,Single-ply,SBD,M
Boys,124.74,12,Jacob Granados,Midland,121.2,310.71,165.56,274.42,750.7,Single-ply,SBD,M
Boys,124.74,13,Jacob Rodriguez,Corpus Christi Tuloso-Midway,119.02,340.19,149.69,247.21,737.09,Single-ply,SBD,M
Boys,124.74,14,Young Troung,Pasadena Dobie,124.01,254.01,201.85,281.23,737.09,Single-ply,SBD,M
Boys,124.74,15,Chase Kellar,Conroe Caney Creek,124.19,294.84,172.37,265.35,732.55,Single-ply,SBD,M
Boys,124.74,16,Camren Thompson,Frisco Wakeland,122.29,317.51,147.42,263.08,728.02,Single-ply,SBD,M
Boys,124.74,17,Isaac Salinas,Gregory-Portland,117.57,297.1,174.63,244.94,716.68,Single-ply,SBD,M
Boys,124.74,18,Tyler Moran,Port Neches-Groves,116.66,272.16,197.31,240.4,709.87,Single-ply,SBD,M
Boys,124.74,19,Jesse Guzman,Brownsville Veterans Memorial,119.39,288.03,165.56,254.01,707.6,Single-ply,SBD,M
Boys,124.74,20,Brandon Jackson,Port Arthur Memorial,123.92,272.16,161.03,267.62,700.8,Single-ply,SBD,M
Boys,124.74,21,Braden Martinez,Belton,119.29,276.69,151.95,260.82,689.46,Single-ply,SBD,M
Boys,124.74,22,Antonio Washington,Marshall,117.57,249.48,147.42,276.69,673.58,Single-ply,SBD,M
Boys,124.74,DQ,Devon Miller,Midland,115.03,,,,,Single-ply,SBD,M
Boys,124.74,DQ,Andrew Salazar,Pharr Valley View,120.93,,,,,Single-ply,SBD,M
Boys,124.74,DQ,Christian Bluiett,Beaumont West Brook,118.3,,,,,Single-ply,SBD,M
Boys,124.74,DQ,Jesus Olivares,Odessa Permian,117.39,281.23,,,,Single-ply,SBD,M
Boys,124.74+,1,Rudy Flores,Laredo United South,148.6,408.23,272.16,306.17,986.56,Single-ply,SBD,M
Boys,124.74+,2,Sergio Moralez,Weslaco East,168.92,328.85,210.92,317.51,857.29,Single-ply,SBD,M
Boys,124.74+,3,Chance Harmanson,Dickinson,144.79,333.39,199.58,278.96,811.93,Single-ply,SBD,M
Boys,124.74+,4,Alonzo Crittendon,Dickinson,139.25,340.19,158.76,297.1,796.05,Single-ply,SBD,M
Boys,124.74+,5,Zeke Garza,La Joya,146.87,315.25,179.17,272.16,766.57,Single-ply,SBD,M
Boys,124.74+,6,Drew Kirkpatrick,Uvalde,142.7,294.84,208.65,242.67,746.16,Single-ply,SBD,M
Boys,124.74+,7,Jimmy DeLeon,Brownsville Veterans Memorial,161.66,328.85,165.56,249.48,743.89,Single-ply,SBD,M
Boys,124.74+,8,Jesus Verastegui,Abilene,151.59,299.37,176.9,249.48,725.75,Single-ply,SBD,M
Boys,124.74+,9,Tevin Boone,Cleburne,148.78,274.42,174.63,272.16,721.21,Single-ply,SBD,M
Boys,124.74+,10,Ruben Hinojosa,Roma,146.06,283.5,185.97,249.48,718.94,Single-ply,SBD,M
Boys,124.74+,11,Clifton Coffey,Cedar Hill,152.68,281.23,174.63,260.82,716.68,Single-ply,SBD,M
Boys,124.74+,12,Eric Roberts,Terrell,143.06,281.23,163.29,226.8,671.32,Single-ply,SBD,M
Boys,124.74+,13,Cj Carillo,Midland,134.81,256.28,176.9,233.6,666.78,Single-ply,SBD,M
Boys,124.74+,14,Ahmad Turner,Longview,149.14,235.87,147.42,256.28,639.57,Single-ply,SBD,M
Boys,124.74+,DQ,Randy Crystian,Cedar Hill,135.26,,,,,Single-ply,SBD,M
Boys,124.74+,DQ,Phil Aumua,Copperas Cove,133.63,299.37,,,,Single-ply,SBD,M
