Division,WeightClassKg,Place,Name,Team,BodyweightKg,Best3SquatKg,Best3BenchKg,Best3DeadliftKg,TotalKg,Equipment,Event,Sex
Boys,51.71,1,Diego Cantu,Roma,49.71,97.52,52.16,106.59,256.28,Single-ply,SBD,M
Boys,51.71,2,Derek Ruiz,Roma,50.17,83.91,56.7,97.52,238.14,Single-ply,SBD,M
Boys,51.71,3,Joseph Saucedo,Laredo United,49.62,83.91,38.56,97.52,219.99,Single-ply,SBD,M
Boys,55.79,1,Jaime Garcia,Laredo United,52.44,88.45,38.56,90.72,217.72,Single-ply,SBD,M
Boys,59.87,1,Rogelio Lozano,Roma,57.88,127.01,79.38,131.54,337.93,Single-ply,SBD,M
Boys,59.87,2,Jonathan Pena,Laredo United South,58.42,111.13,83.91,129.27,324.32,Single-ply,SBD,M
Boys,59.87,3,Hector de la Rosa,Laredo United South,59.87,113.4,63.5,147.42,324.32,Single-ply,SBD,M
Boys,59.87,4,Cesar Ramos,Laredo Nixon,57.15,104.33,47.63,122.47,274.42,Single-ply,SBD,M
Boys,59.87,5,Rudy Ramos,Laredo Nixon,59.6,70.31,49.9,122.47,242.67,Single-ply,SBD,M
Boys,67.13,1,Angel Gonzalez #4,Carrizo Springs,62.96,92.99,72.57,151.95,317.51,Single-ply,SBD,M
Boys,67.13,2,Erik Corona,Laredo United,61.6,106.59,70.31,136.08,312.98,Single-ply,SBD,M
Boys,67.13,3,David Herrera,Laredo United South,64.32,102.06,54.43,154.22,310.71,Single-ply,SBD,M
Boys,67.13,4,David Marquez,Laredo Nixon,63.78,120.2,61.23,127.01,308.44,Single-ply,SBD,M
Boys,67.13,5,Joel Benavides,Laredo United South,61.6,99.79,54.43,145.15,299.37,Single-ply,SBD,M
Boys,67.13,6,Mark Cerda,Laredo United,65.32,97.52,58.97,136.08,292.57,Single-ply,SBD,M
Boys,67.13,7,Damian Selvera,Laredo Nixon,65.41,79.38,70.31,133.81,283.5,Single-ply,SBD,M
Boys,67.13,8,Miguel Contreras,Laredo Johnson,62.96,86.18,65.77,117.93,269.89,Single-ply,SBD,M
Boys,67.13,9,Juan Lugo,Laredo United South,64.68,72.57,43.09,86.18,201.85,Single-ply,SBD,M
Boys,74.84,1,Alexis Navarro,Laredo Martin,74.03,136.08,95.25,156.49,387.82,Single-ply,SBD,M
Boys,74.84,2,Enrique Gonzalez,Laredo United,74.3,131.54,90.72,163.29,385.55,Single-ply,SBD,M
Boys,74.84,3,Adrian Garcia,Roma,74.48,145.15,74.84,145.15,365.14,Single-ply,SBD,M
Boys,74.84,4,Eric Estrada,Roma,72.21,129.27,90.72,142.88,362.87,Single-ply,SBD,M
Boys,74.84,5,Ray Orosco,Carrizo Springs,74.84,104.33,74.84,142.88,322.05,Single-ply,SBD,M
Boys,74.84,6,Yahir Garcia,Laredo United South,69.77,106.59,72.57,140.61,319.78,Single-ply,SBD,M
Boys,74.84,7,Raul Cantu,Laredo United South,70.85,111.13,68.04,136.08,315.25,Single-ply,SBD,M
Boys,74.84,8,Jesus Barrera,Laredo United South,69.76,106.59,43.09,142.88,292.57,Single-ply,SBD,M
Boys,74.84,9,Louie Salazar,Carrizo Springs,69.94,99.79,61.23,124.74,285.76,Single-ply,SBD,M
Boys,74.84,10,Enrique Flores,Laredo United South,73.21,106.59,54.43,120.2,281.23,Single-ply,SBD,M
Boys,74.84,11,Adolfo Chavez,Laredo Johnson,67.68,92.99,58.97,113.4,265.35,Single-ply,SBD,M
Boys,74.84,12,Jonathon Valdez,Laredo Johnson,70.94,74.84,52.16,102.06,229.06,Single-ply,SBD,M
Boys,74.84,13,Norman Madrigal,Laredo Johnson,72.67,63.5,58.97,102.06,224.53,Single-ply,SBD,M
Boys,74.84,DQ,Andrew Alfaro,Carrizo Springs,74.84,,,,,Single-ply,SBD,M
Boys,74.84,DQ,Alex Hernanez,Laredo Nixon,74.84,,,,,Single-ply,SBD,M
Boys,74.84,DQ,Elmer Vasquez,Laredo Johnson,70.85,,,,,Single-ply,SBD,M
Boys,82.1,1,David Oliva,Laredo Martin,79.38,115.67,104.33,165.56,385.55,Single-ply,SBD,M
Boys,82.1,2,Marcos Resendez,Roma,81.74,138.35,83.91,138.35,360.61,Single-ply,SBD,M
Boys,82.1,3,Jose Luis Fuentes,Laredo United,76.38,129.27,65.77,149.69,344.73,Single-ply,SBD,M
Boys,82.1,4,Ricky Mena,Laredo United,82.1,104.33,88.45,131.54,324.32,Single-ply,SBD,M
Boys,82.1,5,Hector Guzman,Laredo United,78.38,99.79,45.36,113.4,258.55,Single-ply,SBD,M
Boys,82.1,6,Alfredo Trejo,Laredo Johnson,75.3,72.57,54.43,102.06,229.06,Single-ply,SBD,M
Boys,89.81,1,Bryan Vela,Bruni,86.91,138.35,72.57,158.76,369.68,Single-ply,SBD,M
Boys,89.81,2,Marte Guerra,Roma,86.73,138.35,79.38,147.42,365.14,Single-ply,SBD,M
Boys,89.81,3,Joshua Juarez,Laredo Johnson,82.92,99.79,77.11,149.69,326.59,Single-ply,SBD,M
Boys,89.81,4,Danny Cardona,Laredo United,88.99,113.4,63.5,145.15,322.05,Single-ply,SBD,M
Boys,89.81,DQ,Elijah Garcia,Laredo United South,86.64,,,,,Single-ply,SBD,M
Boys,99.79,1,Marco Banda,Laredo Nixon,95.8,195.04,111.13,167.83,474,Single-ply,SBD,M
Boys,99.79,2,Jonathan Vela,Roma,96.8,176.9,102.06,158.76,437.72,Single-ply,SBD,M
Boys,99.79,3,Agustin Lara,Laredo United South,96.62,142.88,97.52,174.63,415.04,Single-ply,SBD,M
Boys,99.79,4,Rey Davila,Laredo Martin,95.8,136.08,81.65,154.22,371.95,Single-ply,SBD,M
Boys,99.79,5,Mario Torres,Laredo Johnson,94.89,120.2,65.77,163.29,349.27,Single-ply,SBD,M
Boys,99.79,6,David Orosco,Carrizo Springs,97.98,120.2,90.72,131.54,342.46,Single-ply,SBD,M
Boys,99.79,7,Sebastian Tamez,Laredo Martin,96.98,124.74,79.38,133.81,337.93,Single-ply,SBD,M
Boys,99.79,8,Frank Villalobos,Laredo United South,93.62,113.4,68.04,154.22,335.66,Single-ply,SBD,M
Boys,99.79,9,Jordy Velasquez,Laredo Johnson,97.25,111.13,52.16,131.54,294.84,Single-ply,SBD,M
Boys,99.79,DQ,Cameron Gamez,Carrizo Springs,99.79,,,,,Single-ply,SBD,M
Boys,109.77,1,Elim Hernandez,Laredo United,109.41,170.1,106.59,181.44,458.13,Single-ply,SBD,M
Boys,109.77,2,Juan Gonzalez,Laredo United,105.96,120.2,83.91,163.29,367.41,Single-ply,SBD,M
Boys,109.77,3,Juan Castillo,Roma,108.5,106.59,65.77,142.88,315.25,Single-ply,SBD,M
Boys,124.74,1,Gerardo Gonzalez,Laredo Nixon,119.02,170.1,97.52,176.9,444.52,Single-ply,SBD,M
Boys,124.74,2,Marcos Avila,Carrizo Springs,123.38,156.49,102.06,185.97,444.52,Single-ply,SBD,M
Boys,124.74,3,Juan Ramirez,Carrizo Springs,120.11,142.88,102.06,167.83,412.77,Single-ply,SBD,M
Boys,124.74,4,Javier Escobedo,Laredo Johnson,113.49,106.59,74.84,158.76,340.19,Single-ply,SBD,M
Boys,124.74+,DQ,Ricardo Cantu,Roma,124.96,,,,,Single-ply,SBD,M
Boys,124.74+,1,Rudy Flores,Laredo United South,134.26,204.12,120.2,199.58,523.9,Single-ply,SBD,M
Boys,124.74+,2,Ruben Hinojosa,Roma,141.61,163.29,102.06,133.81,399.16,Single-ply,SBD,M
Boys,124.74+,3,Edward Cruz,Carrizo Springs,127.55,142.88,65.77,136.08,344.73,Single-ply,SBD,M
Boys,124.74+,4,Hector Velasquez,Laredo Johnson,143.79,115.67,52.16,142.88,310.71,Single-ply,SBD,M
Boys,,NS,Leroy Sustaita,Laredo Martin,,,,,,Single-ply,SBD,M
