Place,WeightClassKg,Name,State,Sex,BodyweightKg,Best3SquatKg,Best3BenchKg,Best3DeadliftKg,TotalKg,Division,Event,Equipment
1,100,Tim Garza,CO,M,94.35,,170,,170,jr,B,Raw
1,90,Todd Rice,KS,M,88.81,,155,,155,m2,B,Raw
1,140,Chris Riley,KS,M,130.82,,140,,140,mp,B,Raw
1,90,Nick Birdsong,KS,M,89.36,,162.5,,162.5,pure,B,Raw
1,75,Kyle Morgan,KS,M,74.75,,127.5,,127.5,int,B,Raw
1,90,Larry Marker,NM,M,83.73,,117.5,,117.5,m2,B,Raw
1,100,Dane Jenning,KS,M,92.99,,110,,110,m3,B,Raw
1,82.5,Larry Donahue,OH,M,79.88,,100,,100,m3,B,Raw
1,52,Wade Koon,KS,M,47.17,,30,,30,youth,B,Raw
DQ,90,Chris Jester,MO,M,90,,,,,int,B,Raw
1,90,Nick Birdsong,KS,M,89.36,,162.5,265,427.5,pure,BD,Raw
1,100,Dillon Martinek,MO,M,94.17,,147.5,232.5,380,jr,BD,Raw
1,140,Darren Barnhart,KS,M,137.21,,182.5,260,442.5,m1,BD,Raw
1,140+,Scott Tully,KS,M,161.48,,167.5,265,432.5,sm2,BD,Raw
1,82.5,Larry Donahue,OH,M,79.88,,,145,145,mp,D,Raw
1,52,Traci VandeWeerd,KS,F,50.94,,37.5,90,127.5,pure,BD,Raw
1,90,Nick Birdsong,KS,M,89.36,,162.5,265,427.5,pure,BD,Raw
1,100,Dillon Martinek,MO,M,94.17,,147.5,232.5,380,jr,BD,Raw
1,82.5,Tyeler Cookson,KS,M,81.01,,120,230,350,jr,BD,Raw
1,75,Kyle Morgan,KS,M,74.75,,127.5,197.5,325,int,BD,Raw
1,140,Mark Mitchell,KS,M,137.44,,162.5,252.5,415,m2,BD,Raw
1,100,John Newberry,KS,M,97.43,,147.5,227.5,375,m1,BD,Raw
1,82.5,Scott Bennett,KS,M,81.47,,115,212.5,327.5,m1,BD,Raw
1,90,Larry Marker,NM,M,83.73,,117.5,192.5,310,m2,BD,Raw
1,82.5,Robert Newcomb,KS,M,81.65,,85,185,270,int,BD,Raw
1,100,Dane Jenning,KS,M,92.99,,110,157.5,267.5,m3,BD,Raw
1,67.5,Crusher Kennedy,KS,M,63.96,,92.5,120,212.5,m2,BD,Raw
1,60,Jerrod Livingston,KS,M,58.51,,60,127.5,187.5,int,BD,Raw
DQ,100,Darryn Lee,KS,M,98.79,,107.5,,,hs,BD,Raw
1,60,Morgan Colling,KS,F,59.6,97.5,70,130,297.5,open,SBD,Wraps
1,90,Angi Aschenbrenner,KS,F,86.14,117.5,77.5,147.5,342.5,sm2,SBD,Wraps
1,82.5,Heather Veges,KS,F,80.51,127.5,60,137.5,325,sm2,SBD,Wraps
1,90+,Susan Stauffer,KS,F,91.9,115,60,155,330,m1,SBD,Wraps
1,110,Angela Kjellberg,KS,F,101.29,95,65,145,305,m1,SBD,Wraps
1,67.5,Lisa McClintock,KS,F,64.86,65,35,90,190,sm2,SBD,Wraps
1,52,Wade Koon,KS,M,47.17,40,30,60,130,youth,SBD,Wraps
1,60,Morgan Colling,KS,F,59.6,,70,,70,open,B,Raw
2,90+,Robin Droegemeier,KS,F,132.36,,60,,60,m1,B,Raw
1,125,Arthur Keffer,KS,M,122.52,300,200,272.5,772.5,m2,SBD,Wraps
1,90,John K,KS,M,89.68,245,125,245,615,sm1,SBD,Wraps
1,90,John K,KS,M,89.68,245,125,245,615,smp,SBD,Wraps
1,140,Devin Gagrebin,KS,M,130.63,285,167.5,275,727.5,jr,SBD,Wraps
1,82.5,Bryce Platt,KS,M,81.47,220,130,227.5,577.5,jr,SBD,Wraps
1,100,Tyler Rodman,KS,M,99.11,215,160,237.5,612.5,jr,SBD,Wraps
1,90,Adam Kirchman,KS,M,88.72,210,160,200,570,nov,SBD,Wraps
2,82.5,Dan Carrier,NE,M,77.7,182.5,110,240,532.5,jr,SBD,Wraps
1,100,Lon Beffort,KS,M,99.06,205,130,265,600,m1,SBD,Wraps
1,90,Daniel Helbert,KS,M,88.09,197.5,157.5,210,565,int,SBD,Wraps
2,100,Dillon Martinek,MO,M,94.17,195,147.5,232.5,575,jr,SBD,Wraps
1,140,David Tudor,KS,M,134.04,257.5,125,285,667.5,nov,SBD,Wraps
1,110,Alan English,KS,M,106.14,210,130,260,600,smp,SBD,Wraps
1,75,Kyle Morgan,KS,M,74.75,177.5,127.5,197.5,502.5,int,SBD,Wraps
1,67.5,Damond Flowers,KS,M,66.5,180,92.5,197.5,470,hs,SBD,Wraps
1,75,Nick Oswald,KS,M,73.35,170,107.5,210,487.5,nov,SBD,Wraps
1,110,Jesse Landes,KS,M,108.77,192.5,125,275,592.5,pure,SBD,Wraps
1,67.5,Derek Mead,KS,M,64.77,145,107.5,190,442.5,jr,SBD,Wraps
3,82.5,Stephen Opskar,KS,M,81.65,182.5,120,200,502.5,jr,SBD,Wraps
2,67.5,Dalton Luksa,KS,M,65.86,127.5,87.5,200,415,jr,SBD,Wraps
1,140,Anthony Cooper,KS,M,126.64,205,137.5,227.5,570,pure,SBD,Wraps
1,67.5,Jake Deckert,KS,M,65.45,130,97.5,122.5,350,nov,SBD,Wraps
1,100,Trey Potter,KS,M,96.93,152.5,100,170,422.5,open,SBD,Wraps
2,67.5,Andrew Helmke,KS,M,66.45,132.5,72.5,135,340,hs,SBD,Wraps
DQ,100,Darryn Lee,KS,M,98.79,172.5,107.5,,,hs,SBD,Wraps
DQ,90,Chris Jester,MO,M,90,190,,220,,int,SBD,Wraps
1,75,Kyle Morgan,KS,M,74.75,,127.5,197.5,325,int,BD,Raw
1,90,Larry Marker,NM,M,83.73,,117.5,192.5,310,m2,BD,Raw
