Division,WeightClassKg,Place,Name,Team,BodyweightKg,Best3SquatKg,Best3BenchKg,Best3DeadliftKg,TotalKg,Equipment,Event,Sex
Boys,51.71,1,Tj Collins,Robinson,50.48,90.72,47.63,92.99,231.33,Single-ply,SBD,M
Boys,51.71,2,Haden Sechelski,Anderson-Shiro,49.9,88.45,45.36,95.25,229.06,Single-ply,SBD,M
Boys,55.79,1,Levi Goudeau,Anderson-Shiro,55.34,129.27,74.84,136.08,340.19,Single-ply,SBD,M
Boys,55.79,2,Elijah Lascurain,College Station A&M Cons,55.34,117.93,86.18,131.54,335.66,Single-ply,SBD,M
Boys,55.79,3,Ryan Wisnoski,Anderson-Shiro,54.88,113.4,61.23,115.67,290.3,Single-ply,SBD,M
Boys,59.87,1,Hayden Eoff,College Station A&M Cons,59.87,131.54,74.84,122.47,328.85,Single-ply,SBD,M
Boys,59.87,2,Nic Rodriguez,College Station A&M Cons,57.61,92.99,58.97,86.18,238.14,Single-ply,SBD,M
Boys,59.87,DQ,Elijah Hauswirth,College Station A&M Cons,59.87,90.72,,,,Single-ply,SBD,M
Boys,59.87,DQ,Brylan Davis,College Station A&M Cons,58.97,,,,,Single-ply,SBD,M
Boys,67.13,1,Mekye Kao,College Station A&M Cons,64.86,172.37,113.4,181.44,467.2,Single-ply,SBD,M
Boys,67.13,2,Alex Flores,Anderson-Shiro,66.68,165.56,106.59,188.24,460.4,Single-ply,SBD,M
Boys,67.13,3,Quan Williams,College Station A&M Cons,66.22,154.22,77.11,181.44,412.77,Single-ply,SBD,M
Boys,67.13,4,Diego Moya,College Station A&M Cons,61.69,127.01,77.11,136.08,340.19,Single-ply,SBD,M
Boys,67.13,5,Dakota Newton,College Station A&M Cons,64.41,117.93,79.38,122.47,319.78,Single-ply,SBD,M
Boys,67.13,6,Chance Key,Robinson,63.05,108.86,79.38,122.47,310.71,Single-ply,SBD,M
Boys,67.13,7,Trey Stout,Robinson,61.69,131.54,65.77,104.33,301.64,Single-ply,SBD,M
Boys,67.13,8,Tucker Backhus,Anderson-Shiro,61.23,106.59,61.23,97.52,265.35,Single-ply,SBD,M
Boys,67.13,DQ,Truman Jasperson,College Station A&M Cons,66.68,129.27,90.72,,,Single-ply,SBD,M
Boys,74.84,1,Cory Price,College Station A&M Cons,74.84,217.72,124.74,217.72,560.19,Single-ply,SBD,M
Boys,74.84,2,Colton Love,College Station A&M Cons,72.57,195.04,92.99,195.04,483.08,Single-ply,SBD,M
Boys,74.84,3,Dj May,College Station A&M Cons,71.67,163.29,92.99,158.76,415.04,Single-ply,SBD,M
Boys,74.84,4,Antonio Cardenas,College Station A&M Cons,74.84,158.76,97.52,149.69,405.97,Single-ply,SBD,M
Boys,74.84,5,Luke Fisher,Robinson,70.76,129.27,72.57,138.35,340.19,Single-ply,SBD,M
Boys,74.84,6,Bennett Huntchinson,College Station A&M Cons,74.84,131.54,74.84,131.54,337.93,Single-ply,SBD,M
Boys,74.84,7,Tanner Lightsey,College Station A&M Cons,71.67,127.01,72.57,131.54,331.12,Single-ply,SBD,M
Boys,74.84,8,Lyndon Williams,College Station A&M Cons,74.39,120.2,83.91,127.01,331.12,Single-ply,SBD,M
Boys,74.84,9,Brandon Kendrick,Robinson,74.16,117.93,72.57,131.54,322.05,Single-ply,SBD,M
Boys,74.84,10,Nick Gabrielsen,Robinson,74.84,72.57,45.36,61.23,179.17,Single-ply,SBD,M
Boys,74.84,DQ,Kenderick Womack,College Station A&M Cons,71.67,,,,,Single-ply,SBD,M
Boys,74.84,DQ,Chalon Pratt,Anderson-Shiro,68.95,,90.72,147.42,,Single-ply,SBD,M
Boys,82.1,1,Ethan Linder,Robinson,81.65,192.78,117.93,183.7,494.42,Single-ply,SBD,M
Boys,82.1,2,Logan Sauer,Robinson,78.93,185.97,115.67,176.9,478.54,Single-ply,SBD,M
Boys,82.1,3,Jer'Tavius Brown,College Station A&M Cons,82.1,183.7,108.86,158.76,451.32,Single-ply,SBD,M
Boys,82.1,4,Garrett Golla,College Station A&M Cons,80.74,158.76,92.99,190.51,442.25,Single-ply,SBD,M
Boys,82.1,5,Dj Offing,Anderson-Shiro,77.56,170.1,102.06,165.56,437.72,Single-ply,SBD,M
Boys,82.1,6,David Wagner,Robinson,76.2,138.35,83.91,142.88,365.14,Single-ply,SBD,M
Boys,82.1,7,Christian Watters,College Station A&M Cons,81.19,140.61,90.72,115.67,347,Single-ply,SBD,M
Boys,89.81,1,Chad Roebuck,Anderson-Shiro,89.36,210.92,140.61,190.51,542.04,Single-ply,SBD,M
Boys,89.81,2,Joseph Garcia,College Station A&M Cons,89.81,215.46,124.74,188.24,528.44,Single-ply,SBD,M
Boys,89.81,3,Josh Gunn,Robinson,89.36,174.63,136.08,165.56,476.27,Single-ply,SBD,M
Boys,89.81,4,Caden Yorek,Anderson-Shiro,88.9,181.44,106.59,165.56,453.59,Single-ply,SBD,M
Boys,89.81,5,Tate Sehon,Robinson,89.36,165.56,102.06,158.76,426.38,Single-ply,SBD,M
Boys,89.81,6,Eduardo Chavez,Robinson,89.81,145.15,90.72,181.44,417.3,Single-ply,SBD,M
Boys,89.81,7,Jordan Ahmed,College Station A&M Cons,88.9,104.33,86.18,90.72,281.23,Single-ply,SBD,M
Boys,89.81,DQ,Trevor Fernandez,Anderson-Shiro,88.9,,,,,Single-ply,SBD,M
Boys,99.79,1,Cooper Wagenschein,Robinson,90.26,195.04,113.4,195.04,503.49,Single-ply,SBD,M
Boys,99.79,2,Tre Oliver,Robinson,95.12,188.24,90.72,158.76,437.72,Single-ply,SBD,M
Boys,99.79,3,Michael Gabrielsen,Robinson,96.16,158.76,90.72,172.37,421.84,Single-ply,SBD,M
Boys,99.79,4,Jacob Brooks,College Station A&M Cons,95.71,158.76,90.72,158.76,408.23,Single-ply,SBD,M
Boys,99.79,5,David Mitchell,Robinson,93.89,142.88,90.72,170.1,403.7,Single-ply,SBD,M
Boys,99.79,6,Bryan Ortega,College Station A&M Cons,93.89,113.4,90.72,147.42,351.53,Single-ply,SBD,M
Boys,99.79,7,Daniel Walker,Robinson,90.26,129.27,,151.95,281.23,Single-ply,SD,M
Boys,109.77,1,Matthew O'Neil,College Station A&M Cons,109.77,226.8,149.69,235.87,612.35,Single-ply,SBD,M
Boys,109.77,2,Brady Haug,Robinson,107.05,176.9,108.86,176.9,462.66,Single-ply,SBD,M
Boys,109.77,3,Klayton Sheffield,College Station A&M Cons,102.97,179.17,111.13,154.22,444.52,Single-ply,SBD,M
Boys,109.77,4,Malik Ross,College Station A&M Cons,103.87,172.37,117.93,154.22,444.52,Single-ply,SBD,M
Boys,109.77,5,Camren Klawinsky,Anderson-Shiro,107.5,156.49,90.72,154.22,401.43,Single-ply,SBD,M
Boys,109.77,DQ,Jordan Kisse,College Station A&M Cons,105.23,136.08,,,,Single-ply,SBD,M
Boys,124.74,1,Brandon Waggoner,College Station A&M Cons,124.28,185.97,124.74,190.51,501.22,Single-ply,SBD,M
Boys,124.74,2,Kyle Greer,College Station A&M Cons,114.31,167.83,95.25,154.22,417.3,Single-ply,SBD,M
Boys,124.74,3,Timothy Chandler,College Station A&M Cons,114.31,127.01,68.04,117.93,312.98,Single-ply,SBD,M
Boys,124.74+,1,Andrew Seaback,Anderson-Shiro,132,226.8,120.2,233.6,580.6,Single-ply,SBD,M
Boys,124.74+,2,Jacob Gallimore,Robinson,146.51,215.46,106.59,204.12,526.17,Single-ply,SBD,M
Boys,124.74+,3,Trace Snyder,Robinson,159.21,195.04,122.47,204.12,521.63,Single-ply,SBD,M
Boys,124.74+,4,Kendrick Palmer,College Station A&M Cons,141.07,122.47,77.11,149.69,349.27,Single-ply,SBD,M
