Division,WeightClassKg,Place,Name,Team,BodyweightKg,Best3SquatKg,Best3BenchKg,Best3DeadliftKg,TotalKg,Equipment,Event,Sex
Boys,55.79,1,Isaac Gonzalez,Austin Akins,51.82,111.13,74.84,124.74,310.71,Single-ply,SBD,M
Boys,51.71,2,Josh Ramirez,Kyle Lehman,51.71,90.72,52.16,117.93,260.82,Single-ply,SBD,M
Boys,51.71,3,Hunter Harwood,Comal Canyon,49.44,111.13,49.9,90.72,251.74,Single-ply,SBD,M
Boys,51.71,4,Luis Rios,Geronimo Navarro,44,70.31,54.43,90.72,215.46,Single-ply,SBD,M
Boys,51.71,5,Caleb Bryant,Center Point,51.03,58.97,29.48,68.04,156.49,Single-ply,SBD,M
Boys,55.79,1,Marcus Manley,Del Valle,55.79,174.63,88.45,149.69,412.77,Single-ply,SBD,M
Boys,55.79,2,Mario Leos,Seguin,54.88,138.35,92.99,170.1,401.43,Single-ply,SBD,M
Boys,55.79,3,Gino Scirrafala,Comal Canyon,55.34,129.27,70.31,142.88,342.46,Single-ply,SBD,M
Boys,59.87,4,Omar De La Fuente,Austin Akins,56.02,88.45,63.5,111.13,263.08,Single-ply,SBD,M
Boys,55.79,5,Josh Shoemake,Center Point,53.52,83.91,52.16,106.59,242.67,Single-ply,SBD,M
Boys,59.87,1,Caleel Turner,Comal Canyon,59.65,163.29,68.04,172.37,403.7,Single-ply,SBD,M
Boys,59.87,2,Pedro Carreon,Geronimo Navarro,57.15,136.08,90.72,154.22,381.02,Single-ply,SBD,M
Boys,59.87,3,Cameron Baird,Kyle Lehman,59.42,145.15,72.57,145.15,362.87,Single-ply,SBD,M
Boys,59.87,4,Rudy Martinez,Kyle Lehman,58.97,131.54,79.38,142.88,353.8,Single-ply,SBD,M
Boys,59.87,5,Matt Maldonado,Del Valle,59.87,127.01,79.38,142.88,349.27,Single-ply,SBD,M
Boys,59.87,6,Barney Natividad,Del Valle,56.47,104.33,68.04,120.2,292.57,Single-ply,SBD,M
Boys,59.87,7,Bendan Styles,Austin Akins,57.61,95.25,52.16,113.4,260.82,Single-ply,SBD,M
Boys,59.87,8,John Anzualda,Lockhart,57.15,88.45,56.7,97.52,242.67,Single-ply,SBD,M
Boys,59.87,DQ,Charlie Ereaux,Lockhart,58.51,88.45,,,,Single-ply,SBD,M
Boys,59.87,DQ,Andrew Peterson,Bastrop,59.42,,,,,Single-ply,SBD,M
Boys,67.13,1,Peter Webre,Comal Canyon,66.68,199.58,111.13,204.12,514.83,Single-ply,SBD,M
Boys,67.13,2,Justin Carpenter,Seguin,66.68,174.63,111.13,181.44,467.2,Single-ply,SBD,M
Boys,67.13,3,Jacob Torres,Kyle Lehman,63.05,154.22,99.79,181.44,435.45,Single-ply,SBD,M
Boys,67.13,4,Marcus Reed,Bastrop,66.68,163.29,95.25,174.63,433.18,Single-ply,SBD,M
Boys,67.13,5,Brandon Scott #4,Kyle Lehman,62.14,149.69,86.18,167.83,403.7,Single-ply,SBD,M
Boys,67.13,6,Trevor Jones,Dripping Springs,67.13,129.27,88.45,170.1,387.82,Single-ply,SBD,M
Boys,67.13,7,Taylor Hough,Buda Hays,64.41,147.42,88.45,147.42,383.29,Single-ply,SBD,M
Boys,67.13,8,Axel Gomez,Austin Lake Travis,65.54,129.27,95.25,158.76,383.29,Single-ply,SBD,M
Boys,67.13,9,Rick Dominguez,Center Point,64.86,136.08,88.45,156.49,381.02,Single-ply,SBD,M
Boys,67.13,10,Chris Ruff,Geronimo Navarro,61.69,136.08,81.65,145.15,362.87,Single-ply,SBD,M
Boys,67.13,11,Gage Hadlock,Comal Canyon,67.13,145.15,63.5,149.69,358.34,Single-ply,SBD,M
Boys,67.13,12,Devonte Pendergrass,Comal Canyon,65.32,124.74,68.04,156.49,349.27,Single-ply,SBD,M
Boys,67.13,13,Jamal Brown,Austin Bowie,63.96,127.01,81.65,136.08,344.73,Single-ply,SBD,M
Boys,67.13,14,Tyler Stephens,Universal City Randolph,65.32,120.2,79.38,145.15,344.73,Single-ply,SBD,M
Boys,67.13,15,Mareck Garcia,Austin Bowie,67.13,124.74,74.84,142.88,342.46,Single-ply,SBD,M
Boys,67.13,16,Patrick Halsell,Center Point,63.05,138.35,81.65,111.13,331.12,Single-ply,SBD,M
Boys,67.13,17,Kyle Adair,Dripping Springs,67.13,111.13,61.23,124.74,297.1,Single-ply,SBD,M
Boys,67.13,18,Sergio Gil,Austin Akins,65.54,92.99,81.65,113.4,288.03,Single-ply,SBD,M
Boys,74.84,19,Angel Maldonado,Austin Akins,67.36,70.31,49.9,104.33,224.53,Single-ply,SBD,M
Boys,67.13,DQ,Dalton Johnson,Buda Hays,63.5,,,,,Single-ply,SBD,M
Boys,74.84,1,Jon Frasier,Kyle Lehman,72.12,172.37,127.01,195.04,494.42,Single-ply,SBD,M
Boys,74.84,2,Lonnie Overturf,Comal Canyon,70.31,183.7,97.52,188.24,469.47,Single-ply,SBD,M
Boys,74.84,3,Clay Flinn,Austin Lake Travis,74.39,161.03,97.52,158.76,417.3,Single-ply,SBD,M
Boys,82.1,4,Sean Hancock,Geronimo Navarro,75.07,136.08,115.67,165.56,417.3,Single-ply,SBD,M
Boys,74.84,5,Jake Kotalik,Austin Lake Travis,68.95,147.42,88.45,158.76,394.63,Single-ply,SBD,M
Boys,74.84,6,Will Perrin,Universal City Randolph,72.57,158.76,68.04,163.29,390.09,Single-ply,SBD,M
Boys,74.84,7,Jon Horrocks,Buda Hays,74.84,138.35,88.45,151.95,378.75,Single-ply,SBD,M
Boys,74.84,8,Mario Munoz,Center Point,69.85,131.54,74.84,124.74,331.12,Single-ply,SBD,M
Boys,74.84,DQ,Jesus Rivera,Del Valle,73.94,185.97,,,,Single-ply,SBD,M
Boys,74.84,DQ,Mark Oldham,Buda Hays,69.85,127.01,,,,Single-ply,SBD,M
Boys,74.84,DQ,Hayden Eskew,Buda Hays,71.21,,,,,Single-ply,SBD,M
Boys,74.84,DQ,Vincent Moralda,Buda Hays,73.48,154.22,95.25,,,Single-ply,SBD,M
Boys,74.84,DQ,Aaron Lugo,Austin Bowie,70.31,,,,,Single-ply,SBD,M
Boys,74.84,DQ,Tomas Cruz,Austin Akins,73.03,,,,,Single-ply,SBD,M
Boys,82.1,DQ,John Monreal,Del Valle,74.96,242.67,,,,Single-ply,SBD,M
Boys,82.1,1,Jeff Moreno,Comal Canyon,80.29,217.72,115.67,226.8,560.19,Single-ply,SBD,M
Boys,82.1,2,Matthew Tirk,Kyle Lehman,81.87,204.12,127.01,204.12,535.24,Single-ply,SBD,M
Boys,82.1,3,Frankie Alvarez,Austin Bowie,80.74,183.7,122.47,215.46,521.63,Single-ply,SBD,M
Boys,82.1,4,Bryce Dunman,Comal Canyon,77.56,206.38,99.79,192.78,498.95,Single-ply,SBD,M
Boys,82.1,5,Payton Smith,Comal Canyon,78.02,190.51,95.25,190.51,476.27,Single-ply,SBD,M
Boys,82.1,6,Ethan Martin,Kyle Lehman,79.83,158.76,92.99,192.78,444.52,Single-ply,SBD,M
Boys,82.1,7,Stephan Beran,Del Valle,80.74,165.56,104.33,174.63,444.52,Single-ply,SBD,M
Boys,82.1,8,Ben Martinez,Austin Bowie,80.29,158.76,90.72,181.44,430.91,Single-ply,SBD,M
Boys,82.1,9,Chris Cerda,Kyle Lehman,79.83,158.76,99.79,163.29,421.84,Single-ply,SBD,M
Boys,82.1,10,Edbriel Manzo,Buda Hays,79.38,147.42,95.25,176.9,419.57,Single-ply,SBD,M
Boys,82.1,11,Shaq Henry,Universal City Randolph,75.52,158.76,95.25,158.76,412.77,Single-ply,SBD,M
Boys,82.1,12,Dillion Brunet,Center Point,76.88,154.22,92.99,165.56,412.77,Single-ply,SBD,M
Boys,82.1,13,Dekota Nolte,Seguin,81.19,149.69,83.91,158.76,392.36,Single-ply,SBD,M
Boys,82.1,14,Shane DeLeon,Seguin,80.29,115.67,108.86,161.03,385.55,Single-ply,SBD,M
Boys,82.1,15,Max Mullins,Seguin,79.83,115.67,83.91,183.7,383.29,Single-ply,SBD,M
Boys,82.1,16,Ryan Mercado,Austin Bowie,82.1,127.01,81.65,136.08,344.73,Single-ply,SBD,M
Boys,82.1,DQ,Charles Wilson,Austin Akins,76.2,,,,,Single-ply,SBD,M
Boys,82.1,DQ,Josh Longoria,Del Valle,76.2,151.95,,,,Single-ply,SBD,M
Boys,82.1,DQ,David Burns,Dripping Springs,75.3,133.81,,,,Single-ply,SBD,M
Boys,89.81,1,Ian Bell,Comal Canyon,87.09,303.91,142.88,299.37,746.16,Single-ply,SBD,M
Boys,89.81,2,Caleb Gardner,Austin Bowie,89.58,204.12,120.2,217.72,542.04,Single-ply,SBD,M
Boys,89.81,3,Wayne Lum,Bastrop,89.81,204.12,113.4,213.19,530.7,Single-ply,SBD,M
Boys,89.81,4,Kory Kuhl,Universal City Randolph,83.46,190.51,104.33,206.38,501.22,Single-ply,SBD,M
Boys,89.81,5,Fredo Flores,Center Point,86.18,183.7,104.33,204.12,492.15,Single-ply,SBD,M
Boys,89.81,6,Chris McLeod,Seguin,88.45,188.24,108.86,195.04,492.15,Single-ply,SBD,M
Boys,89.81,7,Jesse Baker,Seguin,88.9,188.24,113.4,188.24,489.88,Single-ply,SBD,M
Boys,89.81,8,Louis Edwards,Del Valle,85.28,183.7,106.59,197.31,487.61,Single-ply,SBD,M
Boys,99.79,9,Brandon Polk,Dripping Springs,90.04,170.1,106.59,181.44,458.13,Single-ply,SBD,M
Boys,89.81,10,Ronnie Carter,Geronimo Navarro,84.82,167.83,111.13,172.37,451.32,Single-ply,SBD,M
Boys,89.81,11,Mark Trevino,Austin Bowie,88.45,154.22,117.93,174.63,446.79,Single-ply,SBD,M
Boys,89.81,12,Steven Kittle,Dripping Springs,87.54,170.1,97.52,174.63,442.25,Single-ply,SBD,M
Boys,99.79,13,Zane Zimmerman,Geronimo Navarro,90.04,158.76,106.59,158.76,424.11,Single-ply,SBD,M
Boys,89.81,14,Adam Jemmott,Austin Lake Travis,88,156.49,95.25,170.1,421.84,Single-ply,SBD,M
Boys,89.81,15,Taylor Dean,Geronimo Navarro,84.82,154.22,90.72,161.03,405.97,Single-ply,SBD,M
Boys,89.81,16,Austin Metzger,Universal City Randolph,86.64,145.15,83.91,149.69,378.75,Single-ply,SBD,M
Boys,89.81,17,Victor Martinez,Buda Hays,87.54,129.27,106.59,142.88,378.75,Single-ply,SBD,M
Boys,89.81,18,Ben Bateman,Dripping Springs,83.46,120.2,70.31,117.93,308.44,Single-ply,SBD,M
Boys,89.81,19,Colby Schreib,Austin Lake Travis,84.37,92.99,70.31,122.47,285.76,Single-ply,SBD,M
Boys,89.81,DQ,Garett Perez,Center Point,83.01,,,,,Single-ply,SBD,M
Boys,89.81,DQ,Jeremy Amberger,Austin Lake Travis,89.81,,,,,Single-ply,SBD,M
Boys,89.81,DQ,Colton Jenkins,Seguin,89.81,,,,,Single-ply,SBD,M
Boys,99.79,1,David Garza,Kyle Lehman,92.53,242.67,165.56,249.48,657.71,Single-ply,SBD,M
Boys,99.79,2,James Limon,Del Valle,95.25,195.04,129.27,,324.32,Single-ply,SB,M
Boys,99.79,3,Jose Lerma,Bastrop,94.35,204.12,136.08,208.65,548.85,Single-ply,SBD,M
Boys,99.79,4,Miles Dixon,Seguin,93.44,204.12,113.4,226.8,544.31,Single-ply,SBD,M
Boys,99.79,5,Chris Carpenter,Seguin,92.53,174.63,127.01,174.63,476.27,Single-ply,SBD,M
Boys,99.79,6,Kevin Ibanez,Kyle Lehman,96.62,183.7,102.06,149.69,435.45,Single-ply,SBD,M
Boys,99.79,7,Sam Schlanger,Austin Lake Travis,99.79,161.03,108.86,165.56,435.45,Single-ply,SBD,M
Boys,109.77,8,Nick Magnella,Austin Lake Travis,100.02,154.22,97.52,174.63,426.38,Single-ply,SBD,M
Boys,99.79,9,Kyle Williams,Buda Hays,93.89,163.29,106.59,154.22,424.11,Single-ply,SBD,M
Boys,99.79,10,Ron Lee,Bastrop,98.2,151.95,97.52,154.22,403.7,Single-ply,SBD,M
Boys,99.79,11,Josh Pesina,Buda Hays,97.98,136.08,97.52,151.95,385.55,Single-ply,SBD,M
Boys,99.79,12,Colton Childress,Seguin,90.72,124.74,81.65,158.76,365.14,Single-ply,SBD,M
Boys,99.79,13,John Batot,Seguin,98.88,136.08,70.31,145.15,351.53,Single-ply,SBD,M
Boys,99.79,DQ,Richard Porche,Kyle Lehman,98.43,,,,,Single-ply,SBD,M
Boys,99.79,DQ,Brian Branecky,Bastrop,94.8,161.03,,,,Single-ply,SBD,M
Boys,109.77,1,Nick Poole,Buda Hays,105.23,213.19,140.61,229.06,582.87,Single-ply,SBD,M
Boys,109.77,2,Orlando Banda,Kyle Lehman,109.09,233.6,145.15,195.04,573.79,Single-ply,SBD,M
Boys,109.77,3,Austin Reyes,Buda Hays,107.5,226.8,124.74,206.38,557.92,Single-ply,SBD,M
Boys,109.77,4,Dayon Denmon,Del Valle,103.42,195.04,106.59,219.99,521.63,Single-ply,SBD,M
Boys,109.77,5,Vincent Martinez,Austin Bowie,104.78,190.51,122.47,204.12,517.1,Single-ply,SBD,M
Boys,109.77,6,Andrew Turnage,Austin Bowie,106.14,185.97,95.25,215.46,496.68,Single-ply,SBD,M
Boys,109.77,7,Roman Esparza,Geronimo Navarro,109.32,195.04,97.52,195.04,487.61,Single-ply,SBD,M
Boys,109.77,8,Urias Martinez,Bastrop,108.41,183.7,122.47,174.63,480.81,Single-ply,SBD,M
Boys,109.77,9,Steven Perez,Geronimo Navarro,102.06,176.9,106.59,170.1,453.59,Single-ply,SBD,M
Boys,109.77,10,Liam Murphy,Universal City Randolph,109.32,170.1,97.52,172.37,439.98,Single-ply,SBD,M
Boys,109.77,11,Cole Callaway,Universal City Randolph,108.86,158.76,120.2,158.76,437.72,Single-ply,SBD,M
Boys,109.77,12,Jenaro Jackson,Universal City Randolph,101.38,147.42,81.65,181.44,410.5,Single-ply,SBD,M
Boys,109.77,13,Ray Sedwick,Lockhart,106.59,147.42,102.06,161.03,410.5,Single-ply,SBD,M
Boys,109.77,14,David Guthrie,Center Point,102.51,163.29,88.45,138.35,390.09,Single-ply,SBD,M
Boys,109.77,DQ,Darrien Nejat,Buda Hays,103.87,149.69,,,,Single-ply,SBD,M
Boys,109.77,DQ,Ian Coleman,Universal City Randolph,101.6,195.04,106.59,,,Single-ply,SBD,M
Boys,124.74,1,Owen Rathburn,Comal Canyon,114.31,242.67,145.15,233.6,621.42,Single-ply,SBD,M
Boys,124.74,2,Rico Lopez,Del Valle,112.49,226.8,136.08,235.87,598.74,Single-ply,SBD,M
Boys,124.74,3,William Cavanaugh,Comal Canyon,123.38,217.72,151.95,222.26,591.94,Single-ply,SBD,M
Boys,124.74,4,Vicente Juarez,Geronimo Navarro,124.74,226.8,133.81,197.31,557.92,Single-ply,SBD,M
Boys,124.74,5,Vincent Pesina,Buda Hays,110.22,226.8,124.74,197.31,548.85,Single-ply,SBD,M
Boys,124.74,6,Kenny Higgins,Kyle Lehman,117.03,204.12,124.74,185.97,514.83,Single-ply,SBD,M
Boys,124.74,7,Lucas Zollar,Austin Bowie,123.15,190.51,120.2,204.12,514.83,Single-ply,SBD,M
Boys,124.74,8,Nick Cardenas,Austin Bowie,113.4,204.12,104.33,190.51,498.95,Single-ply,SBD,M
Boys,124.74,9,Jonathan Roberts,Austin Lake Travis,113.4,158.76,124.74,204.12,487.61,Single-ply,SBD,M
Boys,124.74,10,Mike Warmke,Comal Canyon,113.4,174.63,97.52,163.29,435.45,Single-ply,SBD,M
Boys,124.74,11,Robert Gregory,Center Point,121.11,138.35,127.01,165.56,430.91,Single-ply,SBD,M
Boys,124.74,12,Anthony Carchi,Austin Lake Travis,124.74,158.76,106.59,165.56,430.91,Single-ply,SBD,M
Boys,124.74,13,Zach Dillon,Austin Lake Travis,120.2,147.42,95.25,183.7,426.38,Single-ply,SBD,M
Boys,124.74+,14,Sergio Aguilar,Austin Akins,124.96,124.74,83.91,156.49,365.14,Single-ply,SBD,M
Boys,124.74,15,Michael Friga,Dripping Springs,112.49,140.61,72.57,113.4,326.59,Single-ply,SBD,M
Boys,124.74,DQ,Reid Palachek,Austin Bowie,111.58,174.63,,,,Single-ply,SBD,M
Boys,124.74+,1,Ryne Lehman,Lockhart,131.09,142.88,122.47,174.63,439.98,Single-ply,SBD,M
Boys,124.74+,2,Austin Pando,Bastrop,162.39,156.49,111.13,165.56,433.18,Single-ply,SBD,M
Boys,124.74+,3,Ruben Hernandez,Geronimo Navarro,146.96,145.15,104.33,170.1,419.57,Single-ply,SBD,M
Boys,124.74+,DQ,Joe Bosquez,Lockhart,138.35,,,,,Single-ply,SBD,M
Boys,124.74+,DQ,Matt Wilson,Austin Bowie,133.81,,,,,Single-ply,SBD,M
