Division,WeightClassKg,Place,Name,Team,BodyweightKg,Best3SquatKg,Best3BenchKg,Best3DeadliftKg,TotalKg,Equipment,Event,Sex
Boys,51.71,1,Andrew Gonzales,Waco University,51.53,72.57,54.43,95.25,222.26,Single-ply,SBD,M
Boys,55.79,1,Jesus Tonche,Waco Connally,53.98,111.13,70.31,129.27,310.71,Single-ply,SBD,M
Boys,55.79,2,Kris Glynn,Waco University,52.71,83.91,56.7,92.99,233.6,Single-ply,SBD,M
Boys,59.87,1,Baldomero Sanchez,Riesel,57.06,136.08,65.77,136.08,337.93,Single-ply,SBD,M
Boys,67.13,2,Kamon Long,Waco University,59.96,115.67,65.77,124.74,306.17,Single-ply,SBD,M
Boys,59.87,3,Curtis Evans,Riesel,58.33,129.27,49.9,104.33,283.5,Single-ply,SBD,M
Boys,59.87,4,Nelson Musgrave,Waco Connally,57.52,102.06,56.7,113.4,272.16,Single-ply,SBD,M
Boys,59.87,5,Harley Eldridge,Waco Connally,58.51,86.18,65.77,106.59,258.55,Single-ply,SBD,M
Boys,67.13,1,Jesus Jaimes,Riesel,65.05,204.12,129.27,181.44,514.83,Single-ply,SBD,M
Boys,67.13,2,Antwan Coleman,Waco University,67.04,204.12,115.67,183.7,503.49,Single-ply,SBD,M
Boys,67.13,3,Domonic Matthews,Killeen Shoemaker,61.42,138.35,83.91,176.9,399.16,Single-ply,SBD,M
Boys,67.13,4,Steven Foster,Riesel,60.69,140.61,83.91,149.69,374.21,Single-ply,SBD,M
Boys,67.13,5,Brady Baker,Riesel,66.59,140.61,52.16,127.01,319.78,Single-ply,SBD,M
Boys,67.13,6,Damarcus Baisy,Waco,67.13,111.13,70.31,136.08,317.51,Single-ply,SBD,M
Boys,67.13,7,Asunte Collins,Waco,62.78,102.06,54.43,136.08,292.57,Single-ply,SBD,M
Boys,67.13,8,Josh Payner,Riesel,65.05,83.91,63.5,136.08,283.5,Single-ply,SBD,M
Boys,67.13,9,Edward Jacquez,Waco,62.05,70.31,65.77,88.45,224.53,Single-ply,SBD,M
Boys,67.13,DQ,Lewis David,Marlin,61.42,,,,,Single-ply,SBD,M
Boys,67.13,DQ,Lege Justice,Killeen Shoemaker,63.23,138.35,,,,Single-ply,SBD,M
Boys,67.13,DQ,Kenlen Jalen,Killeen Shoemaker,66.86,,,,,Single-ply,SBD,M
Boys,74.84,1,Josh Zarazua,Waco University,74.66,158.76,113.4,174.63,446.79,Single-ply,SBD,M
Boys,74.84,2,Cameron Terrell,Waco Connally,70.31,158.76,86.18,165.56,410.5,Single-ply,SBD,M
Boys,74.84,3,Jay Johnson,Waco Connally,73.12,158.76,102.06,147.42,408.23,Single-ply,SBD,M
Boys,74.84,4,Xavier Robertson,Waco,68.04,124.74,88.45,163.29,376.48,Single-ply,SBD,M
Boys,74.84,5,Spencer Majors,Waco,74.57,102.06,65.77,129.27,297.1,Single-ply,SBD,M
Boys,74.84,6,Jacob Maldonado,Waco,72.12,102.06,68.04,124.74,294.84,Single-ply,SBD,M
Boys,74.84,DQ,Derrious Burns,Waco University,74.57,195.04,,,,Single-ply,SBD,M
Boys,82.1,1,Marco Vasquez,Riesel,80.56,181.44,117.93,154.22,453.59,Single-ply,SBD,M
Boys,82.1,2,Darian Robinson,Waco Connally,81.28,174.63,106.59,165.56,446.79,Single-ply,SBD,M
Boys,89.81,3,Nika Davis,Waco,82.19,170.1,104.33,167.83,442.25,Single-ply,SBD,M
Boys,82.1,DQ,Sye Bennefield,Killeen Shoemaker,75.57,,,,,Single-ply,SBD,M
Boys,82.1,DQ,Aaron Dulus,Waco Connally,80.83,151.95,,,,Single-ply,SBD,M
Boys,89.81,1,Otis Jordin,Killeen Shoemaker,85.28,210.92,113.4,190.51,514.83,Single-ply,SBD,M
Boys,89.81,2,Johnny Jefferson,Killeen Shoemaker,84.14,199.58,124.74,185.97,510.29,Single-ply,SBD,M
Boys,89.81,3,Stanley Virgile,Killeen Shoemaker,84.46,188.24,97.52,185.97,471.74,Single-ply,SBD,M
Boys,89.81,4,Roderik Harris,Waco,87,142.88,86.18,145.15,374.21,Single-ply,SBD,M
Boys,89.81,DQ,Chris Bell,Waco University,84.28,,,,,Single-ply,SBD,M
Boys,89.81,DQ,Andre Peoples,Marlin,88.72,,,,,Single-ply,SBD,M
Boys,99.79,1,Chris Robinson,Waco Connally,94.26,217.72,127.01,204.12,548.85,Single-ply,SBD,M
Boys,99.79,2,Josh King,Killeen Shoemaker,94.08,201.85,117.93,226.8,546.58,Single-ply,SBD,M
Boys,99.79,3,Cris Skilang,Killeen Shoemaker,90.45,201.85,115.67,192.78,510.29,Single-ply,SBD,M
Boys,99.79,4,Josh Owens,Waco,92.53,192.78,111.13,195.04,498.95,Single-ply,SBD,M
Boys,99.79,5,Joseph Reddick,Riesel,94.53,181.44,113.4,167.83,462.66,Single-ply,SBD,M
Boys,99.79,6,Angelo Zuniga,Waco,91.44,167.83,90.72,161.03,419.57,Single-ply,SBD,M
Boys,99.79,7,Lazarus Flores,Waco,94.17,138.35,99.79,163.29,401.43,Single-ply,SBD,M
Boys,99.79,8,Derrick Moore,Waco,95.44,140.61,88.45,172.37,401.43,Single-ply,SBD,M
Boys,99.79,9,Dominic Villa,Waco,92.9,140.61,79.38,163.29,383.29,Single-ply,SBD,M
Boys,99.79,10,Jacob Michalk,Riesel,97.89,140.61,97.52,136.08,374.21,Single-ply,SBD,M
Boys,109.77,1,Ryan de la Garza,Waco Connally,105.69,204.12,113.4,192.78,510.29,Single-ply,SBD,M
Boys,109.77,2,Gabriel Vega,Waco,108.59,190.51,79.38,183.7,453.59,Single-ply,SBD,M
Boys,109.77,3,Quinton Trice,Waco University,103.42,156.49,102.06,192.78,451.32,Single-ply,SBD,M
Boys,109.77,4,Kenny Lizama,Waco,103.69,117.93,65.77,149.69,333.39,Single-ply,SBD,M
Boys,109.77,DQ,Chris Jones,Killeen Shoemaker,109.68,,,,,Single-ply,SBD,M
Boys,109.77,DQ,Trevion Freemen,Waco,101.79,97.52,,,,Single-ply,SBD,M
Boys,124.74,1,Michael Bonilla,Waco University,119.29,219.99,113.4,190.51,523.9,Single-ply,SBD,M
Boys,124.74,2,Devontae Neal,Waco,120.47,142.88,104.33,156.49,403.7,Single-ply,SBD,M
Boys,124.74,3,Jaquill Harden,Waco,118.39,120.2,97.52,161.03,378.75,Single-ply,SBD,M
Boys,124.74+,4,Narciso Molina,Waco Connally,124.92,154.22,77.11,124.74,356.07,Single-ply,SBD,M
Boys,124.74,DQ,Darius Alley,Waco University,113.31,217.72,,,,Single-ply,SBD,M
Boys,124.74,DQ,Derrick Scott,Marlin,119.29,161.03,,,,Single-ply,SBD,M
Boys,124.74+,1,Andrew Billings,Waco,135.71,272.16,188.24,272.16,732.55,Single-ply,SBD,M
Boys,124.74+,2,Ben Hughes,Waco University,134.63,278.96,154.22,272.16,705.34,Single-ply,SBD,M
Boys,124.74+,3,Nick Sunday,Waco,173,278.96,181.44,215.46,675.85,Single-ply,SBD,M
Boys,124.74+,4,Tj Valentine,Killeen Shoemaker,134.04,217.72,131.54,224.53,573.79,Single-ply,SBD,M
Boys,124.74+,5,Dominick Chirco,Killeen Shoemaker,126.92,204.12,124.74,226.8,555.65,Single-ply,SBD,M
Boys,124.74+,6,Tyrone Newson,Killeen Shoemaker,128.64,190.51,131.54,201.85,523.9,Single-ply,SBD,M
Boys,124.74+,7,Noah Russell,Waco,152.59,161.03,117.93,156.49,435.45,Single-ply,SBD,M
