WeightClassKg,Place,JapaneseName,Name,Age,BodyweightKg,Team,Best3BenchKg,TotalKg,Sex,Event,Equipment,Division
48,1,馬場 真弓,,36,47,東京都 江東区スポーツ会館,55,55,F,B,Raw,Open
52,1,小縣早知子,,39,51.75,大阪府 関西スポーツダイス,62.5,62.5,F,B,Raw,Open
56,1,木村 初子,,49,53,神奈川県 アサマＴＣ,70,70,F,B,Raw,Open
60,1,奥田和美,,36,58.7,京都府 バーベル京都,62.5,62.5,F,B,Raw,Open
67.5,1,石川記みよ,,53,67.4,神奈川県 個人,72.5,72.5,F,B,Raw,Open
52,1,松本 哲,,32,51.65,東京都 パワーハウス,107.5,107.5,M,B,Raw,Open
52,2,時田正敏,,32,51.9,千葉県 市原市中央武道館,102.5,102.5,M,B,Raw,Open
52,3,小林宏和,,26,51.15,神奈川県 神奈中ライフティック,97.5,97.5,M,B,Raw,Open
52,4,織田博茂,,43,51.25,神奈川県 平塚総合体育館,95,95,M,B,Raw,Open
52,5,奥田博之,,43,51.6,京都府 バーベルス京都,95,95,M,B,Raw,Open
52,6,岸本晋亮,,26,51.95,東京都 闘魂ＧＹＭ,95,95,M,B,Raw,Open
52,7,伊藤悦司,,31,50.3,北海道 電源開発,90,90,M,B,Raw,Open
52,NS,石渡啓之,,41,,東京都 富士見ヘルスプラザ,,,M,B,Raw,Open
56,1,里見正太郎,,29,55.7,千葉県 個人,112.5,112.5,M,B,Raw,Open
56,DQ,岩切健一,,29,55.65,富山県 個人,,,M,B,Raw,Open
60,1,片瀬勝一,,31,59.55,東京都 ユアースポ＾ツ,145,145,M,B,Raw,Open
60,2,小栗哲也,,36,57.1,神奈川県 神奈中ライフティック,130,130,M,B,Raw,Open
60,3,宇城 元,,27,60,愛知県 デンソー刈谷ＰＣ,127.5,127.5,M,B,Raw,Open
60,DQ,浜口 誠,,26,58.3,香川県 岩崎BC津山,,,M,B,Raw,Open
67.5,1,野口隆博,,31,67.25,東京都 スターライトジム,157.5,157.5,M,B,Raw,Open
67.5,2,木村 貢,,43,64.45,茨城県 筑波大学桐葉会,145,145,M,B,Raw,Open
67.5,3,大宜見朝覺,,59,66.4,沖縄県 奥武山ＷＴＣ,140,140,M,B,Raw,Open
67.5,4,大堂秀樹,,26,66.8,愛知県 デンソー刈谷ＰＣ,140,140,M,B,Raw,Open
67.5,5,森上 均,,31,65.6,香川県 岩崎ＢＣ津山,130,130,M,B,Raw,Open
67.5,6,池上 健,,39,65.85,長野県 サンプレイＳＣ,122.5,122.5,M,B,Raw,Open
67.5,7,轟木康雄,,44,65.75,愛知県 トヨタ自動車,120,120,M,B,Raw,Open
67.5,8,北野青一,,46,65.65,神奈川県 港南ＳＣ,100,100,M,B,Raw,Open
75,1,小谷紀明,,34,75,埼玉県 ＴＣ川口,165,165,M,B,Raw,Open
75,2,藤原三二,,41,74.85,東京都 チームこん平,160,160,M,B,Raw,Open
75,3,岩楯英二,,33,74.2,東京都 ユアースポーツＣ,145,145,M,B,Raw,Open
75,4,飯田善紀,,45,71.45,静岡県 スポーツＣＢＩＧ３,130,130,M,B,Raw,Open
75,5,佐藤政志,,33,72.5,京都府 クラブ鍛練京都,120,120,M,B,Raw,Open
75,6,伊藤亜細亜,,60,73.75,東京都 ブリジストンＳＣ,120,120,M,B,Raw,Open
75,7,神戸照彦,,32,72.35,愛知県 大新ジム,110,110,M,B,Raw,Open
75,8,石谷幸二,,32,73.3,京都府 クラブ鍛練京都,90,90,M,B,Raw,Open
75,NS,大城朋也,,27,,沖縄県 奥武山ＷＴＣ,,,M,B,Raw,Open
75,DQ,渡辺浩道,,38,73.3,茨城県 下館勝友ＴＣ,,,M,B,Raw,Open
82.5,1,Ｆ／ランバート,,33,81.45,東京都 江東区スポーツ会館,167.5,167.5,M,B,Raw,Open
82.5,2,渡辺雄次,,20,80.45,静岡県 ＳＣパサージュ,165,165,M,B,Raw,Open
82.5,3,井上正雄,,31,81.25,東京都 ユアースポーツＣ,145,145,M,B,Raw,Open
82.5,4,東田義弘,,29,77.45,神奈川県 港南ＳＣ,120,120,M,B,Raw,Open
82.5,5,井本邦義,,29,80.5,愛知県 大新ジム,112.5,112.5,M,B,Raw,Open
82.5,6,三浦正敏,,45,80.7,神奈川県 港南ＳＣ,110,110,M,B,Raw,Open
82.5,NS,大城正彦,,29,,,,,M,B,Raw,Open
90,1,磯辺光男,,44,88.95,埼玉県 大宮ＴＣ,185,185,M,B,Raw,Open
90,2,木下正志,,36,86.65,大阪府 コスモジム,180,180,M,B,Raw,Open
90,3,真鍋友亮,,30,86.15,香川県 岩崎ＢＣ津山,170,170,M,B,Raw,Open
90,4,白川太平,,32,88.5,神奈川県 七沢病院,170,170,M,B,Raw,Open
90,5,河瀬哲也,,31,87.3,長崎県 個人,150,150,M,B,Raw,Open
90,6,岩崎盛雄,,30,88.9,京都府 クラブ鍛練京都,125,125,M,B,Raw,Open
90,7,川上 宏,,26,85.3,神奈川県 港南ＳＣ,100,100,M,B,Raw,Open
90,8,和泉泰樹,,23,87.9,神奈川県 港南ＳＣ,100,100,M,B,Raw,Open
90,DQ,山下 斉,,34,87.25,静岡県 ＳＥＩＢＵ ＧＹＭ,,,M,B,Raw,Open
90,DQ,福田康宏,,29,89.35,愛知県 パワーライン,,,M,B,Raw,Open
90,DQ,横山睦夫,,47,89.9,静岡県 ＳＯＫ,,,M,B,Raw,Open
100,1,石田直章,,44,97.65,愛知県 大新ジム,185,185,M,B,Raw,Open
100,2,溝田尚志,,37,97.8,徳島県 ＯＫスポーツクラブ,182.5,182.5,M,B,Raw,Open
100,3,仲西幸男,,37,99.05,沖縄県 奥武山ＷＴＣ,180,180,M,B,Raw,Open
100,4,南條雅紀,,30,92.9,愛知県 大新ジム,175,175,M,B,Raw,Open
100,5,垣原賢人,,28,94.4,東京都 パワーハウス,170,170,M,B,Raw,Open
100,6,庄田一幸,,35,98.7,大阪府 コスモジム,170,170,M,B,Raw,Open
100,7,五十嵐淳之,,36,95.5,東京都 個人,165,165,M,B,Raw,Open
100,8,寸田哲也,,27,97.55,京都府 クラブ鍛練京都,165,165,M,B,Raw,Open
100,9,佐々木博之,,39,97.5,神奈川県 西湘地区体育Ｃ,152.5,152.5,M,B,Raw,Open
100,10,成田清志,,30,95.75,東京都 個人,150,150,M,B,Raw,Open
100,DQ,坂上眞吾,,30,91.85,,,,M,B,Raw,Open
100,DQ,平良 肇,,37,97.8,,,,M,B,Raw,Open
110,1,松浦 司,,37,101.05,大阪府 スポーツジムＢ＆Ｆ,202.5,202.5,M,B,Raw,Open
110,2,落合謙一,,30,105.9,静岡県 Ｔ－ＲＥＸ沼津,180,180,M,B,Raw,Open
110,3,八木為総,,19,104.75,京都府 クラブ鍛練京都,140,140,M,B,Raw,Open
125,1,石田廣文,,34,122.5,佐賀県 佐賀ＴＣ,170,170,M,B,Raw,Open
56,1,佐野 博,,50,56,神奈川県 横浜消防ＩＢＣ,100,100,M,B,Raw,Firefighter
60,1,左宗 昇,,36,60,神奈川県 小田原市消防本部,115,115,M,B,Raw,Firefighter
60,2,佐藤 力,,40,59.45,神奈川県 海老名市消防署,110,110,M,B,Raw,Firefighter
60,3,小松 明,,33,59.15,神奈川県 海老名市消防署,105,105,M,B,Raw,Firefighter
67.5,1,高山 剛,,35,67.4,千葉県 柏市消防本部,135,135,M,B,Raw,Firefighter
67.5,2,佐野純二,,30,65.2,神奈川県 箱根町消防署,115,115,M,B,Raw,Firefighter
67.5,3,飯塚進市,,44,62.35,茨城県 東海消防署,105,105,M,B,Raw,Firefighter
75,1,遠藤慎一,,27,71.5,神奈川県 箱根町消防署,125,125,M,B,Raw,Firefighter
75,2,実島可斉,,36,73.7,鹿児島県 瀬戸内消防署,125,125,M,B,Raw,Firefighter
82.5,1,山崎 登,,45,78.6,神奈川県 横浜消防ＩＢＣ,145,145,M,B,Raw,Firefighter
82.5,2,小倉健二,,34,78.2,神奈川県 鎌倉消防署,140,140,M,B,Raw,Firefighter
82.5,3,星 和彦,,35,79.9,千葉県 柏市消防本部,127.5,127.5,M,B,Raw,Firefighter
100,1,三宅朋良,,38,94.45,神奈川県 箱根町消防署,120,120,M,B,Raw,Firefighter
75,1,加藤勇次,,52,74.3,神奈川県 伊勢原警察署,160,160,M,B,Raw,Police
75,2,有朋弘,,43,72.6,神奈川県 第一機動隊,107.5,107.5,M,B,Raw,Police
82.5,1,福島栄治,,28,78.7,神奈川県 第一機動隊,150,150,M,B,Raw,Police
82.5,2,西村誠一郎,,52,77.25,東京都 亀有警察署,140,140,M,B,Raw,Police
82.5,3,川口正彦,,38,80.4,東京都 警視庁,102.5,102.5,M,B,Raw,Police
125,1,寺田万寿夫,,37,110.95,静岡県 静岡県警,155,155,M,B,Raw,Police
52,1,斎藤龍男,,31,51.65,神奈川県 海上自衛隊,65,65,M,B,Raw,Self Defense Force
67.5,1,岩本正浩,,37,65.95,神奈川県 海上自衛隊,117.5,117.5,M,B,Raw,Self Defense Force
75,1,平野章宏,,31,73.95,石川県 航空自衛隊,132.5,132.5,M,B,Raw,Self Defense Force
82.5,1,佐藤恒也,,34,80.25,神奈川県 海上自衛隊,100,100,M,B,Raw,Self Defense Force
