Division,WeightClassKg,Place,Name,Team,BodyweightKg,Best3SquatKg,Best3BenchKg,Best3DeadliftKg,TotalKg,Equipment,Event,Sex
Boys,51.71,1,Eli Trim,Elkhart,50.89,129.27,61.23,129.27,319.78,Single-ply,SBD,M
Boys,51.71,2,Isaiah Robinson,Waco Midway,50.35,106.59,65.77,122.47,294.84,Single-ply,SBD,M
Boys,51.71,3,Nathan Upshaw,Rusk,48.72,117.93,58.97,113.4,290.3,Single-ply,SBD,M
Boys,51.71,4,Dakota Warrick,Pittsburg,50.35,108.86,52.16,111.13,272.16,Single-ply,SBD,M
Boys,51.71,5,Christian Edwards,Pittsburg,49.44,92.99,52.16,108.86,254.01,Single-ply,SBD,M
Boys,51.71,6,Cody Betser,Fairfield,42.23,95.25,40.82,92.99,229.06,Single-ply,SBD,M
Boys,51.71,7,Lucas Price,Moody,46.27,77.11,45.36,86.18,208.65,Single-ply,SBD,M
Boys,51.71,8,Joseph Watkins,Pittsburg,41.73,74.84,34.02,81.65,190.51,Single-ply,SBD,M
Boys,51.71,DQ,Josh Price,Moody,49.44,86.18,,,,Single-ply,SBD,M
Boys,59.87,1,Cody DeFore,Elkhart,55.97,158.76,77.11,156.49,392.36,Single-ply,SBD,M
Boys,59.87,2,Jeremy Turner,Rusk,55.97,154.22,61.23,136.08,351.53,Single-ply,SBD,M
Boys,59.87,3,Dylan Thompson,Rusk,55.97,138.35,70.31,117.93,326.59,Single-ply,SBD,M
Boys,55.79,4,Ricky Guerra,Waco Midway,53.52,122.47,63.5,131.54,317.51,Single-ply,SBD,M
Boys,59.87,5,Chase Maqueda,Waco Midway,55.97,108.86,72.57,122.47,303.91,Single-ply,SBD,M
Boys,55.79,DQ,Wilberth Jimenez,Pittsburg,54.88,136.08,,,,Single-ply,SBD,M
Boys,67.13,1,Juan Hernández,Mexia,59.96,151.95,77.11,167.83,396.89,Single-ply,SBD,M
Boys,59.87,2,Charles Strickland,Copperas Cove,58.06,147.42,72.57,167.83,387.82,Single-ply,SBD,M
Boys,74.84,1,Tracy Degrate,Mexia,67.36,195.04,108.86,204.12,508.02,Single-ply,SBD,M
Boys,67.13,2,Matt Hall,Copperas Cove,62.6,176.9,108.86,210.92,496.68,Single-ply,SBD,M
Boys,67.13,3,Michael Murray,Palestine Westwood,64.05,199.58,90.72,181.44,471.74,Single-ply,SBD,M
Boys,67.13,4,Gary Goode,Waco Midway,65.5,188.24,92.99,181.44,462.66,Single-ply,SBD,M
Boys,74.84,5,Alex Ward,Fairfield,67.36,204.12,88.45,170.1,462.66,Single-ply,SBD,M
Boys,74.84,6,KeKe Flanigan,San Augustine,67.22,181.44,77.11,201.85,460.4,Single-ply,SBD,M
Boys,74.84,7,TyAundra Taylor,San Augustine,67.22,163.29,86.18,201.85,451.32,Single-ply,SBD,M
Boys,67.13,8,Tate Molandes,Elkhart,64.41,163.29,104.33,172.37,439.98,Single-ply,SBD,M
Boys,67.13,9,Derrick Adams,Palestine,63.5,170.1,90.72,165.56,426.38,Single-ply,SBD,M
Boys,67.13,10,Brandon Even,Moody,65.77,154.22,88.45,170.1,412.77,Single-ply,SBD,M
Boys,74.84,11,Daniel Sonney,Moody,67.31,111.13,74.84,131.54,317.51,Single-ply,SBD,M
Boys,67.13,12,Dakota Hollingsworth,Moody,63.5,92.99,45.36,113.4,251.74,Single-ply,SBD,M
Boys,67.13,DQ,Chaston Bennett,Rusk,66.04,176.9,92.99,,,Single-ply,SBD,M
Boys,67.13,DQ,Jacorian Willis,Pittsburg,64.86,,,,,Single-ply,SBD,M
Boys,67.13,DQ,Hai Vuong,Mexia,67.13,149.69,83.91,,,Single-ply,SBD,M
Boys,74.84,1,David Patterson #4,Carthage,73.03,206.38,111.13,192.78,510.29,Single-ply,SBD,M
Boys,74.84,2,Jeremy Seay,Meridian,73.03,181.44,115.67,208.65,505.76,Single-ply,SBD,M
Boys,74.84,3,Dk Calloway,Carthage,71.67,201.85,111.13,188.24,501.22,Single-ply,SBD,M
Boys,82.1,4,Wendel Carnley,Elkhart,74.93,197.31,92.99,192.78,483.08,Single-ply,SBD,M
Boys,74.84,5,Kirby Nielsen,Livingston,71.67,185.97,124.74,170.1,480.81,Single-ply,SBD,M
Boys,74.84,6,Case D'Herde,Waco Midway,71.21,163.29,95.25,215.46,474,Single-ply,SBD,M
Boys,74.84,7,Sergio Rios,Mexia,74.39,158.76,92.99,181.44,433.18,Single-ply,SBD,M
Boys,74.84,8,Christian Ward,Palestine,68.31,156.49,90.72,163.29,410.5,Single-ply,SBD,M
Boys,74.84,9,Alex Anderson,Waco Midway,73.94,145.15,74.84,138.35,358.34,Single-ply,SBD,M
Boys,74.84,10,Bryce Newman,Palestine,73.03,120.2,99.79,136.08,356.07,Single-ply,SBD,M
Boys,74.84,DQ,Michael Watts,Palestine,69.85,151.95,,,,Single-ply,SBD,M
Boys,82.1,1,Alex Johnson,Copperas Cove,81.65,238.14,120.2,226.8,585.13,Single-ply,SBD,M
Boys,82.1,2,Brandon Armstrong,Pittsburg,81.47,240.4,127.01,215.46,582.87,Single-ply,SBD,M
Boys,89.81,3,Blayne Elster,Livingston,82.19,240.4,111.13,217.72,569.26,Single-ply,SBD,M
Boys,82.1,DQ,Logan Simpson,Waco Midway,80.74,,,,,Single-ply,SBD,M
Boys,82.1,5,Nicoli Morgan,Palestine Westwood,78.74,208.65,97.52,226.8,532.97,Single-ply,SBD,M
Boys,82.1,6,Tyrail Hart,Tyler Chapel Hill,81.19,217.72,102.06,213.19,532.97,Single-ply,SBD,M
Boys,82.1,7,Rex Rollins,Tyler Chapel Hill,81.65,208.65,102.06,215.46,526.17,Single-ply,SBD,M
Boys,82.1,8,Trey Reagan,Waco Midway,81.37,199.58,131.54,190.51,521.63,Single-ply,SBD,M
Boys,82.1,9,Ray Rosales,Rusk,77.38,190.51,115.67,197.31,503.49,Single-ply,SBD,M
Boys,82.1,10,David Overstreet,Rusk,81.56,181.44,86.18,226.8,494.42,Single-ply,SBD,M
Boys,82.1,11,Hunter Holland,Carthage,81.65,172.37,108.86,201.85,483.08,Single-ply,SBD,M
Boys,82.1,12,Devan Williams,Waco Midway,77.11,165.56,97.52,192.78,455.86,Single-ply,SBD,M
Boys,89.81,1,Michael Adefolarian,Mansfield Timberview,86.64,224.53,127.01,222.26,573.79,Single-ply,SBD,M
Boys,89.81,2,Brandoyn Bell,Tyler Chapel Hill,85.73,222.26,127.01,217.72,566.99,Single-ply,SBD,M
Boys,89.81,DQ,Cody Stidham,Waco Midway,88.45,,,,,Single-ply,SBD,M
Boys,89.81,4,Justin Richter,Waco Midway,87.18,215.46,133.81,204.12,553.38,Single-ply,SBD,M
Boys,89.81,DQ,Robert Harrison,San Augustine,89.36,,,,,Single-ply,SBD,M
Boys,89.81,DQ,Khadafy Davis,San Augustine,88,,,,,Single-ply,SBD,M
Boys,89.81,DQ,Aaryon Robinson,Palestine Westwood,89.36,,,,,Single-ply,SBD,M
Boys,99.79,DQ,Diontre Oliver,Mexia,89.9,201.85,113.4,,,Single-ply,SBD,M
Boys,99.79,1,Ryan Wilkinson,Fairfield,98.88,263.08,158.76,258.55,680.39,Single-ply,SBD,M
Boys,99.79,2,Jacob McNamara,Moody,96.16,258.55,161.03,217.72,637.3,Single-ply,SBD,M
Boys,99.79,3,Bubba Garcia,Pittsburg,96.25,265.35,142.88,195.04,603.28,Single-ply,SBD,M
Boys,99.79,4,Devante Mays,Livingston,95.53,231.33,138.35,222.26,591.94,Single-ply,SBD,M
Boys,99.79,5,Cody Sell,Fairfield,93.89,226.8,127.01,215.46,569.26,Single-ply,SBD,M
Boys,99.79,6,Keiundas Wade,Tyler Chapel Hill,96.16,208.65,129.27,231.33,569.26,Single-ply,SBD,M
Boys,99.79,7,Michael McCune,Carthage,92.53,213.19,111.13,219.99,544.31,Single-ply,SBD,M
Boys,99.79,8,Luke Rachel,Fairfield,96.62,170.1,108.86,181.44,460.4,Single-ply,SBD,M
Boys,99.79,DQ,Ryan McClain,Livingston,90.17,204.12,140.61,,,Single-ply,SBD,M
Boys,109.77,1,Cory Black,Fairfield,108.41,260.82,163.29,231.33,655.44,Single-ply,SBD,M
Boys,109.77,2,Michael Mooneyham,Fairfield,101.6,258.55,156.49,238.14,653.17,Single-ply,SBD,M
Boys,109.77,3,Dillen Kilpatrick,Fairfield,103.42,249.48,158.76,204.12,612.35,Single-ply,SBD,M
Boys,109.77,DQ,Ryan Miller #6,Copperas Cove,105.69,,,,,Single-ply,SBD,M
Boys,109.77,5,Tyler Elrod,Pittsburg,104.78,242.67,142.88,185.97,571.53,Single-ply,SBD,M
Boys,124.74,1,Scotty Shartle,Meridian,118.84,249.48,167.83,244.94,662.24,Single-ply,SBD,M
Boys,124.74,2,Pedro Valdez,Tyler Chapel Hill,111.58,244.94,142.88,215.46,603.28,Single-ply,SBD,M
Boys,124.74,3,Dj Parks,San Augustine,123.38,224.53,131.54,204.12,560.19,Single-ply,SBD,M
Boys,124.74,DQ,Sammy Calhoun,Palestine,112.49,294.84,176.9,,,Single-ply,SBD,M
Boys,124.74,DQ,William Anderson,Palestine,113.85,226.8,127.01,,,Single-ply,SBD,M
Boys,124.74,DQ,Jeremy Miller,Mansfield Timberview,122.92,240.4,151.95,,,Single-ply,SBD,M
Boys,124.74+,1,Jaime Gomez,Mexia,149.69,317.51,142.88,242.67,703.07,Single-ply,SBD,M
Boys,124.74+,2,Charlie Perry,Palestine,125.01,238.14,161.03,249.48,648.64,Single-ply,SBD,M
Boys,124.74+,3,Zach Pratt,Fairfield,133.36,258.55,149.69,213.19,621.42,Single-ply,SBD,M
Boys,124.74+,4,Brenden Wolf,Elkhart,132.45,226.8,115.67,181.44,523.9,Single-ply,SBD,M
Boys,124.74+,DQ,Dekarrian Wyatt,Livingston,132.45,258.55,147.42,,,Single-ply,SBD,M
Boys,124.74+,DQ,Jermaine Black,Palestine,135.17,285.76,,,,Single-ply,SBD,M
