Division,WeightClassKg,Place,Name,Team,BodyweightKg,Best3SquatKg,Best3BenchKg,Best3DeadliftKg,TotalKg,Equipment,Event,Sex
Boys,51.71,1,Jose Sanchez,Gilmer,51.71,163.29,97.52,167.83,428.64,Single-ply,SBD,M
Boys,51.71,2,Alan Landazuri,Quinlan Ford,51.26,122.47,74.84,129.27,326.59,Single-ply,SBD,M
Boys,51.71,3,Steve Cantu,Brownsboro,51.26,113.4,74.84,117.93,306.17,Single-ply,SBD,M
Boys,51.71,4,Freddy Ponce,Gilmer,51.71,88.45,61.23,120.2,269.89,Single-ply,SBD,M
Boys,51.71,5,Jacob Semler,Sulphur Springs,51.26,102.06,49.9,113.4,265.35,Single-ply,SBD,M
Boys,51.71,6,Martinez Padron,Quinlan Ford,50.8,95.25,45.36,108.86,249.48,Single-ply,SBD,M
Boys,51.71,7,Vandon Lassiter,Paris North Lamar,49.9,92.99,58.97,92.99,244.94,Single-ply,SBD,M
Boys,51.71,8,Christopher Ebert,Quinlan Ford,47.17,79.38,45.36,90.72,215.46,Single-ply,SBD,M
Boys,51.71,9,Avery Whitlow,Atlanta,45.36,74.84,40.82,83.91,199.58,Single-ply,SBD,M
Boys,55.79,1,Jesus Barrientos,Brownsboro,55.34,156.49,97.52,165.56,419.57,Single-ply,SBD,M
Boys,55.79,2,Bryan Rodriguez,Greenville,53.98,163.29,79.38,147.42,390.09,Single-ply,SBD,M
Boys,55.79,3,Xavier Edwards,Texarkana Liberty-Eylau,55.79,158.76,95.25,131.54,385.55,Single-ply,SBD,M
Boys,55.79,4,Dayce Drennon,Winnsboro,52.62,142.88,83.91,138.35,365.14,Single-ply,SBD,M
Boys,55.79,5,Zachary Doyle,Royse City,53.98,154.22,74.84,133.81,362.87,Single-ply,SBD,M
Boys,55.79,6,Jaden Brown,Paris North Lamar,54.43,120.2,74.84,158.76,353.8,Single-ply,SBD,M
Boys,55.79,7,Oscar Yanez,Sulphur Springs,54.43,120.2,63.5,127.01,310.71,Single-ply,SBD,M
Boys,55.79,8,Luke Elrod,Paris North Lamar,53.52,106.59,61.23,129.27,297.1,Single-ply,SBD,M
Boys,55.79,9,Gavin Rhea,Simms Bowie,54.43,106.59,58.97,120.2,285.76,Single-ply,SBD,M
Boys,55.79,10,Logan Langley,Winnsboro,55.34,92.99,61.23,115.67,269.89,Single-ply,SBD,M
Boys,55.79,11,Lane Davis,Mount Pleasant Chapel Hill,54.88,79.38,47.63,113.4,240.4,Single-ply,SBD,M
Boys,59.87,1,Osbaldo Chavez,Gilmer Union Hill,59.42,129.27,81.65,147.42,358.34,Single-ply,SBD,M
Boys,59.87,2,Jabier Bocanegra,Gilmer,59.42,136.08,79.38,142.88,358.34,Single-ply,SBD,M
Boys,59.87,3,Cody Maxie,Atlanta,59.87,133.81,74.84,136.08,344.73,Single-ply,SBD,M
Boys,59.87,4,Darwin Acosta,Quinlan Ford,58.97,122.47,70.31,138.35,331.12,Single-ply,SBD,M
Boys,67.13,1,Garrett Davis,Quinlan Ford,66.68,204.12,120.2,190.51,514.83,Single-ply,SBD,M
Boys,67.13,2,Colton Danna,Pattonville Prairiland,66.68,163.29,124.74,192.78,480.81,Single-ply,SBD,M
Boys,67.13,3,Dalton Johnson,Atlanta,64.86,183.7,95.25,174.63,453.59,Single-ply,SBD,M
Boys,67.13,4,Jesse Carrillo,Sulphur Springs,65.77,165.56,113.4,165.56,444.52,Single-ply,SBD,M
Boys,67.13,5,Heyden Justice,Paris North Lamar,66.22,163.29,102.06,165.56,430.91,Single-ply,SBD,M
Boys,67.13,6,Alejandro Vasquez,Greenville,63.05,183.7,83.91,158.76,426.38,Single-ply,SBD,M
Boys,67.13,7,Caleb Ashley,Paris Chisum,63.05,142.88,104.33,163.29,410.5,Single-ply,SBD,M
Boys,67.13,8,Lukas Enloe,Gilmer,67.13,158.76,83.91,163.29,405.97,Single-ply,SBD,M
Boys,67.13,9,Jose Acosta,Quinlan Ford,67.13,147.42,92.99,154.22,394.63,Single-ply,SBD,M
Boys,67.13,10,Kyle Stewart,Greenville,62.6,142.88,92.99,149.69,385.55,Single-ply,SBD,M
Boys,67.13,11,Kole Barrentine,Pattonville Prairiland,63.05,131.54,79.38,174.63,385.55,Single-ply,SBD,M
Boys,67.13,12,Kollin Moss,Royse City,64.86,142.88,83.91,156.49,383.29,Single-ply,SBD,M
Boys,67.13,13,Haydan Keller,Sulphur Springs,63.73,145.15,83.91,142.88,371.95,Single-ply,SBD,M
Boys,67.13,14,Justyn Simmons,Honey Grove,60.33,136.08,77.11,149.69,362.87,Single-ply,SBD,M
Boys,67.13,15,Juan Munoz,Quinlan Ford,64.86,136.08,74.84,151.95,362.87,Single-ply,SBD,M
Boys,67.13,16,Gavin Watts,Pattonville Prairiland,65.77,142.88,63.5,149.69,356.07,Single-ply,SBD,M
Boys,67.13,17,Abel Moreno,Pattonville Prairiland,63.05,136.08,68.04,145.15,349.27,Single-ply,SBD,M
Boys,67.13,18,Ethan Mayes,Mount Pleasant Chapel Hill,67.13,124.74,65.77,149.69,340.19,Single-ply,SBD,M
Boys,67.13,19,Gabe Brantley,Simms Bowie,63.05,111.13,83.91,140.61,335.66,Single-ply,SBD,M
Boys,67.13,20,Austin Roberts,Simms Bowie,63.96,122.47,79.38,133.81,335.66,Single-ply,SBD,M
Boys,67.13,21,Matthew Wisdom,Quinlan Ford,67.13,122.47,70.31,138.35,331.12,Single-ply,SBD,M
Boys,67.13,22,Sam Wilks,Sulphur Springs,62.14,136.08,56.7,127.01,319.78,Single-ply,SBD,M
Boys,67.13,23,Austin Booker,Honey Grove,60.78,106.59,72.57,136.08,315.25,Single-ply,SBD,M
Boys,67.13,24,Blake Holbrook,Quinlan Ford,60.78,124.74,56.7,127.01,308.44,Single-ply,SBD,M
Boys,67.13,25,Marvin Norris,Paris Chisum,66.22,120.2,68.04,120.2,308.44,Single-ply,SBD,M
Boys,67.13,26,Lakeceion Richardson,Atlanta,61.23,102.06,74.84,120.2,297.1,Single-ply,SBD,M
Boys,67.13,27,McKaven Overstreet-Hurd,Clarksville,64.41,79.38,47.63,106.59,233.6,Single-ply,SBD,M
Boys,67.13,DQ,Morgan Bacurn,Paris Chisum,63.5,,,,,Single-ply,SBD,M
Boys,67.13,DQ,Jacoby Brown,Royse City,67.13,,,,,Single-ply,SBD,M
Boys,67.13,DQ,Gage Dollins,Paris Chisum,65.32,217.72,,,,Single-ply,SBD,M
Boys,67.13,DQ,Kanon Tongson,Paris Chisum,65.77,131.54,,,,Single-ply,SBD,M
Boys,67.13,DQ,Camden Fuller,Sulphur Springs,67.13,136.08,,,,Single-ply,SBD,M
Boys,74.84,1,Jacob Nash,Atlanta,74.39,233.6,131.54,231.33,596.47,Single-ply,SBD,M
Boys,74.84,2,Sean Collins,Gilmer,73.48,226.8,113.4,199.58,539.77,Single-ply,SBD,M
Boys,74.84,3,Marcos Molina,Brownsboro,73.94,226.8,115.67,183.7,526.17,Single-ply,SBD,M
Boys,74.84,4,Zavion Jackson,Greenville,73.94,219.99,102.06,183.7,505.76,Single-ply,SBD,M
Boys,74.84,5,Miles Denson-Morian,Greenville,68.49,192.78,117.93,183.7,494.42,Single-ply,SBD,M
Boys,74.84,6,Christian Garcia,Emory Rains,69.85,192.78,97.52,199.58,489.88,Single-ply,SBD,M
Boys,74.84,7,Jesus Mendez,Emory Rains,73.48,179.17,106.59,183.7,469.47,Single-ply,SBD,M
Boys,74.84,8,Bryce Evans,Paris North Lamar,74.39,174.63,102.06,176.9,453.59,Single-ply,SBD,M
Boys,74.84,9,Dustin Newman,Mount Pleasant Chapel Hill,74.84,179.17,83.91,188.24,451.32,Single-ply,SBD,M
Boys,74.84,10,Jerome Martin,Quinlan Ford,73.48,165.56,77.11,181.44,424.11,Single-ply,SBD,M
Boys,74.84,11,Devin Walters,Mount Pleasant Chapel Hill,74.84,156.49,97.52,165.56,419.57,Single-ply,SBD,M
Boys,74.84,12,Alex Cuellar,Brownsboro,74.39,158.76,83.91,170.1,412.77,Single-ply,SBD,M
Boys,74.84,13,Tj Templeton,Texarkana Liberty-Eylau,68.95,145.15,102.06,163.29,410.5,Single-ply,SBD,M
Boys,74.84,14,Aaron Carrillo,Quinlan Ford,70.76,154.22,92.99,158.76,405.97,Single-ply,SBD,M
Boys,74.84,15,Kaleb Stephenson,Brownsboro,71.21,154.22,81.65,170.1,405.97,Single-ply,SBD,M
Boys,74.84,16,Johnny Pope,Brownsboro,69.4,172.37,86.18,145.15,403.7,Single-ply,SBD,M
Boys,74.84,17,Chase Haney,Sulphur Springs,74.84,142.88,74.84,181.44,399.16,Single-ply,SBD,M
Boys,74.84,18,Deanthony Burt,Atlanta,67.59,142.88,106.59,145.15,394.63,Single-ply,SBD,M
Boys,74.84,19,Zachariah Jefferson,Atlanta,71.21,145.15,90.72,154.22,390.09,Single-ply,SBD,M
Boys,74.84,20,Wyatt Smithson,Sulphur Springs,74.84,158.76,74.84,147.42,381.02,Single-ply,SBD,M
Boys,74.84,21,Joseph MCcarley,Pattonville Prairiland,67.59,131.54,90.72,149.69,371.95,Single-ply,SBD,M
Boys,74.84,22,Zach Jones,Brownsboro,71.21,136.08,68.04,165.56,369.68,Single-ply,SBD,M
Boys,74.84,23,Kaleb Hernandez,Brownsboro,73.03,136.08,70.31,136.08,342.46,Single-ply,SBD,M
Boys,74.84,24,Trentin Larson,Honey Grove,70.31,108.86,70.31,149.69,328.85,Single-ply,SBD,M
Boys,74.84,DQ,Kristian Davis,Emory Rains,74.84,145.15,,,,Single-ply,SBD,M
Boys,74.84,DQ,Blade Green,Simms Bowie,73.03,115.67,,,,Single-ply,SBD,M
Boys,74.84,DQ,Zeb Garrett,Paris North Lamar,69.85,156.49,,182.34,,Single-ply,SBD,M
Boys,82.1,1,Bobby Posey,Brownsboro,80.29,242.67,154.22,222.26,619.15,Single-ply,SBD,M
Boys,82.1,2,Clayton Mosley,Atlanta,81.65,215.46,145.15,229.06,589.67,Single-ply,SBD,M
Boys,82.1,3,Carson Bridges,Sulphur Springs,78.93,215.46,117.93,249.48,582.87,Single-ply,SBD,M
Boys,82.1,4,George Greenway,Sulphur Springs,81.19,210.92,124.74,233.6,569.26,Single-ply,SBD,M
Boys,82.1,5,Quintarius Raibon,Brownsboro,82.1,226.8,120.2,215.46,562.45,Single-ply,SBD,M
Boys,82.1,6,Caden Davis,Sulphur Springs,82.1,190.51,124.74,195.04,510.29,Single-ply,SBD,M
Boys,82.1,7,Carl Thurmond,Emory Rains,78.93,183.7,92.99,226.8,503.49,Single-ply,SBD,M
Boys,82.1,8,Griffin Merillat,Royse City,81.65,192.78,111.13,199.58,503.49,Single-ply,SBD,M
Boys,82.1,9,Maravieon Riles,Texarkana Liberty-Eylau,82.1,183.7,124.74,190.51,498.95,Single-ply,SBD,M
Boys,82.1,10,Cameron Cox,Gilmer,76.2,197.31,108.86,172.37,478.54,Single-ply,SBD,M
Boys,82.1,11,Colton Gable,Emory Rains,79.38,199.58,104.33,163.29,467.2,Single-ply,SBD,M
Boys,82.1,12,Donavan Throneberry,Emory Rains,80.74,170.1,102.06,158.76,430.91,Single-ply,SBD,M
Boys,82.1,13,Dekorian Parker,Atlanta,77.56,142.88,115.67,158.76,417.3,Single-ply,SBD,M
Boys,82.1,14,Ryan Carrillo,Sulphur Springs,77.56,170.1,104.33,136.08,410.5,Single-ply,SBD,M
Boys,82.1,15,Jeremiah Jefferson,Atlanta,82.1,163.29,79.38,163.29,405.97,Single-ply,SBD,M
Boys,82.1,16,Jake Walker,Gilmer,81.65,154.22,97.52,149.69,401.43,Single-ply,SBD,M
Boys,82.1,17,Roberto Olvera,Brownsboro,82.1,142.88,70.31,183.7,396.89,Single-ply,SBD,M
Boys,82.1,18,Hayden Thomas,Pattonville Prairiland,79.83,140.61,92.99,154.22,387.82,Single-ply,SBD,M
Boys,82.1,19,Pablo Peralta,Pattonville Prairiland,82.1,142.88,81.65,163.29,387.82,Single-ply,SBD,M
Boys,82.1,20,David Walters,Mount Pleasant Chapel Hill,77.56,149.69,68.04,165.56,383.29,Single-ply,SBD,M
Boys,82.1,21,Granger Ervin,Pattonville Prairiland,78.47,140.61,72.57,165.56,378.75,Single-ply,SBD,M
Boys,82.1,22,Aidan Hicks,Pattonville Prairiland,75.3,147.42,79.38,149.69,376.48,Single-ply,SBD,M
Boys,82.1,23,Jacob Isbell,Mount Pleasant Chapel Hill,79.38,122.47,72.57,151.95,347,Single-ply,SBD,M
Boys,82.1,24,Kaden Sutton,Simms Bowie,79.83,106.59,54.43,127.01,288.03,Single-ply,SBD,M
Boys,82.1,DQ,Lleyton Green-Reed,Texarkana Liberty-Eylau,76.66,170.1,,142.88,,Single-ply,SBD,M
Boys,89.81,1,Tucker Momon,Greenville,89.36,244.94,124.74,238.14,607.81,Single-ply,SBD,M
Boys,89.81,2,Lester Turner,Greenville,84.37,233.6,111.13,233.6,578.33,Single-ply,SBD,M
Boys,89.81,3,Aidan Murrey,Royse City,86.18,208.65,122.47,183.7,514.83,Single-ply,SBD,M
Boys,89.81,4,Jorge López,Quinlan Ford,88.9,179.17,111.13,183.7,474,Single-ply,SBD,M
Boys,89.81,5,Cameron Kaufert,Sulphur Springs,88.45,183.7,106.59,181.44,471.74,Single-ply,SBD,M
Boys,89.81,6,Lakken Stuart,Texarkana Liberty-Eylau,87.54,154.22,102.06,190.51,446.79,Single-ply,SBD,M
Boys,89.81,7,Kaiden Roden,Quinlan Ford,85.28,161.03,104.33,158.76,424.11,Single-ply,SBD,M
Boys,89.81,8,Hunter Grubbs,Brownsboro,87.54,167.83,72.57,181.44,421.84,Single-ply,SBD,M
Boys,89.81,9,Jerrett McCollom,Omaha Pewitt,88,147.42,92.99,172.37,412.77,Single-ply,SBD,M
Boys,89.81,10,Clay Fant,Atlanta,87.54,147.42,102.06,158.76,408.23,Single-ply,SBD,M
Boys,89.81,11,Buford Cornett,Honey Grove,88,124.74,88.45,165.56,378.75,Single-ply,SBD,M
Boys,89.81,12,Brennan Gaston,Atlanta,87.54,142.88,83.91,142.88,369.68,Single-ply,SBD,M
Boys,89.81,13,Andrew Fowler,Clarksville,83.91,145.15,86.18,124.74,356.07,Single-ply,SBD,M
Boys,89.81,14,James Smith,Simms Bowie,85.28,111.13,65.77,151.95,328.85,Single-ply,SBD,M
Boys,89.81,15,Remington Brown,Paris North Lamar,85.73,102.06,61.23,145.15,308.44,Single-ply,SBD,M
Boys,89.81,DQ,Thatcher Davis,Royse City,83.91,204.12,,,,Single-ply,SBD,M
Boys,89.81,DQ,Adrian Vital Jr,Royse City,82.55,,,,,Single-ply,SBD,M
Boys,99.79,1,Ty Watts,Simms Bowie,98.43,249.48,145.15,231.33,625.96,Single-ply,SBD,M
Boys,99.79,2,Simon Rico,Greenville,98.88,249.48,138.35,215.46,603.28,Single-ply,SBD,M
Boys,99.79,3,Trey Adams,Atlanta,97.07,226.8,145.15,204.12,576.06,Single-ply,SBD,M
Boys,99.79,4,Noah Sissom,Brownsboro,99.34,204.12,122.47,238.14,564.72,Single-ply,SBD,M
Boys,99.79,5,Daniel Bueno,Greenville,99.79,231.33,113.4,210.92,555.65,Single-ply,SBD,M
Boys,99.79,6,Garrett Smith,Royse City,97.52,215.46,129.27,188.24,532.97,Single-ply,SBD,M
Boys,99.79,7,Carter Renfro,Paris North Lamar,92.08,183.7,111.13,197.31,492.15,Single-ply,SBD,M
Boys,99.79,8,Ayden Price,Honey Grove,98.88,181.44,131.54,174.63,487.61,Single-ply,SBD,M
Boys,99.79,9,Alexander Harder,Canton,94.35,181.44,111.13,181.44,474,Single-ply,SBD,M
Boys,99.79,10,Casey Breece,Honey Grove,94.35,185.97,102.06,183.7,471.74,Single-ply,SBD,M
Boys,99.79,11,Jamar Person,Honey Grove,92.99,167.83,102.06,199.58,469.47,Single-ply,SBD,M
Boys,99.79,12,Tyrell Hobbs,Clarksville,92.99,170.1,113.4,181.44,464.93,Single-ply,SBD,M
Boys,99.79,13,Trustin Jones,Texarkana Liberty-Eylau,97.98,179.17,97.52,181.44,458.13,Single-ply,SBD,M
Boys,99.79,14,Bradley Futch,Sulphur Springs,96.62,167.83,106.59,172.37,446.79,Single-ply,SBD,M
Boys,99.79,15,Chad Maynard,Sulphur Springs,93.89,170.1,99.79,170.1,439.98,Single-ply,SBD,M
Boys,99.79,16,Roman Gonzales,Quinlan Ford,96.16,174.63,92.99,158.76,426.38,Single-ply,SBD,M
Boys,99.79,17,Brandon Obenoskey,Simms Bowie,99.34,149.69,86.18,174.63,410.5,Single-ply,SBD,M
Boys,99.79,18,Ty Blizzard,Atlanta,94.35,142.88,113.4,151.95,408.23,Single-ply,SBD,M
Boys,99.79,19,James Thurston,Atlanta,93.44,147.42,90.72,151.95,390.09,Single-ply,SBD,M
Boys,99.79,20,Ethan Lum,Simms Bowie,97.52,133.81,97.52,149.69,381.02,Single-ply,SBD,M
Boys,99.79,21,Nathan Bush,Texarkana Liberty-Eylau,95.71,154.22,74.84,149.69,378.75,Single-ply,SBD,M
Boys,99.79,22,Maverick Brown,Paris North Lamar,91.17,129.27,81.65,147.42,358.34,Single-ply,SBD,M
Boys,99.79,23,Payton Branan,Paris North Lamar,91.17,133.81,92.99,,226.8,Single-ply,SB,M
Boys,99.79,DQ,Chandler Leo,Sulphur Springs,97.52,170.1,,,,Single-ply,SBD,M
Boys,99.79,DQ,Jordan Montalvo,Emory Rains,99.79,,,,,Single-ply,SBD,M
Boys,109.77,1,Antonio Cortez,Greenville,104.33,244.94,156.49,226.8,628.23,Single-ply,SBD,M
Boys,109.77,2,Oscar Osorio,Greenville,108.41,235.87,133.81,213.19,582.87,Single-ply,SBD,M
Boys,109.77,3,Cade Fant,Atlanta,102.51,219.99,136.08,215.46,571.53,Single-ply,SBD,M
Boys,109.77,4,Bladon Collom,Gilmer,108.41,197.31,113.4,215.46,526.17,Single-ply,SBD,M
Boys,109.77,5,Ian Lail,Mount Pleasant Chapel Hill,108.41,199.58,111.13,210.92,521.63,Single-ply,SBD,M
Boys,109.77,6,Dalton Barker,Emory Rains,107.95,183.7,113.4,190.51,487.61,Single-ply,SBD,M
Boys,109.77,7,Di'Mondre Harper,Omaha Pewitt,105.23,183.7,104.33,183.7,471.74,Single-ply,SBD,M
Boys,109.77,8,Cameron Norwood,Honey Grove,100.7,172.37,124.74,170.1,467.2,Single-ply,SBD,M
Boys,109.77,9,Aiden Rose,Royse City,100.7,174.63,70.31,181.44,426.38,Single-ply,SBD,M
Boys,109.77,10,Brandon James,Quinlan Ford,107.95,174.63,83.91,165.56,424.11,Single-ply,SBD,M
Boys,109.77,11,Jarot Ritter,Gilmer,100.24,170.1,92.99,156.49,419.57,Single-ply,SBD,M
Boys,109.77,12,Chase Dillard,Paris Chisum,105.23,129.27,90.72,170.1,390.09,Single-ply,SBD,M
Boys,109.77,13,Wesley Estes,Paris Chisum,102.06,129.27,90.72,147.42,367.41,Single-ply,SBD,M
Boys,109.77,14,Virgle Scales,Paris Chisum,101.15,129.27,83.91,136.08,349.27,Single-ply,SBD,M
Boys,109.77,15,Ian Carrion,Royse City,107.95,113.4,79.38,131.54,324.32,Single-ply,SBD,M
Boys,109.77,DQ,Braden Tittle,Royse City,103.87,,,,,Single-ply,SBD,M
Boys,124.74,1,Jamie Cortez,Royse City,119.75,317.51,151.95,272.16,741.62,Single-ply,SBD,M
Boys,124.74,2,Jimmy Orozco,Brownsboro,122.02,260.82,183.7,226.8,671.32,Single-ply,SBD,M
Boys,124.74,3,Tyrell King,Atlanta,117.03,240.4,151.95,235.87,628.23,Single-ply,SBD,M
Boys,124.74,4,Hunter Carter,Quinlan Ford,119.29,226.8,149.69,226.8,603.28,Single-ply,SBD,M
Boys,124.74,5,Wyatt Green,Brownsboro,114.31,197.31,115.67,217.72,530.7,Single-ply,SBD,M
Boys,124.74,6,Whitt Rogers,Simms Bowie,120.66,235.87,99.79,192.78,528.44,Single-ply,SBD,M
Boys,124.74,7,Connor Green,Texarkana Liberty-Eylau,122.92,197.31,127.01,197.31,521.63,Single-ply,SBD,M
Boys,124.74,8,Turner Hilburn,Royse City,117.93,181.44,120.2,204.12,505.76,Single-ply,SBD,M
Boys,124.74,9,Ian Stewart,Simms Bowie,121.56,190.51,108.86,192.78,492.15,Single-ply,SBD,M
Boys,124.74,10,Montrell Bush,Gilmer,121.11,165.56,117.93,197.31,480.81,Single-ply,SBD,M
Boys,124.74,11,Josh Gamble,Texarkana Liberty-Eylau,119.75,165.56,142.88,170.1,478.54,Single-ply,SBD,M
Boys,124.74,12,Devin Burton,Paris North Lamar,123.83,183.7,102.06,185.97,471.74,Single-ply,SBD,M
Boys,124.74,13,David Ardinger,Texarkana Liberty-Eylau,124.28,172.37,97.52,167.83,437.72,Single-ply,SBD,M
Boys,124.74,14,Zagan Hawkins,Paris Chisum,124.74,147.42,102.06,172.37,421.84,Single-ply,SBD,M
Boys,124.74,15,Deandre Mitchell,Atlanta,117.93,131.54,102.06,136.08,369.68,Single-ply,SBD,M
Boys,124.74,16,Joshua Barton,Clarksville,114.31,117.93,83.91,158.76,360.61,Single-ply,SBD,M
Boys,124.74,17,Braeden Wilkins,Paris North Lamar,118.39,129.27,90.72,138.35,358.34,Single-ply,SBD,M
Boys,124.74+,1,Jaden Webb,Royse City,130.18,272.16,154.22,238.14,664.51,Single-ply,SBD,M
Boys,124.74+,2,Lucas Stephenson,Simms Bowie,139.25,274.42,145.15,231.33,650.91,Single-ply,SBD,M
Boys,124.74+,3,Blake Olivares,Gilmer,135.62,242.67,158.76,238.14,639.57,Single-ply,SBD,M
Boys,124.74+,4,John McCurdy,Winnsboro,130.18,233.6,172.37,210.92,616.89,Single-ply,SBD,M
Boys,124.74+,5,David Williams,Omaha Pewitt,151.95,217.72,115.67,204.12,537.51,Single-ply,SBD,M
Boys,124.74+,6,Austin Terry,Gilmer,137.44,204.12,124.74,204.12,532.97,Single-ply,SBD,M
Boys,124.74+,7,Alfredo Olavide,Sulphur Springs,142.88,215.46,90.72,226.8,532.97,Single-ply,SBD,M
Boys,124.74+,8,Demarcus Hill,Omaha Pewitt,163.29,197.31,117.93,215.46,530.7,Single-ply,SBD,M
Boys,124.74+,9,Rylie Miner,Paris North Lamar,136.53,174.63,111.13,210.92,496.68,Single-ply,SBD,M
Boys,124.74+,10,Cody Saffel,Canton,130.63,192.78,90.72,181.44,464.93,Single-ply,SBD,M
Boys,124.74+,11,Luke Hohenberger,Paris North Lamar,127.91,174.63,90.72,156.49,421.84,Single-ply,SBD,M
Boys,124.74+,DQ,Garrick Felsberg,Paris North Lamar,133.36,,97.52,124.74,,Single-ply,SBD,M
