Division,WeightClassKg,Place,Name,Team,BodyweightKg,Best3SquatKg,Best3BenchKg,Best3DeadliftKg,TotalKg,Equipment,Event,Sex
Boys,51.71,1,Gabriel Hancock,Bovina,51.53,106.59,74.84,127.01,308.44,Single-ply,SBD,M
Boys,51.71,2,Erli Rueda,Bovina,50.71,99.79,49.9,129.27,278.96,Single-ply,SBD,M
Boys,51.71,3,Arturo Aguillon,Bovina,49.17,86.18,58.97,111.13,256.28,Single-ply,SBD,M
Boys,51.71,4,Matthiew Cordova,Amarillo Highland Park,49.26,97.52,58.97,90.72,247.21,Single-ply,SBD,M
Boys,51.71,5,Payton Riddle,Bushland,47.63,79.38,49.9,88.45,217.72,Single-ply,SBD,M
Boys,51.71,6,Fernando Corpus,Amarillo Highland Park,43.09,79.38,38.56,92.99,210.92,Single-ply,SBD,M
Boys,51.71,7,Christian Botello,Dumas,51.44,61.23,52.16,95.25,208.65,Single-ply,SBD,M
Boys,51.71,NS,Tre'von Bates,Dumas,,,,,,Single-ply,SBD,M
Boys,55.79,1,Andy Duarte,Bovina,55.52,140.61,81.65,154.22,376.48,Single-ply,SBD,M
Boys,55.79,2,Oscar Trejo,Sunray,54.88,147.42,61.23,149.69,358.34,Single-ply,SBD,M
Boys,55.79,3,Trent Morgan,Amarillo Highland Park,55.7,111.13,63.5,127.01,301.64,Single-ply,SBD,M
Boys,55.79,4,Juan Pinela,Bovina,54.16,111.13,61.23,122.47,294.84,Single-ply,SBD,M
Boys,55.79,5,Fabian Bencomo,Dalhart,54.43,104.33,52.16,113.4,269.89,Single-ply,SBD,M
Boys,55.79,NS,Tyler Munoz,Vega,,,,,,Single-ply,SBD,M
Boys,55.79,DQ,Jason Dowd,Amarillo Highland Park,53.16,63.5,,,,Single-ply,SBD,M
Boys,59.87,1,Corey Barker,Clarendon,59.15,145.15,95.25,167.83,408.23,Single-ply,SBD,M
Boys,59.87,2,Sean Felker,Borger,59.69,142.88,90.72,151.95,385.55,Single-ply,SBD,M
Boys,59.87,3,Jorge Luna,Bovina,59.42,136.08,90.72,142.88,369.68,Single-ply,SBD,M
Boys,59.87,4,Julian Gaspar,Sunray,57.97,142.88,70.31,154.22,367.41,Single-ply,SBD,M
Boys,59.87,5,Ramiro Nicolas,Bovina,59.69,129.27,79.38,145.15,353.8,Single-ply,SBD,M
Boys,59.87,6,Gerardo Ortiz,Bovina,58.15,129.27,70.31,151.95,351.53,Single-ply,SBD,M
Boys,59.87,7,Joey Rios,Dumas,58.97,129.27,65.77,154.22,349.27,Single-ply,SBD,M
Boys,59.87,8,Nolan Willingham,Canyon Randall,59.87,122.47,77.11,149.69,349.27,Single-ply,SBD,M
Boys,67.13,9,Andrew Feese,Dumas,60.06,92.99,79.38,154.22,326.59,Single-ply,SBD,M
Boys,59.87,10,Omero Bonilla,Sunray,56.97,129.27,72.57,120.2,322.05,Single-ply,SBD,M
Boys,59.87,11,Bryce Prescott,Bushland,58.6,104.33,74.84,142.88,322.05,Single-ply,SBD,M
Boys,59.87,12,Oscar Jasso,Bovina,59.24,102.06,58.97,136.08,297.1,Single-ply,SBD,M
Boys,59.87,13,Piere Valencia,Dalhart,58.33,106.59,61.23,124.74,292.57,Single-ply,SBD,M
Boys,59.87,14,Grayson James,Dalhart,57.74,102.06,49.9,102.06,254.01,Single-ply,SBD,M
Boys,59.87,DQ,Ismael Garcia,Memphis,59.87,,,,,Single-ply,SBD,M
Boys,67.13,1,Ernesto Muro,Perryton,63.96,149.69,95.25,185.97,430.91,Single-ply,SBD,M
Boys,67.13,2,Dominic Baca,Dalhart,63.68,151.95,90.72,179.17,421.84,Single-ply,SBD,M
Boys,67.13,3,Kyle Stroud,Stinnett West Texas,65.14,154.22,83.91,165.56,403.7,Single-ply,SBD,M
Boys,67.13,4,Franky Medina,Dalhart,65.32,158.76,86.18,149.69,394.63,Single-ply,SBD,M
Boys,67.13,5,Julian Navarez,Dumas,61.23,129.27,95.25,163.29,387.82,Single-ply,SBD,M
Boys,67.13,6,Bobby Clift,Canyon Randall,62.14,154.22,90.72,142.88,387.82,Single-ply,SBD,M
Boys,67.13,7,Gilbert Rocha,Canyon Randall,65.68,138.35,104.33,140.61,383.29,Single-ply,SBD,M
Boys,67.13,8,Guillermo Davila,Dalhart,66.45,149.69,72.57,158.76,381.02,Single-ply,SBD,M
Boys,67.13,9,Andres Baskins,Dumas,65.68,124.74,83.91,170.1,378.75,Single-ply,SBD,M
Boys,67.13,10,Ryan Bybee,Dumas,61.6,129.27,74.84,158.76,362.87,Single-ply,SBD,M
Boys,67.13,11,Tyler Gano,Canyon Randall,66.59,138.35,77.11,147.42,362.87,Single-ply,SBD,M
Boys,67.13,12,Jacob Tobias,Canyon Randall,65.86,124.74,90.72,142.88,358.34,Single-ply,SBD,M
Boys,67.13,13,Miguel Herrera,Sunray,62.6,133.81,74.84,142.88,351.53,Single-ply,SBD,M
Boys,67.13,14,Brady Boyd,Bushland,65.95,127.01,74.84,138.35,340.19,Single-ply,SBD,M
Boys,67.13,15,Ernesto Uribe,Perryton,65.23,102.06,83.91,140.61,326.59,Single-ply,SBD,M
Boys,67.13,16,Marq Burns,Amarillo Highland Park,67.13,113.4,68.04,140.61,322.05,Single-ply,SBD,M
Boys,67.13,17,Miguel Dominguez,Bovina,64.5,102.06,61.23,136.08,299.37,Single-ply,SBD,M
Boys,67.13,18,John Hernandez,Bushland,60.6,106.59,65.77,115.67,288.03,Single-ply,SBD,M
Boys,67.13,NS,Hunter Tollison,Borger,,,,,,Single-ply,SBD,M
Boys,67.13,NS,Andres Prieto,Dumas,,,,,,Single-ply,SBD,M
Boys,67.13,NS,Cameron Barnes,Perryton,,,,,,Single-ply,SBD,M
Boys,67.13,NS,Luis Morales,Vega,,,,,,Single-ply,SBD,M
Boys,67.13,DQ,Ruiz Adrian,Dalhart,66.68,158.76,,,,Single-ply,SBD,M
Boys,74.84,1,Tony Dickey,Dumas,73.39,151.95,113.4,204.12,469.47,Single-ply,SBD,M
Boys,74.84,2,Jeremy Johnson,Clarendon,68.95,158.76,99.79,181.44,439.98,Single-ply,SBD,M
Boys,74.84,3,Brendan Harris,Amarillo Highland Park,68.76,170.1,83.91,181.44,435.45,Single-ply,SBD,M
Boys,82.1,4,Ceaser Aguirre,Amarillo Highland Park,75.02,181.44,90.72,163.29,435.45,Single-ply,SBD,M
Boys,74.84,5,Chris Taylor,Amarillo Highland Park,70.4,158.76,86.18,172.37,417.3,Single-ply,SBD,M
Boys,74.84,6,Domingo Macias,Dumas,72.94,136.08,97.52,165.56,399.16,Single-ply,SBD,M
Boys,74.84,7,Phong Nguyen,Amarillo Highland Park,70.31,154.22,72.57,165.56,392.36,Single-ply,SBD,M
Boys,74.84,8,Jorge Arroyo,Sunray,74.3,154.22,79.38,147.42,381.02,Single-ply,SBD,M
Boys,74.84,9,Abdiel Ramos,Bovina,73.12,140.61,88.45,149.69,378.75,Single-ply,SBD,M
Boys,74.84,10,Heriberto Romero,Perryton,68.86,127.01,88.45,154.22,369.68,Single-ply,SBD,M
Boys,74.84,11,Anthony Urias,Dalhart,70.31,102.06,79.38,142.88,324.32,Single-ply,SBD,M
Boys,74.84,12,Collin Galloway,Borger,69.49,113.4,70.31,131.54,315.25,Single-ply,SBD,M
Boys,74.84,13,Aron Morales,Perryton,73.03,92.99,74.84,136.08,303.91,Single-ply,SBD,M
Boys,74.84,NS,Miguel Carnero,Perryton,,,,,,Single-ply,SBD,M
Boys,74.84,NS,Levi Bednorz,Dumas,,,,,,Single-ply,SBD,M
Boys,74.84,NS,Solomon Porras,Dumas,,,,,,Single-ply,SBD,M
Boys,74.84,DQ,Brandon Guerrero,Memphis,74.84,,,,,Single-ply,SBD,M
Boys,74.84,DQ,Edgar Martinez,Memphis,74.84,,,,,Single-ply,SBD,M
Boys,74.84,NS,Christian Axelsen,Sunray,,,,,,Single-ply,SBD,M
Boys,74.84,DQ,Landon Oelke,Dalhart,74.03,,,,,Single-ply,SBD,M
Boys,74.84,NS,Jonathon Ruiz,Dumas,,,,,,Single-ply,SBD,M
Boys,74.84,NS,Lance Mullens,Amarillo Highland Park,,,,,,Single-ply,SBD,M
Boys,74.84,NS,Kennedy Prescott,Amarillo Highland Park,,,,,,Single-ply,SBD,M
Boys,74.84,NS,Jacobe Atwood,Vega,,,,,,Single-ply,SBD,M
Boys,74.84,NS,Alexis Mendoza,Sunray,,,,,,Single-ply,SBD,M
Boys,74.84,DQ,Britton Tarango,Perryton,69.49,165.56,,,,Single-ply,SBD,M
Boys,82.1,1,Dylan Winkle,Borger,80.47,224.53,127.01,226.8,578.33,Single-ply,SBD,M
Boys,82.1,2,Ty Brown,Borger,79.83,206.38,111.13,208.65,526.17,Single-ply,SBD,M
Boys,82.1,3,Isaac Moran,Dumas,79.02,183.7,102.06,192.78,478.54,Single-ply,SBD,M
Boys,82.1,4,Zack Lewis,Stinnett West Texas,81.1,192.78,88.45,183.7,464.93,Single-ply,SBD,M
Boys,82.1,5,Anthony Ortiz,Bovina,81.74,158.76,106.59,170.1,435.45,Single-ply,SBD,M
Boys,82.1,6,Tavish Lightner,Perryton,75.75,165.56,124.74,129.27,419.57,Single-ply,SBD,M
Boys,82.1,7,Jesus Romero,Dumas,76.02,154.22,97.52,165.56,417.3,Single-ply,SBD,M
Boys,82.1,8,Luis Davila,Dalhart,78.24,163.29,70.31,181.44,415.04,Single-ply,SBD,M
Boys,82.1,9,Grant Sherwood,Bushland,79.2,158.76,90.72,142.88,392.36,Single-ply,SBD,M
Boys,82.1,10,Jeremiah Detwiler,Dalhart,81.65,106.59,61.23,147.42,315.25,Single-ply,SBD,M
Boys,82.1,NS,Kit Watson,Bushland,,,,,,Single-ply,SBD,M
Boys,82.1,NS,Frank Byers,Bushland,,,,,,Single-ply,SBD,M
Boys,82.1,NS,Rafeal Montoya,Borger,,,,,,Single-ply,SBD,M
Boys,82.1,NS,Alex Zapata,Sunray,,,,,,Single-ply,SBD,M
Boys,82.1,DQ,Jd Allen,Canyon Randall,79.83,161.03,,,,Single-ply,SBD,M
Boys,89.81,1,Cj Litterell,Borger,88.63,201.85,142.88,199.58,544.31,Single-ply,SBD,M
Boys,89.81,2,Shawn Lindsey,Sunray,86,195.04,124.74,195.04,514.83,Single-ply,SBD,M
Boys,89.81,3,Tanner Halford,Dumas,87.72,197.31,83.91,213.19,494.42,Single-ply,SBD,M
Boys,89.81,4,Corey Carter,Stinnett West Texas,88.9,183.7,106.59,183.7,474,Single-ply,SBD,M
Boys,99.79,5,Gerardo Urquidiz,Sunray,89.9,192.78,92.99,185.97,471.74,Single-ply,SBD,M
Boys,89.81,6,Josh Hull,Sunray,87.45,172.37,111.13,181.44,464.93,Single-ply,SBD,M
Boys,89.81,7,Dylan Ewing,Stinnett West Texas,87.09,167.83,99.79,192.78,460.4,Single-ply,SBD,M
Boys,89.81,8,Rolando Perez,Bovina,89.45,163.29,117.93,176.9,458.13,Single-ply,SBD,M
Boys,89.81,9,Juan Chavira,Dalhart,88,165.56,104.33,176.9,446.79,Single-ply,SBD,M
Boys,89.81,10,Rowdy Speed,Clarendon,88.54,147.42,102.06,165.56,415.04,Single-ply,SBD,M
Boys,89.81,11,Jenaaro Hernandez,Dalhart,86.18,136.08,92.99,181.44,410.5,Single-ply,SBD,M
Boys,89.81,12,Max Zapata,Sunray,88.36,163.29,79.38,163.29,405.97,Single-ply,SBD,M
Boys,89.81,13,Alex Mejia,Bovina,87.82,136.08,99.79,165.56,401.43,Single-ply,SBD,M
Boys,89.81,14,Luis Tafoya,Bovina,85.91,142.88,92.99,158.76,394.63,Single-ply,SBD,M
Boys,89.81,15,Jesus Castaneda,Bovina,86.18,142.88,99.79,151.95,394.63,Single-ply,SBD,M
Boys,89.81,16,Gabe Marquez,Dalhart,85.77,158.76,77.11,151.95,387.82,Single-ply,SBD,M
Boys,89.81,17,Brady Brown,Perryton,86.82,147.42,88.45,142.88,378.75,Single-ply,SBD,M
Boys,89.81,18,Justin Curtis,Bovina,89.36,133.81,74.84,151.95,360.61,Single-ply,SBD,M
Boys,89.81,19,Javier Torres,Dalhart,84.78,133.81,70.31,149.69,353.8,Single-ply,SBD,M
Boys,89.81,20,David Ramirez,Dumas,86.18,133.81,79.38,136.08,349.27,Single-ply,SBD,M
Boys,89.81,NS,Tommy Inthirath,Dumas,,,,,,Single-ply,SBD,M
Boys,89.81,NS,Jesus Nevarez,Dumas,,,,,,Single-ply,SBD,M
Boys,89.81,DQ,Jacob Sprouse,Canyon Randall,88.18,136.08,,,,Single-ply,SBD,M
Boys,99.79,1,Brett Cummings,Stinnett West Texas,99.25,210.92,129.27,217.72,557.92,Single-ply,SBD,M
Boys,99.79,2,Zack Sperazza,Canyon Randall,91.35,190.51,127.01,192.78,510.29,Single-ply,SBD,M
Boys,99.79,3,Cameron Patterson,Dumas,97.98,188.24,113.4,204.12,505.76,Single-ply,SBD,M
Boys,99.79,4,Mason Cook,Vega,92.17,174.63,138.35,163.29,476.27,Single-ply,SBD,M
Boys,99.79,5,Brian Savedra,Canyon Randall,94.62,204.12,111.13,158.76,474,Single-ply,SBD,M
Boys,99.79,6,Cameron Cave,Amarillo Highland Park,97.43,181.44,95.25,181.44,458.13,Single-ply,SBD,M
Boys,99.79,7,Cole Campbell,Bushland,98.43,151.95,95.25,190.51,437.72,Single-ply,SBD,M
Boys,99.79,8,Issac DeLuna,Stinnett West Texas,93.26,136.08,83.91,149.69,369.68,Single-ply,SBD,M
Boys,99.79,9,Michael Lunde,Amarillo Highland Park,93.17,124.74,68.04,149.69,342.46,Single-ply,SBD,M
Boys,99.79,10,Colby Weber,Stinnett West Texas,96.8,124.74,79.38,115.67,319.78,Single-ply,SBD,M
Boys,99.79,11,Samual Mandujano,Perryton,94.8,108.86,88.45,120.2,317.51,Single-ply,SBD,M
Boys,99.79,12,Dutch White,Vega,98.61,70.31,83.91,74.84,229.06,Single-ply,SBD,M
Boys,99.79,NS,Jesse Villa,Sunray,,,,,,Single-ply,SBD,M
Boys,99.79,DQ,Octvius Ledbetter,Memphis,99.79,,,,,Single-ply,SBD,M
Boys,99.79,DQ,Mark Munoz,Memphis,99.79,,,,,Single-ply,SBD,M
Boys,109.77,1,Dallas Green,Borger,108.86,254.01,156.49,219.99,630.49,Single-ply,SBD,M
Boys,109.77,2,Kevin Bercerril,Perryton,107.86,197.31,124.74,170.1,492.15,Single-ply,SBD,M
Boys,109.77,3,Matt Knoll,Bovina,101.88,176.9,120.2,181.44,478.54,Single-ply,SBD,M
Boys,109.77,4,Aaron Castaneda,Bovina,100.79,174.63,108.86,154.22,437.72,Single-ply,SBD,M
Boys,109.77,5,Edwin Carrillo,Bovina,109.59,156.49,83.91,124.74,365.14,Single-ply,SBD,M
Boys,109.77,6,Angel Vera,Dumas,105.23,138.35,81.65,136.08,356.07,Single-ply,SBD,M
Boys,109.77,7,Weldon Wright,Perryton,107.05,145.15,74.84,124.74,344.73,Single-ply,SBD,M
Boys,109.77,8,Brady Roy,White Deer,103.42,113.4,79.38,136.08,328.85,Single-ply,SBD,M
Boys,109.77,DQ,Celso Guerrero,Memphis,109.77,,,,,Single-ply,SBD,M
Boys,109.77,NS,Chris Jasso,Dumas,,,,,,Single-ply,SBD,M
Boys,109.77,NS,Chris Shults,Clarendon,,,,,,Single-ply,SBD,M
Boys,109.77,NS,Nivardo Miranda,Borger,,,,,,Single-ply,SBD,M
Boys,124.74,DQ,Chance Geiger,Canyon Randall,109.86,158.76,,,,Single-ply,SBD,M
Boys,124.74,1,O'Scotty Castro,Dalhart,115.21,272.16,147.42,249.48,669.05,Single-ply,SBD,M
Boys,124.74,2,Trenton Merkel,Perryton,110.86,217.72,124.74,183.7,526.17,Single-ply,SBD,M
Boys,124.74,3,Cristian Murga,Dumas,112.85,183.7,106.59,213.19,503.49,Single-ply,SBD,M
Boys,124.74,4,Dallam Read,Dalhart,117.93,188.24,124.74,188.24,501.22,Single-ply,SBD,M
Boys,124.74,5,Carlos García,Sunray,112.04,190.51,113.4,170.1,474,Single-ply,SBD,M
Boys,124.74,6,Alex Favela,Borger,120.84,181.44,102.06,181.44,464.93,Single-ply,SBD,M
Boys,124.74,7,Hank Perez,Dumas,122.38,176.9,102.06,158.76,437.72,Single-ply,SBD,M
Boys,124.74,8,Cole Kennan,Dumas,117.03,124.74,90.72,145.15,360.61,Single-ply,SBD,M
Boys,124.74,9,Ty Fisher,Bushland,110.95,113.4,95.25,140.61,349.27,Single-ply,SBD,M
Boys,124.74,NS,Bradley Boucher,Perryton,,,,,,Single-ply,SBD,M
Boys,124.74,DQ,Brandon Turner,Memphis,124.74,,,,,Single-ply,SBD,M
Boys,124.74+,1,Marcus Burk,Canyon Randall,127.64,240.4,136.08,190.51,566.99,Single-ply,SBD,M
Boys,124.74+,2,Gary Silacci,Dalhart,127.46,206.38,133.81,215.46,555.65,Single-ply,SBD,M
Boys,124.74+,3,Fred McKinney,Borger,140.34,215.46,127.01,199.58,542.04,Single-ply,SBD,M
Boys,124.74+,4,Sunny Bhakta,Perryton,127.46,183.7,115.67,188.24,487.61,Single-ply,SBD,M
Boys,124.74+,5,Jobe Allen,Stinnett West Texas,137.26,181.44,111.13,161.03,453.59,Single-ply,SBD,M
Boys,124.74+,6,Jessie Enriques,Perryton,135.17,174.63,115.67,158.76,449.06,Single-ply,SBD,M
Boys,124.74+,7,Juan Delgado,Dalhart,129.27,170.1,117.93,142.88,430.91,Single-ply,SBD,M
Boys,124.74+,8,Wesley Escamilla,Amarillo Highland Park,154.86,158.76,86.18,170.1,415.04,Single-ply,SBD,M
