Division,WeightClassKg,Place,Name,Team,BodyweightKg,Best3SquatKg,Best3BenchKg,Best3DeadliftKg,TotalKg,Equipment,Event,Sex
Boys,51.71,1,Tyler Lacy,South Garland,51.71,113.4,56.7,136.08,306.17,Single-ply,SBD,M
Boys,51.71,2,Pablo Gutierrez,Mount Pleasant,48.08,95.25,52.16,111.13,258.55,Single-ply,SBD,M
Boys,55.79,1,Jordan Estell,North Mesquite,55.79,154.22,81.65,183.7,419.57,Single-ply,SBD,M
Boys,55.79,2,Juan Ottino,Mount Pleasant,53.98,133.81,74.84,124.74,333.39,Single-ply,SBD,M
Boys,55.79,3,Simeon Blow,North Mesquite,53.52,95.25,47.63,124.74,267.62,Single-ply,SBD,M
Boys,59.87,1,Isaiah Payne,Crandall,58.51,183.7,86.18,197.31,467.2,Single-ply,SBD,M
Boys,59.87,2,Dalton McWilliams,Lewisville Marcus,59.42,151.95,124.74,113.4,390.09,Single-ply,SBD,M
Boys,59.87,3,R Manning,South Garland,57.61,151.95,79.38,142.88,374.21,Single-ply,SBD,M
Boys,59.87,4,Clay Conway,Mabank,58.97,138.35,72.57,127.01,337.93,Single-ply,SBD,M
Boys,59.87,5,Jesus Perez,Mount Pleasant,58.51,122.47,68.04,136.08,326.59,Single-ply,SBD,M
Boys,59.87,6,Jonathan Palacious,Mount Pleasant,59.42,81.65,61.23,115.67,258.55,Single-ply,SBD,M
Boys,59.87,DQ,Tydreon Wilkerson,Mount Pleasant,58.51,,,,,Single-ply,SBD,M
Boys,67.13,1,A'Daireon Madlock,North Mesquite,66.22,204.12,90.72,226.8,521.63,Single-ply,SBD,M
Boys,67.13,2,Dominique Pierce,North Garland,67.13,170.1,90.72,174.63,435.45,Single-ply,SBD,M
Boys,67.13,3,Jackie Dang,Garland Rowlett,60.78,149.69,95.25,174.63,419.57,Single-ply,SBD,M
Boys,67.13,4,Tim Lewis,North Mesquite,66.22,142.88,79.38,158.76,381.02,Single-ply,SBD,M
Boys,67.13,5,Brady Manning,Mabank,65.77,129.27,83.91,140.61,353.8,Single-ply,SBD,M
Boys,67.13,6,Javier Macias,Mount Pleasant,61.69,120.2,70.31,142.88,333.39,Single-ply,SBD,M
Boys,67.13,7,Kelton Davis,South Garland,63.96,117.93,74.84,,192.78,Single-ply,SB,M
Boys,67.13,DQ,Adrian Higginbotham,Mabank,64.41,165.56,,,,Single-ply,SB,M
Boys,67.13,DQ,Kole Hartis,Crandall,60.78,131.54,,,,Single-ply,SB,M
Boys,74.84,1,Dominique McBride,North Mesquite,71.67,208.65,106.59,231.33,546.58,Single-ply,SBD,M
Boys,74.84,2,F Mowete,South Garland,72.12,156.49,106.59,181.44,444.52,Single-ply,SBD,M
Boys,74.84,3,Travion Holloman,Mount Pleasant,73.94,131.54,92.99,149.69,374.21,Single-ply,SBD,M
Boys,74.84,DQ,Mark Cornish,Mount Pleasant,68.04,,,,,Single-ply,SBD,M
Boys,74.84,DQ,V Jordan,South Garland,68.49,,,,,Single-ply,SBD,M
Boys,74.84,DQ,Joshua Martinez,Mount Pleasant,68.04,167.83,,,,Single-ply,SBD,M
Boys,74.84,DQ,Evan Rodden,Crandall,69.4,145.15,,,,Single-ply,SBD,M
Boys,74.84,DQ,Ruben Trinidad,Garland Rowlett,68.04,142.88,,,,Single-ply,SBD,M
Boys,82.1,1,Colt Conway,Mabank,76.66,229.06,117.93,197.31,544.31,Single-ply,SBD,M
Boys,82.1,2,Brett Mallon,Crandall,80.29,197.31,117.93,217.72,532.97,Single-ply,SBD,M
Boys,82.1,3,Alex Blessing,Lewisville Marcus,81.65,213.19,140.61,165.56,519.36,Single-ply,SBD,M
Boys,82.1,4,Andrew Turner,Mount Pleasant,80.74,190.51,111.13,190.51,492.15,Single-ply,SBD,M
Boys,82.1,5,Zach Ashman,Lewisville Marcus,78.47,174.63,113.4,185.97,474,Single-ply,SBD,M
Boys,82.1,6,Austin Persons,North Garland,81.28,174.63,106.59,174.63,455.86,Single-ply,SBD,M
Boys,82.1,7,Hunter Ryan,Crandall,81.19,176.9,95.25,179.17,451.32,Single-ply,SBD,M
Boys,89.81,8,Thai Ton,North Garland,82.33,204.12,83.91,158.76,446.79,Single-ply,SBD,M
Boys,82.1,9,Kelvin Ekhator,North Garland,77.11,163.29,,,163.29,Single-ply,S,M
Boys,82.1,DQ,J. Flowers,South Garland,77.11,,,,,Single-ply,S,M
Boys,89.81,1,Zane Koskelin,Mabank,86.18,229.06,140.61,210.92,580.6,Single-ply,SBD,M
Boys,89.81,2,Brenden Blunt,Crandall,85.73,188.24,131.54,190.51,510.29,Single-ply,SBD,M
Boys,89.81,3,Harley Royal,Mabank,86.18,192.78,127.01,188.24,508.02,Single-ply,SBD,M
Boys,89.81,4,Dalton Bramhall,Crandall,88.45,192.78,111.13,190.51,494.42,Single-ply,SBD,M
Boys,89.81,5,Ladarius Dickens,Garland Rowlett,83.01,176.9,104.33,208.65,489.88,Single-ply,SBD,M
Boys,89.81,6,Caleb Cisneros,Garland Rowlett,86.64,176.9,117.93,174.63,469.47,Single-ply,SBD,M
Boys,89.81,7,Philip Prather,North Mesquite,86.18,142.88,108.86,208.65,460.4,Single-ply,SBD,M
Boys,89.81,8,Zac Eskridge,Crandall,88.9,179.17,106.59,174.63,460.4,Single-ply,SBD,M
Boys,89.81,9,Orlando Pineda,North Garland,88.45,174.63,88.45,165.56,428.64,Single-ply,SBD,M
Boys,89.81,10,Kofi Obeng,North Garland,83.1,161.03,86.18,179.17,426.38,Single-ply,SBD,M
Boys,89.81,11,Dylan Clowdus,Mabank,85.73,138.35,97.52,158.76,394.63,Single-ply,SBD,M
Boys,89.81,DQ,Xavier Ewing,Mabank,83.91,183.7,,,,Single-ply,SBD,M
Boys,89.81,DQ,Alfred Villalobos,North Garland,83.73,,,,,Single-ply,SBD,M
Boys,99.79,1,David Brown,Crandall,97.98,210.92,124.74,206.38,542.04,Single-ply,SBD,M
Boys,99.79,2,Kevin Pouncil,North Mesquite,91.17,188.24,127.01,185.97,501.22,Single-ply,SBD,M
Boys,99.79,3,Edwin Robles,North Garland,96.34,201.85,102.06,197.31,501.22,Single-ply,SBD,M
Boys,99.79,4,C Alvarez,South Garland,97.07,165.56,111.13,181.44,458.13,Single-ply,SBD,M
Boys,99.79,5,Kade Norman,Mabank,92.53,165.56,108.86,158.76,433.18,Single-ply,SBD,M
Boys,99.79,DQ,Hawkins Taylor,Lewisville Marcus,97.52,,,,,Single-ply,SBD,M
Boys,99.79,DQ,Michael Banda,North Garland,91.63,165.56,,,,Single-ply,SBD,M
Boys,109.77,1,Jalon Scott,North Mesquite,106.59,272.16,131.54,244.94,648.64,Single-ply,SBD,M
Boys,109.77,2,Daniel Brown,Crandall,103.87,197.31,142.88,206.38,546.58,Single-ply,SBD,M
Boys,109.77,3,Salvador Romero,North Garland,103.06,215.46,113.4,204.12,532.97,Single-ply,SBD,M
Boys,109.77,4,Quentin Washington,Lewisville Marcus,104.33,192.78,147.42,192.78,532.97,Single-ply,SBD,M
Boys,109.77,5,Aj Wozniak,Lewisville Marcus,108.41,170.1,147.42,215.46,532.97,Single-ply,SBD,M
Boys,109.77,6,K Strong,South Garland,109.77,174.63,129.27,215.46,519.36,Single-ply,SBD,M
Boys,109.77,DQ,Branden Pierce,Mabank,102.97,154.22,,,,Single-ply,SBD,M
Boys,109.77,DQ,Oscar Marin,North Garland,102.06,174.63,,,,Single-ply,SBD,M
Boys,124.74,1,David Hogue,North Mesquite,117.03,238.14,131.54,213.19,582.87,Single-ply,SBD,M
Boys,124.74,2,M Engrum,South Garland,118.39,208.65,111.13,242.67,562.45,Single-ply,SBD,M
Boys,124.74,3,Jean De Lance,North Mesquite,117.93,195.04,115.67,226.8,537.51,Single-ply,SBD,M
Boys,124.74,4,Austin Tynes,Garland Rowlett,113.85,183.7,145.15,206.38,535.24,Single-ply,SBD,M
Boys,124.74,5,Noel Rojo,Mabank,115.21,204.12,122.47,188.24,514.83,Single-ply,SBD,M
Boys,124.74,6,Francisco Morales,Mount Pleasant,119.29,192.78,120.2,190.51,503.49,Single-ply,SBD,M
Boys,124.74,DQ,Nick Wood,Lewisville Marcus,118.39,,,,,Single-ply,SBD,M
Boys,124.74+,1,Will Wright,Mount Pleasant,150.59,272.16,163.29,217.72,653.17,Single-ply,SBD,M
Boys,124.74+,2,Dezmon Coleman,North Mesquite,125.19,197.31,136.08,208.65,542.04,Single-ply,SBD,M
Boys,124.74+,3,Dominick Farmer,Lewisville Marcus,125.65,226.8,124.74,188.24,539.77,Single-ply,SBD,M
Boys,124.74+,4,Jalen Brown,Mount Pleasant,136.53,165.56,147.42,208.65,521.63,Single-ply,SBD,M
Boys,124.74+,5,Andre Henderson,Garland Rowlett,127.91,183.7,124.74,183.7,492.15,Single-ply,SBD,M
